[
    {
        "category": "青少年教育", 
        "content": "近日，关注低龄留学的电视剧《小别离》热播，击中了不少正面临或经历着“小别离”的家长们的心。剧中的三个家庭，无论是普通工薪族、典型中产，还是“不差钱”的土豪，都面临着让孩子出国留学这一相同的问题。<p>留学的高昂费用、国内激烈的升学竞争、可预期的亲子关系疏离，使得家长们陷入两难。这部剧之所以会火，也正是因为戳中了当今中国家庭，特别是对子女教育有更高诉求的城市家庭的痛点。<p>留学不是解决现实问题的灵丹妙药，低龄留学中的小留学生和他们的家长更是面临着各种挑战。外滩君转载的这篇报道《中国学生留学美国低龄化》来自FT中文网，其中既有切近的个案，也有详实的数据，可以让我们从更宏观的视野来看待低龄留学这个现象。<p>中国学生留学美国低龄化<p>文 | 陈帼豪、&nbsp;史书华（FT中文网）6年前的一个中午，就读于辽宁大连一所寄宿学校的高一学生汪蓉（化名），正和她的同学们在门口等候午饭外卖。学校采用封闭式管理，一般情况下学生并不允许出校门。汪蓉记得，当时她的一个初中老师正好路过，跟他们开玩笑：“你看你们学校门都开着，但你们都齐刷刷地站在那条线以内。”“尽管学校没有把门关上，但实际上我们已经把自己关起来。” 汪蓉说。就是那条无形线，让汪蓉最终决定与父母一起前往美国，就读高中。像汪蓉一样到美国念高中的中国留学生愈来愈多，这一点已经可以从数据上看出端倪。中国教育部今年3月数据显示，中国出国留学人数在2015年继续上升，首次突破50万人。据联合国教科文组织（UNESCO）3月最新数据，美国是中国学生留学首选目的地，留学生人数远超英国、澳大利亚、加拿大。根据美国教育协会（IIE）发布的《开放报告2015》（Open Door Report 2015），从2007年到2015年，中国赴美国留学的人数每年保持两位数百分比增长，2014~2015学年也首次超过30万人，占全美国际学生总数的31.2％。当大量学生前往美国求学，中国留学生的组成样貌已发生变化。美国国土安全局及美国教育协会（IIE）的数据显示，近年来中国学生赴美就读本科、研究生仍为大宗，本科留学生人数在去年首次超过研究生，但两者增速皆放缓。相比之下，选择就读高中的人数近10年来增长强劲。自2004年至2015年，持有F-1国际学生签证在美就读高中的中国学生已从433人增至4.3万人，11年来增长将近百倍。<p><img src=\"http://www.liunar.net/articles/d1ccc3ddaa969e934156d00346f8263d/d1ccc3ddaa969e934156d00346f8263d-1.png\" /><p>不少中国学生家长决定让孩子在美国接受高中教育，目的就是为了更好地申请美国大学。来自浙江宁波、目前就读于美国阿拉巴马大学（University of Alabama，简称UA）的杨臻，在参加中考之前，他的父亲就希望他能去美国读高中，以便日后更容易地申请美国大学。坦承从小英语就不太好的他，高中毕业时托福仅拿70多分（满分120分），成绩并不算优秀。但美国有部分大学规定，若在美国或其他英语系国家就读高中满1到3年、或取得其高中毕业证书后，就能免托福成绩申请大学（仍需考美国大学标准化考试SAT）。杨臻在美读高中，意味着多了一道机会闯入美国好大学。”像我的（英文）成绩，如果是继续留在中国的话，就不可能进到我现在念的UA 。”他说。刚来美国时，他连用英语点外卖都不会，但高中在美学习让他的英语进步很多。而汪蓉的经历，说明了另外一个留学动机。从北卡罗莱纳州的一所公立高中毕业后，她目前就读于德雷塞尔大学（Drexel University）。由于汪蓉在高中阶段完成了很多美国大学先修课程（Advanced Placement），当她要申请美国大学时，除了能免考托福，还能免修部分课程，让她在大学既节省了时间、也节省了学费。也许在美国念高中有机会提升申请美国大学的竞争力，但花费并不是每个中国家庭都能承受。根据美国国土安全局规定，持F-1国际学生签证的国际学生大部分只能在美国公立高中学习一年。若想要孩子获得美国高中学位，中国家长大多会选择让孩子进入学费较为高昂的私立高中就读。根据美国国际教育协会（IIE）2014年的报告，持有美国F-1国际学生签证的国际高中生，有95%就读私立高中，就读公立高中的仅有5%。美国国家教育统计中心（Nation Center for Education Statistics）统计，美国私立高中的平均学费每年约1.3万美元，国际学生则须在此基础上缴纳不定额度的额外费用，而住宿学校的学费则更为高昂，每年大约1万至6万美元不等，比中国大陆普通高中学生每年缴纳的几百元至几千元不等的学杂费用明显高出好多倍。除了家庭经济压力，小留学生们背后的辛苦和成长代价，也是他们得独自面对的功课。来自南京的王琴（化名），2010年前往波士顿一所全美排名前十的私立高中就读。高中毕业，她收到美国布朗大学、宾夕法尼亚大学、西北大学以及英国牛津大学等名校的录取信，她最后选择前往英国牛津就读。王琴坦承，在美国高中的学习提升了她的学术能力，然而，她却认为这段经历并不利于青春期的个人成长。由于中美文化不同，人际交往存在差异性，“说实话，在社交上的经验不是很愉快。” 她甚至认为，如果自己若干年后成为母亲，不会选择把子女送出国独自读高中。除了人际交往需要适应，正值青春期的孩子若缺乏父母在身边适当的监护，也可能会产生脱序行为。杨臻说，他身边部分朋友，出国独自在私立学校学习，由于环境自由，手上也有一些自己管理的生活费，就开始购买奢侈品，同学之间相互攀比，更有甚者还荒废了学业。<p><img src=\"http://www.liunar.net/articles/d1ccc3ddaa969e934156d00346f8263d/d1ccc3ddaa969e934156d00346f8263d-2.png\" /><p>当中国的少男少女离开了国内学校那扇门， 进入一个陌生的国度后，一纸国外高中文凭能不能带来家长和学生期望中的未来？小留学生们的成长历程，也许已经超过学业，成为大洋彼岸的家长们更要密切关注的问题。", 
        "pageurl": "http://mp.weixin.qq.com/s?src=3&timestamp=1472073551&ver=1&signature=emxDqAo3Iwp1dSASnINdXYA0QN4OO3-pBECKj8jLStit8CT*b8eeSmd8CRpac14U1rbOR*mba61sidMozgeU8xNIjxFr8SOML7Cpp9P4Iy7SmyVWdAOTsDqBn-GMfJ1-Qdqh3FNbkVtdIFu4tP5uhNgTpuxMlHAhHoMFj*kDAMc=", 
        "create_time": "2016-08-24", 
        "description": "《小别离》剧照近日，关注低龄留学的电视剧《小别离》热播，击中了不少正面临或经历着“小别离”的家长们的心", 
        "title": "这样的“小别离”，在中国10年多了100倍", 
        "textContent": "《小别离》剧照近日，关注低龄留学的电视剧《小别离》热播，击中了不少正面临或经历着“小别离”的家长们的心。剧中的三个家庭，无论是普通工薪族、典型中产，还是“不差钱”的土豪，都面临着让孩子出国留学这一相同的问题。留学的高昂费用、国内激烈的升学竞争、可预期的亲子关系疏离，使得家长们陷入两难。这部剧之所以会火，也正是因为戳中了当今中国家庭，特别是对子女教育有更高诉求的城市家庭的痛点。留学不是解决现实问题的灵丹妙药，低龄留学中的小留学生和他们的家长更是面临着各种挑战。外滩君转载的这篇报道《中国学生留学美国低龄化》来自FT中文网，其中既有切近的个案，也有详实的数据，可以让我们从更宏观的视野来看待低龄留学这个现象。中国学生留学美国低龄化文 | 陈帼豪、&nbsp;史书华（FT中文网）6年前的一个中午，就读于辽宁大连一所寄宿学校的高一学生汪蓉（化名），正和她的同学们在门口等候午饭外卖。学校采用封闭式管理，一般情况下学生并不允许出校门。汪蓉记得，当时她的一个初中老师正好路过，跟他们开玩笑：“你看你们学校门都开着，但你们都齐刷刷地站在那条线以内。”“尽管学校没有把门关上，但实际上我们已经把自己关起来。” 汪蓉说。就是那条无形线，让汪蓉最终决定与父母一起前往美国，就读高中。像汪蓉一样到美国念高中的中国留学生愈来愈多，这一点已经可以从数据上看出端倪。中国教育部今年3月数据显示，中国出国留学人数在2015年继续上升，首次突破50万人。据联合国教科文组织（UNESCO）3月最新数据，美国是中国学生留学首选目的地，留学生人数远超英国、澳大利亚、加拿大。根据美国教育协会（IIE）发布的《开放报告2015》（Open Door Report 2015），从2007年到2015年，中国赴美国留学的人数每年保持两位数百分比增长，2014~2015学年也首次超过30万人，占全美国际学生总数的31.2％。当大量学生前往美国求学，中国留学生的组成样貌已发生变化。美国国土安全局及美国教育协会（IIE）的数据显示，近年来中国学生赴美就读本科、研究生仍为大宗，本科留学生人数在去年首次超过研究生，但两者增速皆放缓。相比之下，选择就读高中的人数近10年来增长强劲。自2004年至2015年，持有F-1国际学生签证在美就读高中的中国学生已从433人增至4.3万人，11年来增长将近百倍。不少中国学生家长决定让孩子在美国接受高中教育，目的就是为了更好地申请美国大学。来自浙江宁波、目前就读于美国阿拉巴马大学（University of Alabama，简称UA）的杨臻，在参加中考之前，他的父亲就希望他能去美国读高中，以便日后更容易地申请美国大学。坦承从小英语就不太好的他，高中毕业时托福仅拿70多分（满分120分），成绩并不算优秀。但美国有部分大学规定，若在美国或其他英语系国家就读高中满1到3年、或取得其高中毕业证书后，就能免托福成绩申请大学（仍需考美国大学标准化考试SAT）。杨臻在美读高中，意味着多了一道机会闯入美国好大学。”像我的（英文）成绩，如果是继续留在中国的话，就不可能进到我现在念的UA 。”他说。刚来美国时，他连用英语点外卖都不会，但高中在美学习让他的英语进步很多。而汪蓉的经历，说明了另外一个留学动机。从北卡罗莱纳州的一所公立高中毕业后，她目前就读于德雷塞尔大学（Drexel University）。由于汪蓉在高中阶段完成了很多美国大学先修课程（Advanced Placement），当她要申请美国大学时，除了能免考托福，还能免修部分课程，让她在大学既节省了时间、也节省了学费。也许在美国念高中有机会提升申请美国大学的竞争力，但花费并不是每个中国家庭都能承受。根据美国国土安全局规定，持F-1国际学生签证的国际学生大部分只能在美国公立高中学习一年。若想要孩子获得美国高中学位，中国家长大多会选择让孩子进入学费较为高昂的私立高中就读。根据美国国际教育协会（IIE）2014年的报告，持有美国F-1国际学生签证的国际高中生，有95%就读私立高中，就读公立高中的仅有5%。美国国家教育统计中心（Nation Center for Education Statistics）统计，美国私立高中的平均学费每年约1.3万美元，国际学生则须在此基础上缴纳不定额度的额外费用，而住宿学校的学费则更为高昂，每年大约1万至6万美元不等，比中国大陆普通高中学生每年缴纳的几百元至几千元不等的学杂费用明显高出好多倍。除了家庭经济压力，小留学生们背后的辛苦和成长代价，也是他们得独自面对的功课。来自南京的王琴（化名），2010年前往波士顿一所全美排名前十的私立高中就读。高中毕业，她收到美国布朗大学、宾夕法尼亚大学、西北大学以及英国牛津大学等名校的录取信，她最后选择前往英国牛津就读。王琴坦承，在美国高中的学习提升了她的学术能力，然而，她却认为这段经历并不利于青春期的个人成长。由于中美文化不同，人际交往存在差异性，“说实话，在社交上的经验不是很愉快。” 她甚至认为，如果自己若干年后成为母亲，不会选择把子女送出国独自读高中。除了人际交往需要适应，正值青春期的孩子若缺乏父母在身边适当的监护，也可能会产生脱序行为。杨臻说，他身边部分朋友，出国独自在私立学校学习，由于环境自由，手上也有一些自己管理的生活费，就开始购买奢侈品，同学之间相互攀比，更有甚者还荒废了学业。当中国的少男少女离开了国内学校那扇门， 进入一个陌生的国度后，一纸国外高中文凭能不能带来家长和学生期望中的未来？小留学生们的成长历程，也许已经超过学业，成为大洋彼岸的家长们更要密切关注的问题。", 
        "thumbnail": "/articles/d1ccc3ddaa969e934156d00346f8263d/d1ccc3ddaa969e934156d00346f8263d-1.png", 
        "source": "外滩教育"
    }, 
    {
        "category": "青少年教育", 
        "content": "越来越多海外出生长大的华裔少年被家长带到国内，送到与海外院校氛围近似的国际学校来强化中文。不少家长的制定的计划是1-2年在国内学习，为什么？对于中国人来说中文的运用能力无疑是重要的，如何学好中文对于100%教学语言是中文的传统学校似乎不是问题，而对于教学语言为英文的国际学校来说就很微妙了。多开语文课就能学好中文吗？好像受质疑最多的是语文教育。 ↓↓↓为什么学生会讨厌和害怕语文？那么，读国际学校的孩子应该如何保证中文能力？ ↓↓↓在国际校学中文 之自主阅读篇IB教育作为国际学校的标配项目，它的中文教学是如何实施探究式的学习方式呢，怎么学怎么教一直是被家长关注很高的部分。特转载素材《80后女小说家教了5年IB中文课，这才是孩子最需要的语文课》源自外滩教育平台（TBEducation）我们已经获得转载授权，在此鸣谢。看点&nbsp; 对选择IB课程的中国学生来说，IB中文是一门特别的必修课。那么，IB中文课和传统语文课有什么不同？一位作家教授IB中文课又有什么特色？80后小说家钱佳楠现正在美国爱荷华大学攻读创意写作艺术硕士。之前，她在上海世界外国语中学教了5年IB中文课。赴美之前，钱佳楠接受了外滩君的采访，这是她第一次以教师的身份与媒体交流。她说，她非常享受IBDP课程，“比起传统语文，IB中文课非常重视逻辑思维训练”。文 | 严柳晴 &nbsp;摄影 | 晓黒编辑 | 闻琛外滩君最早知道钱佳楠的名字，是看到她发表在网易人间频道上的一篇散文，写一处城市空间，活色生香。于是，外滩君特意搜索了她的信息，知道她是当今小说界新锐，上海作协签约作家，获得过台湾时报小说奖。还看到书评家这样评价她：“她是一个有勇气的小说家，敢于直面自身，潜入城市污泥遍布的‘河床’，对都市的底层生态进行了非常冷静的尖锐书写。”直到今年，外滩君才得知，除了“小说家”的身份之外，她还是一名IB教师，执教已五年有余。有趣的是，虽然不见其人，关于她的传说却源源不断。外滩教育曾报道的世外IB满分女生，正巧是钱佳楠的学生。我们从她口中了解到了课堂里的钱佳楠：“她很有个人魅力，很耐心，会在作业上作详细的评注，有超强的逻辑能力和按图索骥、爬梳线索的本领。”<img src=\"http://www.liunar.net/articles/90cb08566e2e471100adf9eca242903a/90cb08566e2e471100adf9eca242903a-0.png\" />▲ 对学生作业的批注她是学生眼里“经历丰富、极富个人魅力的人”。2010年，她从复旦大学中文系毕业，在世界外国语中学担任IB教师。今年9月，她又将重回校园——赴美国爱荷华大学，攻读创意写作专业硕士学位。爱荷华创意写作班是小说家的摇篮，目前只录取过极个别中国大陆学生。这位80后小说家，在她的个人微信号中告知读者：“珍惜上天赐予的机会，即将和白先勇、弗兰纳-奥康纳、雷蒙德-卡佛等杰出作家成为系友。”在启程赴美之前，钱佳楠以书信的方式，与自己的教师生涯暂别。告别故土之前，全球IB大考放榜，她所教授的班级，在考试中获得6.2的高分（满分7分）。“我很感激这5年在世外度过的岁月……我非常享受IBDP课程，也很希望将享受知识的欢愉传递给你们。”离别之际，在一封给学生的公开信中，钱佳楠写道：“很多人在讨论课里，感到自己的思维像一颗种子一般发芽了。”“在整个中文课堂里，我最喜欢的环节，莫过于听到一堂出色的讨论课，把讲台和黑板留给你们，看你们口若悬河，看你们如何应对同伴的质疑，看你们如何在一次次准备中将逻辑链条建立牢固。”<img src=\"http://www.liunar.net/articles/90cb08566e2e471100adf9eca242903a/90cb08566e2e471100adf9eca242903a-1.png\" /><p>▲ 给学生的信截图钱佳楠接受了外滩教育的采访，这也是她第一次以教师的身份与媒体交流。钱佳楠说，她爱教书，但没想过“怎么做老师”，只是自己爱文学，愿意将全部积累倾囊相授。要说“老师”与“作家”有什么关联，钱佳楠想了想说，可能因为自己写作小说，对文本更加敏感，知道哪里藏着“包袱”，所以能和学生一起，顺藤摸瓜，找到它。B=外滩教育 &nbsp; Q=钱佳楠“我不像一个老师”B：别人一直以为你是小说家，有没有考虑过“该怎么做老师”？<p>Q：我不是很像老师的人。别人一提起老师，形象千篇一律——严肃，不苟言笑，见了就想打瞌睡。我不想成为那样的老师。我做老师，初衷简单：我很喜欢文学，希望把自己对文学的喜欢，传达给他们，文学很好玩，人人可以学，没有高门槛。所以，我思考的问题不是“怎么做老师”，而是“怎么告诉你文学的魅力”。比如，这个技巧很有意思，这个用词很巧妙，我怎么让你知道其中的门道？我会想办法，设计游戏等，让你参与。比如，白先勇的小说《一把青》，上、下两篇，朱青经历新婚丈夫的生死之劫，从“上篇”中的痴情小女生，变成了“下篇”中的冷漠妇人。小说中，朱青的第二任男朋友小顾，空难死了。朱青一边炒菜，一边头也不回地对师娘说：“小顾的事，师娘也知道了吧？”一边炒菜，一边回头对师娘说：“师娘尝尝我的麻婆豆腐，够味了没？”朱青为什么要在炒菜过程中，交代生死大事？“吃”本来是一个非常轻松的事情，吃的过程中，不用动脑子。两个人调和矛盾，你要请他吃个饭。在这过程中，把生死轻而易举地交代了。生死大事和炒菜这件小事放在一起，就能看到朱青的心态：死亡无法激起任何涟漪。B：在你的课堂上，会涉及多学科的知识吗？<p>Q：会的。有个学生写信给我，他写道，当年在课堂上读《局外人》，成长很多。《局外人》的主人公，没有在母亲的葬礼上流泪，被判死刑。学生说，主人公就是十恶不赦，简直就是“局内人”。<img src=\"http://www.liunar.net/articles/90cb08566e2e471100adf9eca242903a/90cb08566e2e471100adf9eca242903a-3.jpeg\" />怎么让他们转换思路？我举了一个现实中的例子。一男子错手杀人，恰巧这男人就是个富二代，媒体在报道的时候，为博眼球，会这样写：富二代杀人，不顾而去。引发激烈社会舆论，富人成为众矢之的。如果你是穷人，你怎么看？如果你是富人，你怎么看？穷人就理应被同情？富人就该被鞭挞？这样就能把文本和眼前的社会事件联系起来。从一个文本出发，我们会讨论到法律、存在主义哲学、女性主义等。再比如，鲁迅的文本《药》，鲁迅对启蒙者有微词，怎么让学生看到他的言外之意？《药》中有一句话，夏瑜对“红眼睛”阿义说，大清天下是咱们家的。“红眼睛”阿义说，这不是反了吗？一节课讲到最后，我问学生：你们觉得夏瑜启蒙民众的方式，是否有问题？如果你是启蒙者，怎么告诉阿义，“大清天国是咱们家的”？基督教最早到非洲去传教，他们给当地人治病、给食物。在这个过程中，老百姓知道，“你给我带来福音”——从另一个角度去阐述，可以让学生对文本发生兴趣。B：高中生思维活跃，但没法持续性地思考，老师该怎样帮助他们？<p>Q：所以，老师的提问，不能期待“一步到位”的标准答案。老师出一个问题，学生自己走几步，老师给一个提示，他们再走几步……循环往复。我希望他们走得越远越好。<p>B：是否会出现这样的状况，学生在课堂上“脑洞大开”，却无法形成一个完整的逻辑链条？<p>Q：任何一个文本都可以脑洞大开，但最终，课堂应当引导人，沿着一条路深入走下去。比如说，讨论《霍乱时期的爱情》，在任何地方，都可以脑洞大开。比如，小说最后提到的一艘船，和圣经提到的诺亚方舟好像有联系，女主人的服装，可能包含特定的意义……<img src=\"http://www.liunar.net/articles/90cb08566e2e471100adf9eca242903a/90cb08566e2e471100adf9eca242903a-4.png\" />“脑洞大开”不是问题。但关键点不在“脑洞大开”，而是怎么让一个问题被深入阐释，从而产生异议。每堂课的讨论，都要围绕一个问题，使问题深入。更重要的是，不能流于比较浅显的“脑洞”，而要形成完整的思维体系。就以船和圣经的隐喻为例，讨论不止在“文本中的船与诺亚方舟有关系”，而是“这个文本中的‘船’和圣经中所描述的诺亚方舟，差异究竟在哪里。”思维的广度比深度更重要，思维的广度好实现，深度却需要训练。”“IB与传统教学最大区别在‘参考答案’B：你曾说教IB的乐趣，在于“学生的改变”。IB教育带来的改变，和传统教育有何区别？<p>Q： 最大的区别可能在“参考答案”—我们当年的教育，无论什么学科，都有参考答案，语文也一样。当年的我们，做现代文阅读时，都会觉得答案有点牵强。老师必须“生拉硬扯”地解释，答案是正确的。在IB的教学中，没有参考答案。针对一个问题，希望学生得出不一样的答案，我希望他们“吵起来”。激起争论，互相说服对方，说服我。可能，在这个过程中，学生提出：“我不接受你的观点，这细节暗示并不是你所说的意思”。在当时的课堂上，他可能只是一个感觉：“不接受”。可贵的是，他对自己的“叛逆之心”负责，有心找例证，试图说服我。如果我发现有个学生第二天说服我，我就很开心，因为他对这件事感兴趣了。B：IB注重逻辑，这可能是与传统语文教学非常不同的地方？<p>Q：比起传统语文课程，IB中文课非常重视逻辑思维训练。这样的训练，对人的未来发展十分必要：当你做一件事情，寻找伙伴，介绍你的项目时，能否有条不紊地陈述自己，说服别人？IB中文课程对文学的要求高，但我并不是去培养文学家。我们学文学，也是学习IB的一些理念：独立做判断的能力；怎样用合理的方式，陈述你的观点；如何把观点变得有说服力；如何读出文本间字里行间的意思。<p>B：怎样在遵循逻辑的同时，也尊重学生的想法？<p>Q：我碰到的老师非常好，允许对“参考答案”提出异议。有了参考答案之后，老师也会受影响。故意将他们往参考答案上面引。把参考答案放掉，直接看文本，真实的感受是什么？学生和我的感受是相似的。只有我尊重了真实感受之后，才能引导他们进一步思考。我羡慕学生们，他们处在最早的状态，不知道成为怎样的人，什么职业。文学最好的状态就是这样，有无限的可能性，不被条条框框所束缚。B：IB课程注重学生的主动性，老师怎么去引导学生？<p>Q：比如，我们上第一部分“翻译文学”时，学生需要上讨论课，这个过程对他们影响很大。第一步，在文本细读中，得到一个概念；第二步，给一个PPT，上面写着具体方案。如果要发起一节讨论课，他们必须设计一系列的问题，这些问题呈现为阶梯，由浅入深，问题与问题之间有关联。解释完一个问题后，再导向更深的问题。一开始，有些学生逻辑不对，问题前后无关联。这时，我会帮他们慢慢纠正。他们会知道，原来逻辑是这样的。在这个过程中，还要帮助学生，有学生会问我：“我向同学提问，同学的反应往岔路走，怎么办？”这时我会告诉他，你可以设计一些提示。为了不往岔路走，就得在“主干道”上设计提示。有些同学问：“如果我在讲，同学睡觉，怎么办？”那我会告诉他，去插一些图片、视频。这样他们就会慢慢知道，怎样才会成为一个吸引别人的讲课人。B：这些有很大改变的学生，本来适合读IB吗？<p>Q：不一定。我任教的世外中学很多元，算是一个“兼容并包”的学校。学生很不一样，有人外向，也有一些腼腆，有些基础好，也有人偏科。本来，偏科生不适合IB，因为IB需要均衡；腼腆可能本不适合IB，因为课程需要许多口头展示——但是，即使是这些看似“不适合IB”的学生，也会有变化。腼腆的学生，经过一系列训练，口头训练、社会活动、组织讨论课，不断地挑战自我。更有意思的是，本来“偏科”的理科生，中文却学得很好，因为IB的表达注重逻辑。这些偏科的理科生，展示了自己的强项，他也不会抗拒文学知识。所以，我的观点是，不一定得确认“适合读IB”，再选择IB课程。有些学生确实是读了IB之后，才发生了改变。&nbsp;B：选择文本的时候，怎么照顾多样性？<p>Q：文本不完全是我来做主，需要和部门商量。选择作品有几重考量：第一，作品是值得学的，比如，鲁迅作品。有些作品，文学性很强，也适合IB考试，也会选入其中，比如白先勇的作品。有些作品可以给学生开开眼界，我们也会斟酌，比如世外的课程就加入了“电影与文学”。今年的文本中，我加入了非虚构文学。许多家长担心，在文学中，很多作品呈现任性的阴暗面。十五六岁的学生，能否抵御阴暗？我的建议是，与其让他回避阴暗，不如给他一点力量。所以我想让他们在初中毕业、进入高中的第一年，学习富有力量的作品。比如齐邦媛的《巨流河》，在抗战的那一环节，即便家园陷落，前路未知时，心中依然充满力量。只要人内心中有光、有希望，无论是文学、还是社会的阴暗面，自有力量。", 
        "pageurl": "http://mp.weixin.qq.com/s?src=3&timestamp=1472073550&ver=1&signature=E112p*JjYt3nzoRB7t0HzACOPhETAd2q1qW9WedHwju4*VmlLzClL1aCUOL-pU4w*hnN8oxab4AseUvQLLer9AELkh9ChHrPR2jBMt0U5JuRcZroVnD*v-0SVAGkMgcXUJsju5a7ZR85bSx4U52ZbEpsNSPRBsULR8mFe-Og6K8=", 
        "create_time": "2016-08-24", 
        "description": "越来越多海外出生长大的华裔少年被家长带到国内，送到与海外院校氛围近似的国际学校来强化中文", 
        "title": "80后小说家教了5年IB中文，这才是孩子最需要的语文课", 
        "textContent": "越来越多海外出生长大的华裔少年被家长带到国内，送到与海外院校氛围近似的国际学校来强化中文。不少家长的制定的计划是1-2年在国内学习，为什么？对于中国人来说中文的运用能力无疑是重要的，如何学好中文对于100%教学语言是中文的传统学校似乎不是问题，而对于教学语言为英文的国际学校来说就很微妙了。多开语文课就能学好中文吗？好像受质疑最多的是语文教育。 ↓↓↓为什么学生会讨厌和害怕语文？那么，读国际学校的孩子应该如何保证中文能力？ ↓↓↓在国际校学中文 之自主阅读篇IB教育作为国际学校的标配项目，它的中文教学是如何实施探究式的学习方式呢，怎么学怎么教一直是被家长关注很高的部分。特转载素材《80后女小说家教了5年IB中文课，这才是孩子最需要的语文课》源自外滩教育平台（TBEducation）我们已经获得转载授权，在此鸣谢。看点&nbsp; 对选择IB课程的中国学生来说，IB中文是一门特别的必修课。那么，IB中文课和传统语文课有什么不同？一位作家教授IB中文课又有什么特色？80后小说家钱佳楠现正在美国爱荷华大学攻读创意写作艺术硕士。之前，她在上海世界外国语中学教了5年IB中文课。赴美之前，钱佳楠接受了外滩君的采访，这是她第一次以教师的身份与媒体交流。她说，她非常享受IBDP课程，“比起传统语文，IB中文课非常重视逻辑思维训练”。文 | 严柳晴 &nbsp;摄影 | 晓黒编辑 | 闻琛外滩君最早知道钱佳楠的名字，是看到她发表在网易人间频道上的一篇散文，写一处城市空间，活色生香。于是，外滩君特意搜索了她的信息，知道她是当今小说界新锐，上海作协签约作家，获得过台湾时报小说奖。还看到书评家这样评价她：“她是一个有勇气的小说家，敢于直面自身，潜入城市污泥遍布的‘河床’，对都市的底层生态进行了非常冷静的尖锐书写。”直到今年，外滩君才得知，除了“小说家”的身份之外，她还是一名IB教师，执教已五年有余。有趣的是，虽然不见其人，关于她的传说却源源不断。外滩教育曾报道的世外IB满分女生，正巧是钱佳楠的学生。我们从她口中了解到了课堂里的钱佳楠：“她很有个人魅力，很耐心，会在作业上作详细的评注，有超强的逻辑能力和按图索骥、爬梳线索的本领。”▲ 对学生作业的批注她是学生眼里“经历丰富、极富个人魅力的人”。2010年，她从复旦大学中文系毕业，在世界外国语中学担任IB教师。今年9月，她又将重回校园——赴美国爱荷华大学，攻读创意写作专业硕士学位。爱荷华创意写作班是小说家的摇篮，目前只录取过极个别中国大陆学生。这位80后小说家，在她的个人微信号中告知读者：“珍惜上天赐予的机会，即将和白先勇、弗兰纳-奥康纳、雷蒙德-卡佛等杰出作家成为系友。”在启程赴美之前，钱佳楠以书信的方式，与自己的教师生涯暂别。告别故土之前，全球IB大考放榜，她所教授的班级，在考试中获得6.2的高分（满分7分）。“我很感激这5年在世外度过的岁月……我非常享受IBDP课程，也很希望将享受知识的欢愉传递给你们。”离别之际，在一封给学生的公开信中，钱佳楠写道：“很多人在讨论课里，感到自己的思维像一颗种子一般发芽了。”“在整个中文课堂里，我最喜欢的环节，莫过于听到一堂出色的讨论课，把讲台和黑板留给你们，看你们口若悬河，看你们如何应对同伴的质疑，看你们如何在一次次准备中将逻辑链条建立牢固。”▲ 给学生的信截图钱佳楠接受了外滩教育的采访，这也是她第一次以教师的身份与媒体交流。钱佳楠说，她爱教书，但没想过“怎么做老师”，只是自己爱文学，愿意将全部积累倾囊相授。要说“老师”与“作家”有什么关联，钱佳楠想了想说，可能因为自己写作小说，对文本更加敏感，知道哪里藏着“包袱”，所以能和学生一起，顺藤摸瓜，找到它。B=外滩教育 &nbsp; Q=钱佳楠“我不像一个老师”B：别人一直以为你是小说家，有没有考虑过“该怎么做老师”？Q：我不是很像老师的人。别人一提起老师，形象千篇一律——严肃，不苟言笑，见了就想打瞌睡。我不想成为那样的老师。我做老师，初衷简单：我很喜欢文学，希望把自己对文学的喜欢，传达给他们，文学很好玩，人人可以学，没有高门槛。所以，我思考的问题不是“怎么做老师”，而是“怎么告诉你文学的魅力”。比如，这个技巧很有意思，这个用词很巧妙，我怎么让你知道其中的门道？我会想办法，设计游戏等，让你参与。比如，白先勇的小说《一把青》，上、下两篇，朱青经历新婚丈夫的生死之劫，从“上篇”中的痴情小女生，变成了“下篇”中的冷漠妇人。小说中，朱青的第二任男朋友小顾，空难死了。朱青一边炒菜，一边头也不回地对师娘说：“小顾的事，师娘也知道了吧？”一边炒菜，一边回头对师娘说：“师娘尝尝我的麻婆豆腐，够味了没？”朱青为什么要在炒菜过程中，交代生死大事？“吃”本来是一个非常轻松的事情，吃的过程中，不用动脑子。两个人调和矛盾，你要请他吃个饭。在这过程中，把生死轻而易举地交代了。生死大事和炒菜这件小事放在一起，就能看到朱青的心态：死亡无法激起任何涟漪。B：在你的课堂上，会涉及多学科的知识吗？Q：会的。有个学生写信给我，他写道，当年在课堂上读《局外人》，成长很多。《局外人》的主人公，没有在母亲的葬礼上流泪，被判死刑。学生说，主人公就是十恶不赦，简直就是“局内人”。怎么让他们转换思路？我举了一个现实中的例子。一男子错手杀人，恰巧这男人就是个富二代，媒体在报道的时候，为博眼球，会这样写：富二代杀人，不顾而去。引发激烈社会舆论，富人成为众矢之的。如果你是穷人，你怎么看？如果你是富人，你怎么看？穷人就理应被同情？富人就该被鞭挞？这样就能把文本和眼前的社会事件联系起来。从一个文本出发，我们会讨论到法律、存在主义哲学、女性主义等。再比如，鲁迅的文本《药》，鲁迅对启蒙者有微词，怎么让学生看到他的言外之意？《药》中有一句话，夏瑜对“红眼睛”阿义说，大清天下是咱们家的。“红眼睛”阿义说，这不是反了吗？一节课讲到最后，我问学生：你们觉得夏瑜启蒙民众的方式，是否有问题？如果你是启蒙者，怎么告诉阿义，“大清天国是咱们家的”？基督教最早到非洲去传教，他们给当地人治病、给食物。在这个过程中，老百姓知道，“你给我带来福音”——从另一个角度去阐述，可以让学生对文本发生兴趣。B：高中生思维活跃，但没法持续性地思考，老师该怎样帮助他们？Q：所以，老师的提问，不能期待“一步到位”的标准答案。老师出一个问题，学生自己走几步，老师给一个提示，他们再走几步……循环往复。我希望他们走得越远越好。B：是否会出现这样的状况，学生在课堂上“脑洞大开”，却无法形成一个完整的逻辑链条？Q：任何一个文本都可以脑洞大开，但最终，课堂应当引导人，沿着一条路深入走下去。比如说，讨论《霍乱时期的爱情》，在任何地方，都可以脑洞大开。比如，小说最后提到的一艘船，和圣经提到的诺亚方舟好像有联系，女主人的服装，可能包含特定的意义……“脑洞大开”不是问题。但关键点不在“脑洞大开”，而是怎么让一个问题被深入阐释，从而产生异议。每堂课的讨论，都要围绕一个问题，使问题深入。更重要的是，不能流于比较浅显的“脑洞”，而要形成完整的思维体系。就以船和圣经的隐喻为例，讨论不止在“文本中的船与诺亚方舟有关系”，而是“这个文本中的‘船’和圣经中所描述的诺亚方舟，差异究竟在哪里。”思维的广度比深度更重要，思维的广度好实现，深度却需要训练。”“IB与传统教学最大区别在‘参考答案’B：你曾说教IB的乐趣，在于“学生的改变”。IB教育带来的改变，和传统教育有何区别？Q： 最大的区别可能在“参考答案”—我们当年的教育，无论什么学科，都有参考答案，语文也一样。当年的我们，做现代文阅读时，都会觉得答案有点牵强。老师必须“生拉硬扯”地解释，答案是正确的。在IB的教学中，没有参考答案。针对一个问题，希望学生得出不一样的答案，我希望他们“吵起来”。激起争论，互相说服对方，说服我。可能，在这个过程中，学生提出：“我不接受你的观点，这细节暗示并不是你所说的意思”。在当时的课堂上，他可能只是一个感觉：“不接受”。可贵的是，他对自己的“叛逆之心”负责，有心找例证，试图说服我。如果我发现有个学生第二天说服我，我就很开心，因为他对这件事感兴趣了。B：IB注重逻辑，这可能是与传统语文教学非常不同的地方？Q：比起传统语文课程，IB中文课非常重视逻辑思维训练。这样的训练，对人的未来发展十分必要：当你做一件事情，寻找伙伴，介绍你的项目时，能否有条不紊地陈述自己，说服别人？IB中文课程对文学的要求高，但我并不是去培养文学家。我们学文学，也是学习IB的一些理念：独立做判断的能力；怎样用合理的方式，陈述你的观点；如何把观点变得有说服力；如何读出文本间字里行间的意思。B：怎样在遵循逻辑的同时，也尊重学生的想法？Q：我碰到的老师非常好，允许对“参考答案”提出异议。有了参考答案之后，老师也会受影响。故意将他们往参考答案上面引。把参考答案放掉，直接看文本，真实的感受是什么？学生和我的感受是相似的。只有我尊重了真实感受之后，才能引导他们进一步思考。我羡慕学生们，他们处在最早的状态，不知道成为怎样的人，什么职业。文学最好的状态就是这样，有无限的可能性，不被条条框框所束缚。B：IB课程注重学生的主动性，老师怎么去引导学生？Q：比如，我们上第一部分“翻译文学”时，学生需要上讨论课，这个过程对他们影响很大。第一步，在文本细读中，得到一个概念；第二步，给一个PPT，上面写着具体方案。如果要发起一节讨论课，他们必须设计一系列的问题，这些问题呈现为阶梯，由浅入深，问题与问题之间有关联。解释完一个问题后，再导向更深的问题。一开始，有些学生逻辑不对，问题前后无关联。这时，我会帮他们慢慢纠正。他们会知道，原来逻辑是这样的。在这个过程中，还要帮助学生，有学生会问我：“我向同学提问，同学的反应往岔路走，怎么办？”这时我会告诉他，你可以设计一些提示。为了不往岔路走，就得在“主干道”上设计提示。有些同学问：“如果我在讲，同学睡觉，怎么办？”那我会告诉他，去插一些图片、视频。这样他们就会慢慢知道，怎样才会成为一个吸引别人的讲课人。B：这些有很大改变的学生，本来适合读IB吗？Q：不一定。我任教的世外中学很多元，算是一个“兼容并包”的学校。学生很不一样，有人外向，也有一些腼腆，有些基础好，也有人偏科。本来，偏科生不适合IB，因为IB需要均衡；腼腆可能本不适合IB，因为课程需要许多口头展示——但是，即使是这些看似“不适合IB”的学生，也会有变化。腼腆的学生，经过一系列训练，口头训练、社会活动、组织讨论课，不断地挑战自我。更有意思的是，本来“偏科”的理科生，中文却学得很好，因为IB的表达注重逻辑。这些偏科的理科生，展示了自己的强项，他也不会抗拒文学知识。所以，我的观点是，不一定得确认“适合读IB”，再选择IB课程。有些学生确实是读了IB之后，才发生了改变。&nbsp;B：选择文本的时候，怎么照顾多样性？Q：文本不完全是我来做主，需要和部门商量。选择作品有几重考量：第一，作品是值得学的，比如，鲁迅作品。有些作品，文学性很强，也适合IB考试，也会选入其中，比如白先勇的作品。有些作品可以给学生开开眼界，我们也会斟酌，比如世外的课程就加入了“电影与文学”。今年的文本中，我加入了非虚构文学。许多家长担心，在文学中，很多作品呈现任性的阴暗面。十五六岁的学生，能否抵御阴暗？我的建议是，与其让他回避阴暗，不如给他一点力量。所以我想让他们在初中毕业、进入高中的第一年，学习富有力量的作品。比如齐邦媛的《巨流河》，在抗战的那一环节，即便家园陷落，前路未知时，心中依然充满力量。只要人内心中有光、有希望，无论是文学、还是社会的阴暗面，自有力量。", 
        "thumbnail": "/articles/90cb08566e2e471100adf9eca242903a/90cb08566e2e471100adf9eca242903a-4.png", 
        "source": "世青国际教育研究中心"
    }, 
    {
        "category": "本地生活", 
        "content": "<p>宋丹丹的母亲周一去世了，她在微博发消息说“我母亲于今晨三点四十分去世，临终前我一直拉着她的手”，引来粉丝10万多条评论，30多万个点赞，大家面对亲人离世，总是感同身受，纷纷劝慰她“节哀”。<p><img src=\"http://www.liunar.net/articles/7720c630eebc459b45c6568f7b3a6201/7720c630eebc459b45c6568f7b3a6201-1.jpeg\" /><p>照片中，宋丹丹和母亲肩并肩，头靠头，嘴角微微上翘，眉宇间透着安静祥和。<p>然而我却被她之前发的一条微博感动得泪目，凝视着久久不能平静。<p>母亲生命垂危，不知何故唯有拉着手才睡得踏实安稳，我便这样拉着～我也踏实安稳⋯⋯儿子巴图把它拍下来拿给我看，我说：“有一天你也要这样拉着我呢⋯⋯”<p><img src=\"http://www.liunar.net/articles/7720c630eebc459b45c6568f7b3a6201/7720c630eebc459b45c6568f7b3a6201-2.jpeg\" />一个母亲，在她生命渐渐微弱的时刻，拉着女儿的手，告别这个世界便有了勇气和力量，而女儿的心灵也得到了安放和宽慰。两个人的表情也都如此安详而沉静，但生死离别的忧伤，还是静静地从画面中流淌出来。拍这些照片的，是外孙巴图，当他按下快门那一刻，内心一定是哀伤却又平和的。<p>1<p>我怕你受委屈&nbsp;我自然而然想到了我那早已满头白发的妈妈，她现在身体还算硬朗，但相比7年前帮我带小拍时，真的不知不觉又老了许多。妈妈也会有那一天……每当我脑袋里闪现这念头的刹那，不听话的眼泪就要夺眶而出。我想，这应该是我人生中永远难以承受的重量，也是我最不愿意面对的时刻。小拍出生之前，我还没开口问妈妈是否愿意帮我带孩子，她就主动打电话来说：“我左想右想，你每天上班那么远，没个人帮你带孩子是不行，就算婆婆愿意带，我也怕你受委屈。”我本想在他们面前逞强说自己能行，她紧接着却说：“还是我帮你带吧，别麻烦你婆婆了。”这其实是我内心深处最想要的结果，可每次想到爸妈一直以来实在不适应大城市的生活，住几天就吵着要回去，我迟迟犹豫着不敢开口。但我没想到，不善表达情感的妈妈，仅仅是怕我受委屈，就在老家为我辗转反侧，和爸爸考虑和纠结良久，最终放下他们心中的执念，一切为我。他们辛苦了半辈子，原本可以在老家安享晚年的，但他们的一颗心始终系在儿女身上。<img src=\"http://www.liunar.net/articles/7720c630eebc459b45c6568f7b3a6201/7720c630eebc459b45c6568f7b3a6201-3.jpeg\" />养儿方知父母恩啊！上上周在朋友圈分享堵奶让小拍吸通的经历，一个妈妈在下面留言，说她月子里堵了几次奶，让老公吸，他说吸不出，最后竟是亲妈给自己吸通了。她说，妈妈趴在自己胸前吸奶的那一刻，忍不住掉泪了。“想想20多年前，我在她怀里吃她的奶长大，现在换作她趴在我胸前，吸得满头大汗，却是为了不让我受罪。”我看着也默默垂泪。有句话说得好，总有一天，你会知道，父母是你花心思最少，花时间最少，却爱你最多的人。<p>2<p>美好的片段被我们遗忘了&nbsp;我们总是看见很多文章在讲述，上一代父母不懂教育，不尊重孩子，不会放手，老了还没有界限感……无数人说起自己的童年，总有不愉快的经历难以释怀，我们抱怨父母总是不理解我们，可我们，又何尝理解过他们？想想在他们那个年代，没有我们这么便捷获取信息的方式，也没有不断学习育儿知识的条件，大部分时候，他们都是在本能地求着生存，本能地把自己的孩子养大。他们从没有想过自己为什么要生孩子就做了父母，也没有想过向孩子表达爱还得这样或那样，性格中有许多许多的缺点，内心有无数根深蒂固的观念，可这些并不是我们无法原谅他们的理由。更何况，一定有一些他们留给我们的美好片段，在记忆的长河中，被我们选择性遗忘了。<img src=\"http://www.liunar.net/articles/7720c630eebc459b45c6568f7b3a6201/7720c630eebc459b45c6568f7b3a6201-4.jpeg\" />有个和我关系亲密的闺蜜，因为小时候被父母管控太严格，于是独立之后选择了一个远离父母的城市工作、生活、结婚。她和丈夫的感情一直很好，也把丈夫当作唯一的依靠。今年她怀孕了，一贯独立的她，根本没想过要让爸妈来照顾自己，更是对他们带孩子心怀警惕。然而肚子大到8个月，她犯了严重的痔疮。走不动道，坐不下椅，站不直身。她的妈妈知道后，立马抛下她正带着的其他外孙，和爸爸赶赴到了她身边。每天变着花样做可口的饭菜，又帮她熬药、敷药、涂药，悉心照料。而她的丈夫呢，顿时觉得自己迎来了大解放，仅有的几次敷药也是草草了事，还闹过小情绪。闺蜜向我感叹，从来没感受到原来妈妈这么爱自己，在这种细水长流的生活琐事中，能坚持着不求回报付出的人，原来是自己的妈妈。她也是这个时候才想起，小时候，她就有严重的便秘。吃了很多药，用了很多偏方都不见好，她妈妈最后只好帮她抠出来……这是我在听了那么多年她对妈妈的抱怨之后，第一次听到她提妈妈的好。<p>3唯有父母的爱指向别离只有自己做了妈妈，才会知道当妈是一件多么不容易的事情。假如物走星移，我们在妈妈的那个年代当了妈，真的能比自己的妈妈做得更好吗？当我们老了，如果也要帮着带孙子、外孙，孩子也许一样会埋怨我们不懂科学育儿，跟不上时代，固执得听不进建议，那时候，我们会想起该给自己的爸妈道一句歉吗？龙应台曾写道：妈妈，是那个搭了“时光机器”来到这里，但是再也找不到回程车的旅人。她为儿女奉献了自己的半辈子，即便终于有了自己的生活，却再也回不到她熟悉的环境和成长的故土上了。有天晚上我们一家人散步，爸妈走在前头，我带着小拍，拍爸抱着二宝。我从后面看妈妈，身躯那样瘦弱，背有点驼，她的步履细碎，一小步接着一小步往前走。我不忍心看，思绪一幕一幕滑过，仿佛有人没打招呼就按下了电影胶卷的“快速倒带”，可不知是快速倒往过去还是快速转向未来……我想到，几十年过去，我也会成为妈妈那样，身子越来越瘦，脚步越来越轻，声音越来越弱，神情越来越退缩，人逐渐逐渐退为影子，和自己怀抱的孩子生死永隔。所有的爱都是为了团聚，唯有父母的爱指向别离。我们都是时间的旅人，当有一天，我们人生的这段旅程终于到站，静静握着手别离或许已是最好的结局。惟愿岁月静好、现世安稳。", 
        "pageurl": "http://mp.weixin.qq.com/s?src=3&timestamp=1472073549&ver=1&signature=hXs2Am66T6VOyappP6GaibEg177UcA*tzNQKrHJH1VzXUwWEU4LzwktM0HQnuCplztR1TLDkjjRUSHE5OX3TEKwReGKV542z*3K-5ExG-MbiJIQWzT*iLsdKZ2ZwEn44jxdHFY7xCLYnwYS08HgJPEIk4sWE2vnPG2GtjyBtgqo=", 
        "create_time": "2016-08-24", 
        "description": "宋丹丹的母亲周一去世了，她在微博发消息说“我母亲于今晨三点四十分去世，临终前我一直拉着她的手”，引来粉丝10万多条评论，30多万个点赞，大家面对亲人离世，总是感同身受，纷纷劝慰她“节哀”", 
        "title": "宋丹丹拉着妈妈的手，送她走到天堂口...孩子，有一天你也要这样拉着我", 
        "textContent": "宋丹丹的母亲周一去世了，她在微博发消息说“我母亲于今晨三点四十分去世，临终前我一直拉着她的手”，引来粉丝10万多条评论，30多万个点赞，大家面对亲人离世，总是感同身受，纷纷劝慰她“节哀”。照片中，宋丹丹和母亲肩并肩，头靠头，嘴角微微上翘，眉宇间透着安静祥和。然而我却被她之前发的一条微博感动得泪目，凝视着久久不能平静。母亲生命垂危，不知何故唯有拉着手才睡得踏实安稳，我便这样拉着～我也踏实安稳⋯⋯儿子巴图把它拍下来拿给我看，我说：“有一天你也要这样拉着我呢⋯⋯”一个母亲，在她生命渐渐微弱的时刻，拉着女儿的手，告别这个世界便有了勇气和力量，而女儿的心灵也得到了安放和宽慰。两个人的表情也都如此安详而沉静，但生死离别的忧伤，还是静静地从画面中流淌出来。拍这些照片的，是外孙巴图，当他按下快门那一刻，内心一定是哀伤却又平和的。1我怕你受委屈&nbsp;我自然而然想到了我那早已满头白发的妈妈，她现在身体还算硬朗，但相比7年前帮我带小拍时，真的不知不觉又老了许多。妈妈也会有那一天……每当我脑袋里闪现这念头的刹那，不听话的眼泪就要夺眶而出。我想，这应该是我人生中永远难以承受的重量，也是我最不愿意面对的时刻。小拍出生之前，我还没开口问妈妈是否愿意帮我带孩子，她就主动打电话来说：“我左想右想，你每天上班那么远，没个人帮你带孩子是不行，就算婆婆愿意带，我也怕你受委屈。”我本想在他们面前逞强说自己能行，她紧接着却说：“还是我帮你带吧，别麻烦你婆婆了。”这其实是我内心深处最想要的结果，可每次想到爸妈一直以来实在不适应大城市的生活，住几天就吵着要回去，我迟迟犹豫着不敢开口。但我没想到，不善表达情感的妈妈，仅仅是怕我受委屈，就在老家为我辗转反侧，和爸爸考虑和纠结良久，最终放下他们心中的执念，一切为我。他们辛苦了半辈子，原本可以在老家安享晚年的，但他们的一颗心始终系在儿女身上。养儿方知父母恩啊！上上周在朋友圈分享堵奶让小拍吸通的经历，一个妈妈在下面留言，说她月子里堵了几次奶，让老公吸，他说吸不出，最后竟是亲妈给自己吸通了。她说，妈妈趴在自己胸前吸奶的那一刻，忍不住掉泪了。“想想20多年前，我在她怀里吃她的奶长大，现在换作她趴在我胸前，吸得满头大汗，却是为了不让我受罪。”我看着也默默垂泪。有句话说得好，总有一天，你会知道，父母是你花心思最少，花时间最少，却爱你最多的人。2美好的片段被我们遗忘了&nbsp;我们总是看见很多文章在讲述，上一代父母不懂教育，不尊重孩子，不会放手，老了还没有界限感……无数人说起自己的童年，总有不愉快的经历难以释怀，我们抱怨父母总是不理解我们，可我们，又何尝理解过他们？想想在他们那个年代，没有我们这么便捷获取信息的方式，也没有不断学习育儿知识的条件，大部分时候，他们都是在本能地求着生存，本能地把自己的孩子养大。他们从没有想过自己为什么要生孩子就做了父母，也没有想过向孩子表达爱还得这样或那样，性格中有许多许多的缺点，内心有无数根深蒂固的观念，可这些并不是我们无法原谅他们的理由。更何况，一定有一些他们留给我们的美好片段，在记忆的长河中，被我们选择性遗忘了。有个和我关系亲密的闺蜜，因为小时候被父母管控太严格，于是独立之后选择了一个远离父母的城市工作、生活、结婚。她和丈夫的感情一直很好，也把丈夫当作唯一的依靠。今年她怀孕了，一贯独立的她，根本没想过要让爸妈来照顾自己，更是对他们带孩子心怀警惕。然而肚子大到8个月，她犯了严重的痔疮。走不动道，坐不下椅，站不直身。她的妈妈知道后，立马抛下她正带着的其他外孙，和爸爸赶赴到了她身边。每天变着花样做可口的饭菜，又帮她熬药、敷药、涂药，悉心照料。而她的丈夫呢，顿时觉得自己迎来了大解放，仅有的几次敷药也是草草了事，还闹过小情绪。闺蜜向我感叹，从来没感受到原来妈妈这么爱自己，在这种细水长流的生活琐事中，能坚持着不求回报付出的人，原来是自己的妈妈。她也是这个时候才想起，小时候，她就有严重的便秘。吃了很多药，用了很多偏方都不见好，她妈妈最后只好帮她抠出来……这是我在听了那么多年她对妈妈的抱怨之后，第一次听到她提妈妈的好。3唯有父母的爱指向别离只有自己做了妈妈，才会知道当妈是一件多么不容易的事情。假如物走星移，我们在妈妈的那个年代当了妈，真的能比自己的妈妈做得更好吗？当我们老了，如果也要帮着带孙子、外孙，孩子也许一样会埋怨我们不懂科学育儿，跟不上时代，固执得听不进建议，那时候，我们会想起该给自己的爸妈道一句歉吗？龙应台曾写道：妈妈，是那个搭了“时光机器”来到这里，但是再也找不到回程车的旅人。她为儿女奉献了自己的半辈子，即便终于有了自己的生活，却再也回不到她熟悉的环境和成长的故土上了。有天晚上我们一家人散步，爸妈走在前头，我带着小拍，拍爸抱着二宝。我从后面看妈妈，身躯那样瘦弱，背有点驼，她的步履细碎，一小步接着一小步往前走。我不忍心看，思绪一幕一幕滑过，仿佛有人没打招呼就按下了电影胶卷的“快速倒带”，可不知是快速倒往过去还是快速转向未来……我想到，几十年过去，我也会成为妈妈那样，身子越来越瘦，脚步越来越轻，声音越来越弱，神情越来越退缩，人逐渐逐渐退为影子，和自己怀抱的孩子生死永隔。所有的爱都是为了团聚，唯有父母的爱指向别离。我们都是时间的旅人，当有一天，我们人生的这段旅程终于到站，静静握着手别离或许已是最好的结局。惟愿岁月静好、现世安稳。", 
        "thumbnail": "/articles/7720c630eebc459b45c6568f7b3a6201/7720c630eebc459b45c6568f7b3a6201-1.jpeg", 
        "source": "爱读童书妈妈小莉"
    }, 
    {
        "category": "青少年教育", 
        "content": "<img src=\"http://www.liunar.net/articles/58277d4d29da92ee9eb769b28f0f6366/58277d4d29da92ee9eb769b28f0f6366-1.png\" /><p>任何一门功课的学习，都要经历一段死记硬背的过程。对于英语来说，背单词的过程无疑会是枯燥乏味的，但是这道坎，你必须迈过去。但是你要相信，语言这门艺术博大精深，你一定能在学习的同时爱上它，越发欲罢不能。........................................本文作者刘畅曾是山东省实验中学学生会主席、山东省学联副主席，前年夏天，她作为中国代表团的一员参加了联合国青年大会并发表了演讲。平日里，她的成绩一直保持在年级前列，并在美国高考SAT1考试中取得了2230分、SAT2考试中取得了2400分（满分）、托福考试中取得了109分的成绩。刘畅同学收到了来自耶鲁大学、斯坦福大学的录取通知书，拿到了耶鲁大学每年57000美元的全额奖学金，斯坦福大学也给了她将近全奖。谈到自己的录取，刘畅说，“很多人觉得申请美国学校只要分数够高、活动够多就可以，这是不足取的，因为一个完整、深厚的个人，是任何分数或者课外活动都体现不了的。”她表示，在申请文章中，成绩、课外活动都只是一笔带过，而着重描写自己的心灵成长史、阅读感受和对自我的思考，因为“总有分数比你高的人，简历也可以很浮夸，真正让申请者完整起来的是一个真实、深邃的灵魂。如果我有什么值得骄傲的话，那就是我一直致力于真诚地生活和思考，并且对体验世界抱有不灭的热情”。在耶鲁的面试中，她和面试官聊的甚是愉快，从李安的电影到安兰德的小说，再到中国目前的社会问题。被耶鲁录取后，面试官打来祝贺的电话时对她说：“我能看出你是个真正热爱思考的人，耶鲁是百分之百适合你的地方。”面对耶鲁、斯坦福这两所世界顶级名校的offer，经过慎重考虑后，刘畅已经决定就读耶鲁大学。<p>改变，从背单词开始<p>今天呢，我希望同大家分享一下我背单词的心得，希望大家不要太过拘谨，背单词这个话题虽然很严肃，但其实这个过程本身充满了乐趣，所以有什么问题尽管提出来，我们今天来到这里，本就是为了一起探讨英语学习。<p>说到背单词，有的同学很不屑一顾，他说我们老师说了，背单词呀，就是把单词不停地抄，抄，抄，什么时候抄得你自己都快吐了，什么时候你就背过了。我想问一下，现在背单词还抄单词的有多少同学？这种方法在遥远的小学时代也许发挥过一点作用，但是如果你现在还指望通过这种方法来背单词，实在是不够明智。别忘了，我们想要大量地背单词，如果每个单词你都抄上几十遍，估计等到背完的时候你手都要断了。<p>别看我们从小到大都在背单词，其实我们背单词的方法存在很多欠缺，这些欠缺直接影响了我们学习的成效。我们对背单词存在很多错误的概念，下面我就要带大家丢弃错误的观念，运用前人的经验和记忆学原理，找到正确的方法、构建合理的系统。<p>首先，我提出一个概念，看看大家认同不认同：你对周围人的认知程度是分层次的。偌大的实验校园，很多人你不认识；有的人你认识，也知道对方叫什么，但来往甚少；还有的人，比如你班里的同学，跟你经常在一起说笑，你大致了解他的性格、脾气、爱好；最后还有一类人，比如你的好朋友，你们兴趣相投，无话不谈，你非常地了解他。所以我说，我们对周围人的认知程度是分层次的。<p>还有一点，那便是：你对周围人的了解只能慢慢深入，你不能指望刚认识就记住这个人的全部信息，也不能指望你跟一个人刚认识就变成知己。其实，我们对周围事物的认知都是循序渐进的，对单词亦是这个道理。这也就是今天我所讲的背单词方法的核心原理：循序渐进。<p>经过我的总结，对单词的认知可大致分为如下四个阶段：<p>1.形同陌路（这一类的单词，即使你见过，也认不出来，脑海里没有一点印象）；<p>2.似曾相识（这个单词我在哪儿见过，可是没法说出准确的意思）；<p>3.一见如故（一看到这个单词，就能想起它是什么意思，但不是特别熟络）；<p>4.刻骨铭心（不仅知道单词的精确意思，还能熟练地加以运用）。<p>科学的背单词一定要遵循人类普遍的记忆规律，按照这四个阶段，逐步深入。<p>首先我们来看：怎样从形同陌路到似曾相识。对事物的认知需要循序渐进，对一个单词，你不能指望一下子从形同陌路就跳到了刻骨铭心。有的同学喜欢第一次背诵的时候就把拼写、音标、英文释义、常用搭配甚至例句通通背下来，如此一来，背一个单词需要好几分钟，不仅效率低，而且成效不好，因为问题就在于——你根本记不住。<p>不信？不信我来举个例子。我请大家回到2008年8月17日开学报道那一天，班主任一定都让大家做了自我介绍。当全班每个人都把自己的名字、毕业学校、爱好说完以后，你记住了多少？恐怕，你对大多数人的记忆都只是一个大体的印象，比如有一个男生，长得特别高，诶，他好像特别喜欢科比；还有个扎辫子的小女孩，我瞅着挺漂亮的，不过忘了是哪个学校毕业的了，因为人太多，记不清。<p>你是怎样和他们渐渐熟络的呢？是你们在军训休息聊天的时候，和周围的人聊天，你见到那个高高的男生，问他，你喜欢科比是吧？对方说是啊是啊科比是我偶像。你很激动地就说，我也特别喜欢科比！于是，你和他的距离一下子拉近了。你开始问他，你哪个学校毕业的？哎，你认识那个谁谁谁吧？……发现了吗？最开始，你记不住这个人的完整资料，需要在今后的学习生活中频繁地看到他，然后慢慢地去了解。<p>所以，我们在第一遍背单词时，给自己定下的标准一定不要太高。我们应该遵从人脑本身的记忆规律，告诉自己：只要我见到它，能差不多认出它来就行了。过高的标准只能增加记忆负担、降低学习效率、挫伤信心，有百害而无一利。<p>我们应该怎样做？第一遍时，只需要看单词的外观特征和中文释义。外观特征包括：单词的长短，起始字母，特征（比如中间有两个元音ｅｅ）等等。而其他的，诸如例句、同义词，通通不要看，因为你一下子背不过，否则，要忘连同单词一起忘，出力不讨好。至于有的同学喜欢用的抄单词的方法，应该坚决摒弃，你要相信，一旦你和一个单词混熟了，即使从来没抄写过，也能记住它的意思。<p>那么，怎样具体实现从形同陌路到似曾相识的过渡？答案只有一个，那就是：重复。一定要记住，不要一次对一个单词花上太多的时间，而要把时间花在对多个单词的大量重复上。道理是非常简单的。很多同学今天第一次见到我，如果你整节课都盯着我，不一定就能把我的长相记住，事实上你很可能过几天就忘了。但是如果我天天在学校的和你擦肩而过，也就是说，天天出现在你的视野里哪怕只有几秒钟，那么，相信不用几天，你就能记住我，而且这样的记忆很难忘掉。这就是重复的作用。<p>有的同学急于求成，想一下子把大量的单词背下来，于是顾不上复习，一遍从头背到尾。这种迫切的心情虽然可以理解，但它也产生了一个“狗熊掰棒子“的恶果：只顾进度，顾不了记忆的质量。记得不牢，反过来又影响了背单词的进度，因为如果记不住，背得再快也没用。很多人都是这样，等背到单词书的最后，前面的单词都忘得差不多了，只能沮丧地再背一遍，可这时候却发现，后面刚背的单词又忘了……在背了忘、忘了背之间做大量的无效劳动，被单词拖得没了脾气，失去了信心，最后不得不放弃。<p>所以我们要记住：找到一些恰到好处的时间点来做及时的复习和巩固，也就是不断重复。早上背过的单词，晚上临睡前再背一遍；第二天背新的单词之前，再把前一天背的单词熟悉一遍；第三天背新单词之前，再把前两天背的单词通通熟悉一遍。如此往复，根据需要，不断地重复。<p>到这里，你心里肯定开始犯嘀咕了：如果每天都要把过去背的单词重复一遍，累都要累死了！可是重复又是必要的，这可怎么办？那么好，下面我给大家讲几个注意事项。<p><img src=\"http://www.liunar.net/articles/58277d4d29da92ee9eb769b28f0f6366/58277d4d29da92ee9eb769b28f0f6366-3.jpeg\" /><p>第一，在每一次的复习中，切切不可放任自己偷懒，应该遮住中文释义以试图回忆这个单词的意思，如果只是简单地将这个单词的中英文重读一遍，远远达不到应有的复习效果。<p>因为从记忆的规律来讲，试图回忆是比简单的重复学习更为积极的过程，可以使记忆者在记忆的过程中更为专心，因为每次复习都是一次小的记忆测试。为了能在下一次复习时想起这个单词的意思，背词者必须要求自己集中精力去背。而且，这种试图记忆的方法更具挑战性，即保证了背单词的效果，又增加了背单词的乐趣。前苏联心理学家伊凡诺娃的实验数据就清晰地为我们展现了试图记忆的复习方法与单纯重复学习的复习方法相比的优越之处。大家可以看到，试图记忆的效果惊人。<p>可是很多同学不愿意去做，因为他害怕被打击。如果在座的同学也用过这种方法的话，会发现：一些单词你以为自己记住了，其实，那是你的幻觉。遮住中文意思，这个单词对你而言还是形同陌路。所以我常常说，背单词其实就是和幻觉作斗争的过程。你背过了么？你错了，亲爱的同学，那是你的幻觉。所以，一定要警惕小心，要尽可能把没背过的单词挑出来，作为重点打击对象。而试图记忆这一方法，是帮我们剔除幻觉、认清现实的重要途径。<p>第二个注意事项，及时做好标记。<p>有些单词复习了很多遍，可下次看到它时还是不能迅速反应出它的意思，这时候我们就应该在它旁边画上记号，忘的次数越多，画的星号也应该越多，这样，以后复习的时候可以针对记号多的单词，把它们作为重点复习对象。可以这么说，如果你真的用心在背单词，你的单词书上应该画满了星号、圆圈才对。<p>如果有的单词自己总是忘，这时候就要把单词抄在一个小本子上，闲着没事就拿出来看，不断地看，你总有背过的一天。<p>第三，我们要跳出单词书。<p>有的同学说，单词在书上的时候我背得好好的，可到了阅读中，还是不认识，当时就昏厥了。心理学家对这个现象是这样解释的：人们在记忆的过程中，如果能够把被记忆材料与已经存在的记忆关联起来，对它的记忆就会更为深刻。同学们按照从前到后的顺序看单词书，久而久之，就会把某个单词和它前后的单词联系起来，以至于背单词时可以借助它的位置来联想起它的词义，可到了做题时，没有了这种位置感的帮助，就好像丢掉了一根有力的拐杖，昏倒在地。<p>为了解决这个问题，我们要跳出单词书，努力打乱每次记忆的固定顺序：时而从前往后背，时而从后往前背，甚至可以挑着背，爱背哪个背哪个，不遵从所谓的顺序，这样，可以避免单词之间的相对位置对记忆的干扰。<p>第四，区分易混单词。<p>这一点，如果你只背少量的单词，必要性还不是那么突出。但是，如果你大量的背，会发现许多易混单词，非常难以区分，常常让我们不知所措。先看下面一组单词,lope,lobe,lode,lube……如此相像的单词，词意相差很远，我看到台下有的同学已经昏厥了。<p>其实啊，说到易混单词，我曾经在很长一段时间都很拿它没折，因为无论我怎么努力地背，都还是会混。不过渐渐地，我发现了一个很好的方法，那就是：先熟悉其中一个单词，等到对这个单词掌握得差不多了，再去背与之对应的易混单词。<p><img src=\"http://www.liunar.net/articles/58277d4d29da92ee9eb769b28f0f6366/58277d4d29da92ee9eb769b28f0f6366-4.jpeg\" /><p>比如以下一对单词：complimentary（赞美的）complementary（互补的，补充的）。乍一看，这两个单词只差一个字母，一个是i，一个是e，而词意却相差十万八千里。对此，我们不妨先背过complimentary，暂时无视complementary，等到我们把它背得滚瓜烂熟的时候，再去看complementary，这时候我们一眼就能发现它和complimentary的区别，清醒地认识到：它和我已经背过的那个词不一样。<p>这就好比，如果你同时认识两个长得很像的人，得需要花很长时间才能把他俩区分开来；但是如果其中一个你早就认识，那么在遇到第二个人的时候就不会把他俩搞混了，只因为：你认识第一个人很长时间了，你对他印象太深了。<p>第五，也是最重要的一点，不要迷信词根词缀记忆法、联想记忆法等各种花哨的记忆法。<p>人们其实一直不愿意承认，背单词最好的方法只有一个，那就是死记硬背。只有通过死记硬背，也就是不断重复背熟的单词，才能建立长久的、直观的记忆。<p>其他方法会给你造成一种错觉：单词很好背；而实际上，你在背的时候已经绕了一个弯子，没有对这个单词建立直观记忆。你以为你背过了，其实是幻觉！通通都是幻觉！！我们背单词，一定要抵制幻觉！！！<p>我用几个例子来说明这个观点。比如courage。流行的形象记忆法会告诉你，这个词很好记，为什么呢？把c看作悬挂在高空中的一轮明月，our是“我们”，后面的age正好是“年龄”。夜晚，明月当空，我们两个青春期的少男少女站在花前月下，会做什么呢？告白！没错！男孩要跟女孩告白了！告白需要什么？需要勇气！于是courage自然等于勇气。<p>这个方法乍一看很好玩，但是它在记忆上绕了很多弯子，试想：谁能在看到它的时候把它拆分成c,our,age，然后进行联想？一遍遍把它拆分，不如把它作为一个整体多看几遍！其实，词根词缀记忆法是同样的道理。举个例子，orbit。它可以分为orb（发光的球体），it（走），于是合起来就有了“轨道”的意思。从单词的组成去理解单词，能够加深我们对它的理解，但这一步应该放在我们背过它之后，而不是通过它去背。因为我们通过拆分单词、认识词根词缀去了解它，以为它很好背，无非就是几个前缀后缀连在一起，可是下次你见到这个单词，没有人去提醒你要拆分单词，于是，你还是背不过！这样的方法纯属害人，而且诱惑性极大，无数同学正深受其害而不自知。我就是一个曾长期蒙受其害的人。我走过的弯路，不希望大家再走。<p>第六，通过发音记单词。<p>在重复的过程中，可以读出声来，我想这点我不用提醒大家也都会做。大声把单词念出来的过程很重要，原因只有一个：记住发音的单词你永远不会忘。<p><img src=\"http://www.liunar.net/articles/58277d4d29da92ee9eb769b28f0f6366/58277d4d29da92ee9eb769b28f0f6366-5.jpeg\" /><p>不仅要背单词，还要抄字典<p>认识了以上六个方法，相信大家对怎样和单词混个脸熟，或者说，混个脸很熟，有了一定的认识。但是，背单词的目的决不仅仅在于看到它能反应出来它的意思，而在于对这个单词有一个全面、透彻的认识。我们不仅要背单词，还要学单词。怎样完成这层过渡？我的答案是：抄字典。<p>我知道大家此时一定觉得，这个答案太雷人了。不过，我之所以把它搬出来，是因为我总结了一整套利用字典学习单词的方法。抄字典里面其实蕴含着无穷奥妙。只要你懂得怎么抄，你会发现，把字典里大部分内容掌握是很容易的一件事。<p>原则一：研究英文释义。<p>这里我为什么要用“研究”，而不用“看”？因为英文释义太重要了，它直接关系到我们能否准确地理解一个单词的词义，所以对待它们，要仔细研究，要吃透。我们阅读的时候明明认识一个单词，却还是读不懂，一个很重要的原因是我们对单词意思的理解不够精准。举一个例子：share。大家对这个单词不陌生，那么下面来看这个句子：His daughters did not share in his happiness. 大家先来想想，应该怎么翻译？<p>我曾经把这句话发给几个高一的同学，而且都是级部前几名的同学，他们的答复如下：“他的女儿无法从他的幸福中收获快乐。”“他的闺女跟他爹兴趣迥异。”“他的女儿并没有被他的快乐所感染。”不知道你的答案在不在其中呢？其实，这三个答案，都很不靠谱。正确的翻译是：他的女儿们并不像他一样高兴。<p>可以看到，三个答案和标准答案之间有着较大的区别，原因何在？这里面并没有生词啊！事实上，share还有一个很重要的意思。朗文字典在share的第四个用法里写，“to have the same opinion, experience, feeling etc as someone else”，也就是“与某人有共同的（看法、经历、感受等）”。了解了这些，我们再来看，刚才那句话，就不难理解了：他的女儿们和他没有共同的感受，也就是“并不像他一样高兴”。大家不妨仔细体味一下。下面的句子也就很好理解了：I share your concern about this. 我和你一样为这件事担心。Stubbornness was a characteristic he shared with his mother. 固执是他和他母亲共有的一个特征。<p>同学们，你们发现其中的奥妙了吗？如果仅仅把share理解为“分享，分担”，绝对会影响你对句子的理解，因为几个中文词汇对share的概括非常模糊。我们只有研读了英文释义，才能精确地把握单词的意思。否则，一句话尽管一个生词都没有，你还是读不懂。<p>所以，抄字典的第一步：将单词的所有意思的英文释义研究一遍，仔细揣摩、体味。<p>原则二：掌握核心词义。<p>我拿sharp这个单词来举例。Sharp这个单词在字典里有很多解释。①锋利的 sharp knife 锋利的刀子；②刺耳的 s sharp cry 尖叫声；③辛辣的 sharp taste 辛辣味；④急转的 sharp bend 急转弯；⑤剧烈的 a sharp pain 一阵剧痛；⑥尖锐的 a sharp rebuke 严厉的训斥；⑦敏锐的 sharp mind 敏锐的头脑……<p>sharp有如此多的意思，难道我们要一一记住吗？没必要。仔细观察，我们就会发现，无论sharp在不同的语境中具体指的什么意思，它都表达了一种“尖”的概念。再仔细体味一下，比如sharp mind, a sharp pain, sharp taste……都或多或少有“尖”的意思。所以，我们在通读了一遍它的英文释义后，只需要在本子上记下“尖”一个字就可以了。这样概括的概念有助于我们记忆。<p>抄字典的第二步：把英文释义转换成自己的理解，写到本子上，再记下没见过的表达，不断强化理解。比如，如果你没见过sharp mind这种用法，觉得很奇妙，那么完全可以把它抄下来，不断复习，相信很快它就会变成你自己的表达。<p>原则三：记常用搭配。<p>有些词很少出现，一旦出现就以词组的形式，所以只要记住它的常用搭配，背这些单词就变得轻而易举了。拿rave这个单词来举例。它的意思比较混乱。①怒骂，痛斥；②极力赞美。你可能就晕了，这词儿真奇怪，又是痛斥又是赞美的，老外的脑子是不是神经错乱了？其实，你大可不必管老外的脑子有没有问题，因为这个单词很好记，它最常出现的方式是rant and rave，是“不停地大叫大嚷”的意思。所以，我们只要将“rant and rave”这一常用搭配记住即可。下次见到rave这个词，就不至于晕头转向了，因为它几乎一旦出现，就是以“rant and rave”的形式。<p>抄字典第三步：记下字典中的词组。<p>原则四：不要忽视同一词根的不同单词。<p>因为他们很可能有完全不同的词义。拿composition来举例。大家都知道它是“组合方式；作品”的意思，（by the way，如果你还认为它是作文的意思，那实在是太土了……），然而compost，这个看起来和composition有相同词根的单词，意思却大相径庭，它是“混合肥料”的意思。所以，对这类单词一定要谨慎小心，因为它很可能有你想象不到的意思。<p>抄字典第四步：一并记下词形相近单词的意思，用于区分。<p>原则五：不要拘泥于词性。<p>有的同学在背单词的时候总喜欢牢牢记住，它是动词还是形容词，其实完全没有必要。动词和形容词、副词之间的转换其实相当灵活。曾经有个教授同时让两个学生翻译一句话：他像母亲般照顾我、关心我。这两个学生一个是地道的中国人，一个是在美国长大的华侨。中国学生的答案是：He treated me like a mother.我相信这也会是大多数同学的答案。而美国学生的答案则是：He mothers me. 没想过这种用法吧？从来没有人教我们mother可以这样用，但是只要它表达的传神就可以。<p>有的同学问，我还不会灵活运用，我只是想知道这个词的词性。好，其实对于词性，有一个很好的方法，刚才已经提到过：记常用搭配。不断地看，不要刻意记住它在这里是形容词还是副词，是名词还是动词，熟了，自然就会了。<p>纵观以上五条原则，我们看到，抄字典其实有无穷奥妙。但是，和背单词道理一样，抄到本子上之后，我们不能不管它，要像复习笔记一样不断地复习，再结合字典不断地深化对单词的理解。如果大家能坚持把不熟悉的词通过抄字典的方式加以认知，那么大家一定能实现从似曾相识到一见如故的完美过渡。<p><p>多阅读，多写作，单词才能记得刻骨铭心<p>那么，我们怎样才能到达对单词认知的最高境界——刻骨铭心？答案只有一个：多阅读，多写作，别无他法。如果说完成其他阶段的过渡有一些技巧可言的话，那么这一阶段真的没多少可说的，唯一个“多”字而已。我现在虽然掌握了很多单词，但很多还停留在一见如故的状态，真正刻骨铭心的恐怕不到1/3，原因就是我读的太少了。如果把背单词的过程比作谈恋爱，那么，不阅读，永远体会不到语言的美，也就永远无法建立起和单词的感情。很多单词，你以为你掌握得很好了，我告诉你，其实是幻觉！一旦放到阅读中去，你还是不够熟悉，无法体味它的精妙。<p>语言的学习需要层层递进，而从一见如故到刻骨铭心的过渡最为漫长。这就好像我们平时说的：真正提高阅读水平不是一朝一夕的事。它需要我们大量的阅读，广泛的阅读，深入的阅读，不间断的阅读，唯此，才能迈入语言学习的最高殿堂。<p>给大家推荐一本杂志：《English Language Learning》。还有《TIMES》。前者我认为在国内的英语刊物中是做的非常用心的一本，如果你认真读，能学到不少东西。后者对我们现在来说生词多了些，但读它非常非常有意思，能了解到许多趣事甚至是美国人的思维方式。<p>比如前几天是情人节，我忽然想起原来在TIMES上看到一篇文章讽刺情人节，说对单身一族（the unattached）来说，Valentine’s Day其实就是Singles Awareness Day，简称SAD。在这个节日，别人都抱着鲜花和巧克力，自己却单身，是够“SAD”的，于是单身一族们只能戏谑地对自己说Happy SAD day。有戏谑，更多的是无奈和伤感。是不是很奥妙？当我把这条短信群发之后，收到的回复无一例外都是，太经典了，太有才了。其实不是我有才，这一切都要归功于《TIMES》。所以背单词的好处真的很多，当你积累了足够的单词，你会发现一个全新的世界向你敞开了。你可以大量阅读外国人写的东西，名著也好杂志也好，这都有助于你对世界的理解，而这恰恰体现了语言的功用所在。<p>", 
        "pageurl": "http://mp.weixin.qq.com/s?src=3&timestamp=1472073548&ver=1&signature=Hf9BNzNKPp8xfO5JnjxCF4rrYGMwW-A*JBsvc1ZrzoCvpQdmVHYtReIicPOxQsqOphkgCD5ZFm7GXibgBfUsvPYKHRqTfyvBuaIA6VOgD3*uDG1vdZYxCcV8zXzUkUcPMBIF6E68oCdBAfoUcSyvmap1JXIZsnqQGbV9gQm20Eg=", 
        "create_time": "2016-08-24", 
        "description": "任何一门功课的学习，都要经历一段死记硬背的过程", 
        "title": "耶鲁女孩的背单词秘诀,你绝对想不到!", 
        "textContent": "任何一门功课的学习，都要经历一段死记硬背的过程。对于英语来说，背单词的过程无疑会是枯燥乏味的，但是这道坎，你必须迈过去。但是你要相信，语言这门艺术博大精深，你一定能在学习的同时爱上它，越发欲罢不能。........................................本文作者刘畅曾是山东省实验中学学生会主席、山东省学联副主席，前年夏天，她作为中国代表团的一员参加了联合国青年大会并发表了演讲。平日里，她的成绩一直保持在年级前列，并在美国高考SAT1考试中取得了2230分、SAT2考试中取得了2400分（满分）、托福考试中取得了109分的成绩。刘畅同学收到了来自耶鲁大学、斯坦福大学的录取通知书，拿到了耶鲁大学每年57000美元的全额奖学金，斯坦福大学也给了她将近全奖。谈到自己的录取，刘畅说，“很多人觉得申请美国学校只要分数够高、活动够多就可以，这是不足取的，因为一个完整、深厚的个人，是任何分数或者课外活动都体现不了的。”她表示，在申请文章中，成绩、课外活动都只是一笔带过，而着重描写自己的心灵成长史、阅读感受和对自我的思考，因为“总有分数比你高的人，简历也可以很浮夸，真正让申请者完整起来的是一个真实、深邃的灵魂。如果我有什么值得骄傲的话，那就是我一直致力于真诚地生活和思考，并且对体验世界抱有不灭的热情”。在耶鲁的面试中，她和面试官聊的甚是愉快，从李安的电影到安兰德的小说，再到中国目前的社会问题。被耶鲁录取后，面试官打来祝贺的电话时对她说：“我能看出你是个真正热爱思考的人，耶鲁是百分之百适合你的地方。”面对耶鲁、斯坦福这两所世界顶级名校的offer，经过慎重考虑后，刘畅已经决定就读耶鲁大学。改变，从背单词开始今天呢，我希望同大家分享一下我背单词的心得，希望大家不要太过拘谨，背单词这个话题虽然很严肃，但其实这个过程本身充满了乐趣，所以有什么问题尽管提出来，我们今天来到这里，本就是为了一起探讨英语学习。说到背单词，有的同学很不屑一顾，他说我们老师说了，背单词呀，就是把单词不停地抄，抄，抄，什么时候抄得你自己都快吐了，什么时候你就背过了。我想问一下，现在背单词还抄单词的有多少同学？这种方法在遥远的小学时代也许发挥过一点作用，但是如果你现在还指望通过这种方法来背单词，实在是不够明智。别忘了，我们想要大量地背单词，如果每个单词你都抄上几十遍，估计等到背完的时候你手都要断了。别看我们从小到大都在背单词，其实我们背单词的方法存在很多欠缺，这些欠缺直接影响了我们学习的成效。我们对背单词存在很多错误的概念，下面我就要带大家丢弃错误的观念，运用前人的经验和记忆学原理，找到正确的方法、构建合理的系统。首先，我提出一个概念，看看大家认同不认同：你对周围人的认知程度是分层次的。偌大的实验校园，很多人你不认识；有的人你认识，也知道对方叫什么，但来往甚少；还有的人，比如你班里的同学，跟你经常在一起说笑，你大致了解他的性格、脾气、爱好；最后还有一类人，比如你的好朋友，你们兴趣相投，无话不谈，你非常地了解他。所以我说，我们对周围人的认知程度是分层次的。还有一点，那便是：你对周围人的了解只能慢慢深入，你不能指望刚认识就记住这个人的全部信息，也不能指望你跟一个人刚认识就变成知己。其实，我们对周围事物的认知都是循序渐进的，对单词亦是这个道理。这也就是今天我所讲的背单词方法的核心原理：循序渐进。经过我的总结，对单词的认知可大致分为如下四个阶段：1.形同陌路（这一类的单词，即使你见过，也认不出来，脑海里没有一点印象）；2.似曾相识（这个单词我在哪儿见过，可是没法说出准确的意思）；3.一见如故（一看到这个单词，就能想起它是什么意思，但不是特别熟络）；4.刻骨铭心（不仅知道单词的精确意思，还能熟练地加以运用）。科学的背单词一定要遵循人类普遍的记忆规律，按照这四个阶段，逐步深入。首先我们来看：怎样从形同陌路到似曾相识。对事物的认知需要循序渐进，对一个单词，你不能指望一下子从形同陌路就跳到了刻骨铭心。有的同学喜欢第一次背诵的时候就把拼写、音标、英文释义、常用搭配甚至例句通通背下来，如此一来，背一个单词需要好几分钟，不仅效率低，而且成效不好，因为问题就在于——你根本记不住。不信？不信我来举个例子。我请大家回到2008年8月17日开学报道那一天，班主任一定都让大家做了自我介绍。当全班每个人都把自己的名字、毕业学校、爱好说完以后，你记住了多少？恐怕，你对大多数人的记忆都只是一个大体的印象，比如有一个男生，长得特别高，诶，他好像特别喜欢科比；还有个扎辫子的小女孩，我瞅着挺漂亮的，不过忘了是哪个学校毕业的了，因为人太多，记不清。你是怎样和他们渐渐熟络的呢？是你们在军训休息聊天的时候，和周围的人聊天，你见到那个高高的男生，问他，你喜欢科比是吧？对方说是啊是啊科比是我偶像。你很激动地就说，我也特别喜欢科比！于是，你和他的距离一下子拉近了。你开始问他，你哪个学校毕业的？哎，你认识那个谁谁谁吧？……发现了吗？最开始，你记不住这个人的完整资料，需要在今后的学习生活中频繁地看到他，然后慢慢地去了解。所以，我们在第一遍背单词时，给自己定下的标准一定不要太高。我们应该遵从人脑本身的记忆规律，告诉自己：只要我见到它，能差不多认出它来就行了。过高的标准只能增加记忆负担、降低学习效率、挫伤信心，有百害而无一利。我们应该怎样做？第一遍时，只需要看单词的外观特征和中文释义。外观特征包括：单词的长短，起始字母，特征（比如中间有两个元音ｅｅ）等等。而其他的，诸如例句、同义词，通通不要看，因为你一下子背不过，否则，要忘连同单词一起忘，出力不讨好。至于有的同学喜欢用的抄单词的方法，应该坚决摒弃，你要相信，一旦你和一个单词混熟了，即使从来没抄写过，也能记住它的意思。那么，怎样具体实现从形同陌路到似曾相识的过渡？答案只有一个，那就是：重复。一定要记住，不要一次对一个单词花上太多的时间，而要把时间花在对多个单词的大量重复上。道理是非常简单的。很多同学今天第一次见到我，如果你整节课都盯着我，不一定就能把我的长相记住，事实上你很可能过几天就忘了。但是如果我天天在学校的和你擦肩而过，也就是说，天天出现在你的视野里哪怕只有几秒钟，那么，相信不用几天，你就能记住我，而且这样的记忆很难忘掉。这就是重复的作用。有的同学急于求成，想一下子把大量的单词背下来，于是顾不上复习，一遍从头背到尾。这种迫切的心情虽然可以理解，但它也产生了一个“狗熊掰棒子“的恶果：只顾进度，顾不了记忆的质量。记得不牢，反过来又影响了背单词的进度，因为如果记不住，背得再快也没用。很多人都是这样，等背到单词书的最后，前面的单词都忘得差不多了，只能沮丧地再背一遍，可这时候却发现，后面刚背的单词又忘了……在背了忘、忘了背之间做大量的无效劳动，被单词拖得没了脾气，失去了信心，最后不得不放弃。所以我们要记住：找到一些恰到好处的时间点来做及时的复习和巩固，也就是不断重复。早上背过的单词，晚上临睡前再背一遍；第二天背新的单词之前，再把前一天背的单词熟悉一遍；第三天背新单词之前，再把前两天背的单词通通熟悉一遍。如此往复，根据需要，不断地重复。到这里，你心里肯定开始犯嘀咕了：如果每天都要把过去背的单词重复一遍，累都要累死了！可是重复又是必要的，这可怎么办？那么好，下面我给大家讲几个注意事项。第一，在每一次的复习中，切切不可放任自己偷懒，应该遮住中文释义以试图回忆这个单词的意思，如果只是简单地将这个单词的中英文重读一遍，远远达不到应有的复习效果。因为从记忆的规律来讲，试图回忆是比简单的重复学习更为积极的过程，可以使记忆者在记忆的过程中更为专心，因为每次复习都是一次小的记忆测试。为了能在下一次复习时想起这个单词的意思，背词者必须要求自己集中精力去背。而且，这种试图记忆的方法更具挑战性，即保证了背单词的效果，又增加了背单词的乐趣。前苏联心理学家伊凡诺娃的实验数据就清晰地为我们展现了试图记忆的复习方法与单纯重复学习的复习方法相比的优越之处。大家可以看到，试图记忆的效果惊人。可是很多同学不愿意去做，因为他害怕被打击。如果在座的同学也用过这种方法的话，会发现：一些单词你以为自己记住了，其实，那是你的幻觉。遮住中文意思，这个单词对你而言还是形同陌路。所以我常常说，背单词其实就是和幻觉作斗争的过程。你背过了么？你错了，亲爱的同学，那是你的幻觉。所以，一定要警惕小心，要尽可能把没背过的单词挑出来，作为重点打击对象。而试图记忆这一方法，是帮我们剔除幻觉、认清现实的重要途径。第二个注意事项，及时做好标记。有些单词复习了很多遍，可下次看到它时还是不能迅速反应出它的意思，这时候我们就应该在它旁边画上记号，忘的次数越多，画的星号也应该越多，这样，以后复习的时候可以针对记号多的单词，把它们作为重点复习对象。可以这么说，如果你真的用心在背单词，你的单词书上应该画满了星号、圆圈才对。如果有的单词自己总是忘，这时候就要把单词抄在一个小本子上，闲着没事就拿出来看，不断地看，你总有背过的一天。第三，我们要跳出单词书。有的同学说，单词在书上的时候我背得好好的，可到了阅读中，还是不认识，当时就昏厥了。心理学家对这个现象是这样解释的：人们在记忆的过程中，如果能够把被记忆材料与已经存在的记忆关联起来，对它的记忆就会更为深刻。同学们按照从前到后的顺序看单词书，久而久之，就会把某个单词和它前后的单词联系起来，以至于背单词时可以借助它的位置来联想起它的词义，可到了做题时，没有了这种位置感的帮助，就好像丢掉了一根有力的拐杖，昏倒在地。为了解决这个问题，我们要跳出单词书，努力打乱每次记忆的固定顺序：时而从前往后背，时而从后往前背，甚至可以挑着背，爱背哪个背哪个，不遵从所谓的顺序，这样，可以避免单词之间的相对位置对记忆的干扰。第四，区分易混单词。这一点，如果你只背少量的单词，必要性还不是那么突出。但是，如果你大量的背，会发现许多易混单词，非常难以区分，常常让我们不知所措。先看下面一组单词,lope,lobe,lode,lube……如此相像的单词，词意相差很远，我看到台下有的同学已经昏厥了。其实啊，说到易混单词，我曾经在很长一段时间都很拿它没折，因为无论我怎么努力地背，都还是会混。不过渐渐地，我发现了一个很好的方法，那就是：先熟悉其中一个单词，等到对这个单词掌握得差不多了，再去背与之对应的易混单词。比如以下一对单词：complimentary（赞美的）complementary（互补的，补充的）。乍一看，这两个单词只差一个字母，一个是i，一个是e，而词意却相差十万八千里。对此，我们不妨先背过complimentary，暂时无视complementary，等到我们把它背得滚瓜烂熟的时候，再去看complementary，这时候我们一眼就能发现它和complimentary的区别，清醒地认识到：它和我已经背过的那个词不一样。这就好比，如果你同时认识两个长得很像的人，得需要花很长时间才能把他俩区分开来；但是如果其中一个你早就认识，那么在遇到第二个人的时候就不会把他俩搞混了，只因为：你认识第一个人很长时间了，你对他印象太深了。第五，也是最重要的一点，不要迷信词根词缀记忆法、联想记忆法等各种花哨的记忆法。人们其实一直不愿意承认，背单词最好的方法只有一个，那就是死记硬背。只有通过死记硬背，也就是不断重复背熟的单词，才能建立长久的、直观的记忆。其他方法会给你造成一种错觉：单词很好背；而实际上，你在背的时候已经绕了一个弯子，没有对这个单词建立直观记忆。你以为你背过了，其实是幻觉！通通都是幻觉！！我们背单词，一定要抵制幻觉！！！我用几个例子来说明这个观点。比如courage。流行的形象记忆法会告诉你，这个词很好记，为什么呢？把c看作悬挂在高空中的一轮明月，our是“我们”，后面的age正好是“年龄”。夜晚，明月当空，我们两个青春期的少男少女站在花前月下，会做什么呢？告白！没错！男孩要跟女孩告白了！告白需要什么？需要勇气！于是courage自然等于勇气。这个方法乍一看很好玩，但是它在记忆上绕了很多弯子，试想：谁能在看到它的时候把它拆分成c,our,age，然后进行联想？一遍遍把它拆分，不如把它作为一个整体多看几遍！其实，词根词缀记忆法是同样的道理。举个例子，orbit。它可以分为orb（发光的球体），it（走），于是合起来就有了“轨道”的意思。从单词的组成去理解单词，能够加深我们对它的理解，但这一步应该放在我们背过它之后，而不是通过它去背。因为我们通过拆分单词、认识词根词缀去了解它，以为它很好背，无非就是几个前缀后缀连在一起，可是下次你见到这个单词，没有人去提醒你要拆分单词，于是，你还是背不过！这样的方法纯属害人，而且诱惑性极大，无数同学正深受其害而不自知。我就是一个曾长期蒙受其害的人。我走过的弯路，不希望大家再走。第六，通过发音记单词。在重复的过程中，可以读出声来，我想这点我不用提醒大家也都会做。大声把单词念出来的过程很重要，原因只有一个：记住发音的单词你永远不会忘。不仅要背单词，还要抄字典认识了以上六个方法，相信大家对怎样和单词混个脸熟，或者说，混个脸很熟，有了一定的认识。但是，背单词的目的决不仅仅在于看到它能反应出来它的意思，而在于对这个单词有一个全面、透彻的认识。我们不仅要背单词，还要学单词。怎样完成这层过渡？我的答案是：抄字典。我知道大家此时一定觉得，这个答案太雷人了。不过，我之所以把它搬出来，是因为我总结了一整套利用字典学习单词的方法。抄字典里面其实蕴含着无穷奥妙。只要你懂得怎么抄，你会发现，把字典里大部分内容掌握是很容易的一件事。原则一：研究英文释义。这里我为什么要用“研究”，而不用“看”？因为英文释义太重要了，它直接关系到我们能否准确地理解一个单词的词义，所以对待它们，要仔细研究，要吃透。我们阅读的时候明明认识一个单词，却还是读不懂，一个很重要的原因是我们对单词意思的理解不够精准。举一个例子：share。大家对这个单词不陌生，那么下面来看这个句子：His daughters did not share in his happiness. 大家先来想想，应该怎么翻译？我曾经把这句话发给几个高一的同学，而且都是级部前几名的同学，他们的答复如下：“他的女儿无法从他的幸福中收获快乐。”“他的闺女跟他爹兴趣迥异。”“他的女儿并没有被他的快乐所感染。”不知道你的答案在不在其中呢？其实，这三个答案，都很不靠谱。正确的翻译是：他的女儿们并不像他一样高兴。可以看到，三个答案和标准答案之间有着较大的区别，原因何在？这里面并没有生词啊！事实上，share还有一个很重要的意思。朗文字典在share的第四个用法里写，“to have the same opinion, experience, feeling etc as someone else”，也就是“与某人有共同的（看法、经历、感受等）”。了解了这些，我们再来看，刚才那句话，就不难理解了：他的女儿们和他没有共同的感受，也就是“并不像他一样高兴”。大家不妨仔细体味一下。下面的句子也就很好理解了：I share your concern about this. 我和你一样为这件事担心。Stubbornness was a characteristic he shared with his mother. 固执是他和他母亲共有的一个特征。同学们，你们发现其中的奥妙了吗？如果仅仅把share理解为“分享，分担”，绝对会影响你对句子的理解，因为几个中文词汇对share的概括非常模糊。我们只有研读了英文释义，才能精确地把握单词的意思。否则，一句话尽管一个生词都没有，你还是读不懂。所以，抄字典的第一步：将单词的所有意思的英文释义研究一遍，仔细揣摩、体味。原则二：掌握核心词义。我拿sharp这个单词来举例。Sharp这个单词在字典里有很多解释。①锋利的 sharp knife 锋利的刀子；②刺耳的 s sharp cry 尖叫声；③辛辣的 sharp taste 辛辣味；④急转的 sharp bend 急转弯；⑤剧烈的 a sharp pain 一阵剧痛；⑥尖锐的 a sharp rebuke 严厉的训斥；⑦敏锐的 sharp mind 敏锐的头脑……sharp有如此多的意思，难道我们要一一记住吗？没必要。仔细观察，我们就会发现，无论sharp在不同的语境中具体指的什么意思，它都表达了一种“尖”的概念。再仔细体味一下，比如sharp mind, a sharp pain, sharp taste……都或多或少有“尖”的意思。所以，我们在通读了一遍它的英文释义后，只需要在本子上记下“尖”一个字就可以了。这样概括的概念有助于我们记忆。抄字典的第二步：把英文释义转换成自己的理解，写到本子上，再记下没见过的表达，不断强化理解。比如，如果你没见过sharp mind这种用法，觉得很奇妙，那么完全可以把它抄下来，不断复习，相信很快它就会变成你自己的表达。原则三：记常用搭配。有些词很少出现，一旦出现就以词组的形式，所以只要记住它的常用搭配，背这些单词就变得轻而易举了。拿rave这个单词来举例。它的意思比较混乱。①怒骂，痛斥；②极力赞美。你可能就晕了，这词儿真奇怪，又是痛斥又是赞美的，老外的脑子是不是神经错乱了？其实，你大可不必管老外的脑子有没有问题，因为这个单词很好记，它最常出现的方式是rant and rave，是“不停地大叫大嚷”的意思。所以，我们只要将“rant and rave”这一常用搭配记住即可。下次见到rave这个词，就不至于晕头转向了，因为它几乎一旦出现，就是以“rant and rave”的形式。抄字典第三步：记下字典中的词组。原则四：不要忽视同一词根的不同单词。因为他们很可能有完全不同的词义。拿composition来举例。大家都知道它是“组合方式；作品”的意思，（by the way，如果你还认为它是作文的意思，那实在是太土了……），然而compost，这个看起来和composition有相同词根的单词，意思却大相径庭，它是“混合肥料”的意思。所以，对这类单词一定要谨慎小心，因为它很可能有你想象不到的意思。抄字典第四步：一并记下词形相近单词的意思，用于区分。原则五：不要拘泥于词性。有的同学在背单词的时候总喜欢牢牢记住，它是动词还是形容词，其实完全没有必要。动词和形容词、副词之间的转换其实相当灵活。曾经有个教授同时让两个学生翻译一句话：他像母亲般照顾我、关心我。这两个学生一个是地道的中国人，一个是在美国长大的华侨。中国学生的答案是：He treated me like a mother.我相信这也会是大多数同学的答案。而美国学生的答案则是：He mothers me. 没想过这种用法吧？从来没有人教我们mother可以这样用，但是只要它表达的传神就可以。有的同学问，我还不会灵活运用，我只是想知道这个词的词性。好，其实对于词性，有一个很好的方法，刚才已经提到过：记常用搭配。不断地看，不要刻意记住它在这里是形容词还是副词，是名词还是动词，熟了，自然就会了。纵观以上五条原则，我们看到，抄字典其实有无穷奥妙。但是，和背单词道理一样，抄到本子上之后，我们不能不管它，要像复习笔记一样不断地复习，再结合字典不断地深化对单词的理解。如果大家能坚持把不熟悉的词通过抄字典的方式加以认知，那么大家一定能实现从似曾相识到一见如故的完美过渡。多阅读，多写作，单词才能记得刻骨铭心那么，我们怎样才能到达对单词认知的最高境界——刻骨铭心？答案只有一个：多阅读，多写作，别无他法。如果说完成其他阶段的过渡有一些技巧可言的话，那么这一阶段真的没多少可说的，唯一个“多”字而已。我现在虽然掌握了很多单词，但很多还停留在一见如故的状态，真正刻骨铭心的恐怕不到1/3，原因就是我读的太少了。如果把背单词的过程比作谈恋爱，那么，不阅读，永远体会不到语言的美，也就永远无法建立起和单词的感情。很多单词，你以为你掌握得很好了，我告诉你，其实是幻觉！一旦放到阅读中去，你还是不够熟悉，无法体味它的精妙。语言的学习需要层层递进，而从一见如故到刻骨铭心的过渡最为漫长。这就好像我们平时说的：真正提高阅读水平不是一朝一夕的事。它需要我们大量的阅读，广泛的阅读，深入的阅读，不间断的阅读，唯此，才能迈入语言学习的最高殿堂。给大家推荐一本杂志：《English Language Learning》。还有《TIMES》。前者我认为在国内的英语刊物中是做的非常用心的一本，如果你认真读，能学到不少东西。后者对我们现在来说生词多了些，但读它非常非常有意思，能了解到许多趣事甚至是美国人的思维方式。比如前几天是情人节，我忽然想起原来在TIMES上看到一篇文章讽刺情人节，说对单身一族（the unattached）来说，Valentine’s Day其实就是Singles Awareness Day，简称SAD。在这个节日，别人都抱着鲜花和巧克力，自己却单身，是够“SAD”的，于是单身一族们只能戏谑地对自己说Happy SAD day。有戏谑，更多的是无奈和伤感。是不是很奥妙？当我把这条短信群发之后，收到的回复无一例外都是，太经典了，太有才了。其实不是我有才，这一切都要归功于《TIMES》。所以背单词的好处真的很多，当你积累了足够的单词，你会发现一个全新的世界向你敞开了。你可以大量阅读外国人写的东西，名著也好杂志也好，这都有助于你对世界的理解，而这恰恰体现了语言的功用所在。", 
        "thumbnail": "/articles/58277d4d29da92ee9eb769b28f0f6366/58277d4d29da92ee9eb769b28f0f6366-1.png", 
        "source": "蓝橡树"
    }, 
    {
        "category": "青少年教育", 
        "content": "（在星云大师九十岁寿辰的前夕，我的朋友高希均教授做了一个视频祝福他的生日）<p>生病之前，我被美国《时代周刊》评选为“影响世界百大人物”之一，我意气风发地赴美受奖，自认实至名归、当之无愧。然而，吊诡的是，领奖回来没几个月，我就发现自己生病了。病中赤裸裸地暴露在病痛的风暴中，再大的影响力、再高的知名度都帮不了忙；在诊疗间、在病床上，我什么都不是，就是一个随时可能在呼吸之间顿失所有的病人。<p>那时候，我常常怨天怨地、责怪老天爷对我不公平，我从内心深处发出呼喊：“为什么是我？我做错了什么？这是因果报应吗？”我是天之骄子啊！我有能力改变世界、造福人类，老天爷应该特别眷顾我，怎么可能会把我抛在癌症的烂泥地里，跟一群凡夫俗子一样在这里挣扎求生？<p>朋友看我很痛苦，特地带我去拜见星云大师，并在佛光山小住几日。有一天，早课刚过，天还没全亮，我被安排跟大师一起用早斋。饭后，大师突然问我：“开复，有没有想过，你的人生目标是什么？”<p>我不假思索地回答：“‘最大化影响力’、‘世界因我不同’！”这是我长久以来的人生信仰：一个人能在多大程度上改变世界，就看自己有多大的影响力；影响力越大，做出来的事情就越能够发挥效应……这个信念像肿瘤一样长在我身上，顽强、固执，而且快速扩张。我从来没有怀疑过它的正确性。<p>大师笑而不语，沉吟片刻后，他说：“这样太危险了！”<p>“为什么？我不明白！”我太惊讶了！<p>“我们人是很渺小的，多一个我、少一个我，世界都不会有增减。你要‘世界因我不同’，这就太狂妄了！”大师说得很轻、很慢，但一个字一个字清清楚楚。“什么是‘最大化影响力’呢？一个人如果老想着扩大自己的影响力，你想想，那其实是在追求名利啊！问问自己的心吧！千万不要自己骗自己……”<p>听到这里，简直像五雷轰顶，从来没有人这么直接、这么温和而又严厉地指出我的盲点。我愣在那里，久久没有答话。<p>“人生难得，人生一回太不容易了，不必想要改变世界，能把自己做好就很不容易了。”大师略停了停，继续说：“要产生正能量，不要产生负能量。”他的每一个字都落在我的心田里：“面对疾病，正能量是最有效的药。病痛最喜欢的就是担心、悲哀、沮丧。病痛最怕的就是平和、自信，以及对它视若无睹。我患糖尿病几十年了，但我无视它的存在，每天照样做我该做的事，我现在还不是活得好好的！”<p><img src=\"http://www.liunar.net/articles/e2e98f93aed219a60f4d47eee4c2c30e/e2e98f93aed219a60f4d47eee4c2c30e-0.jpeg\" /><p>那几天常听大师开示，觉得自己过去坚信不疑的很多价值观、信念都是有瑕疵的。我当时还带着很多因为身份、名望、地位而来的自负，大师的话语，我虽然记住了，可是我并没有完全明白，也没有完全接受，甚至还有点儿不服气。<p>有一天，我想到我在微博上时常针砭时弊，也曾对一些负面的社会现象口诛笔伐。于是请教大师要用什么样的态度面对社会的“恶”？没想到，大师还是以一贯平和的语气回应我：<p>“一个人倘若一心除恶，表示他看到的都是恶。如果一心行善，尤其是发自本心地行善，而不是想要借着行善来博取名声，才能导正社会，对社会产生正面的效益。”<p>“可是，如果看到贪婪、邪恶、自私等负面的事件，又该怎么办呢？”我想辩解。<p>大师说：“要珍惜、尊重周遭的一切，不论善恶美丑，都有存在的价值。就像一座生态完整的森林里，有大象、老虎，也一定有蟑螂和老鼠。完美与缺陷本来就是共存的，也是从人心产生的分别。如果没有邪恶，怎能彰显善的光芒？如果没有自私的狭隘，也无法看到慷慨无私的伟大。所以，真正有益于世界的做法不是除恶，而是行善；不是打击负能量，而是弘扬正能量。”<p>养病期间，大师的话语时常在我心中回荡。我想得最多的就是“影响力”这三个字。<p>过去，不论做任何事情，我都会不自觉地先估算这件事能产生多大的影响力。一场演讲不到一千人就不去；每天微博不能新增一万个粉丝，我就觉得内容发得不够。有人发电子邮件问我创业问题，我只回复那些有可能成功的。是否要见一个创业者，完全取决于他的公司有多大潜力。要见哪位记者，也要看他面对的读者群有多少。我从来不觉得这有什么不对，我的行程排得满满的，我的时间有限，当然必须过滤掉很多次要的、没有意义的活动。于是，我精确计算每分每秒该怎么用在能够产生最大影响力的地方；我也几乎有点偏执地把运营社交媒体当作人生目标的重点，把获取粉丝视为志在必得的工作。<p>那时候，我确实沉溺在各种浮动的快感中，我是众所瞩目的人，走到哪儿都有粉丝围绕着我；我在微博上的影响力让我轻易发起万人实名抵制某一档红火的电视节目；我认为自己是路见不平、仗义执言的大侠。作为一个科技人，我丝毫未察觉自己已经越界；我坚信自己是在关心社会，但骨子里我恐怕已经被千万粉丝冲昏了头，每一个社会重大事件，粉丝都会期待我的表态，于是我陷入转发与关注的热潮中，不能自已；甚至还运用我的专业知识，筛选最值得关注的微博条文，好让我的言论更具有影响力。<p>大师重重点醒了我：<p>“追求最大化影响力，最后就会用影响力当借口，去追求名利。不承认的人，只是在骗自己。”为了追求更大的影响力，我像机器一样盲目地快速运转，我心中那只贪婪的野兽霸占了我的灵魂，各种堂而皇之的借口，遮蔽了心中的明灯，让我失去准确的判断力。我告诉自己，有了影响力，我就可以伸张正义、做更多有意义的事，我的身体很诚实，我长期睡不好、痛风、便秘，还患了几次带状疱疹。这些警示都太微弱了，无法撼动我那越来越强大的信念；人说“不到黄河心不死”，狂心难歇，最后身体只好用一场大病来警告我，把我逼到生命的最底层，让我看看自己的无知、脆弱、渺小；也让我从身体小宇宙的复杂多变，体会宇宙人生的深邃和奥妙。<p>身体病了，我才发现，其实我的心病得更严重！当我被迫将不停运转的机器停下来，不必再依赖咖啡提神，我的头脑才终于可以保持清醒，并清楚地看到，追逐名利的人生是肤浅的，为了改变世界的人生是充满压力的。珍贵的生命旅程，应该抱着初学者的心态，对世界保持儿童般的好奇心，好好体验人生；让自己每天都比前一天有进步、有成长，不必改变别人，只要做事问心无愧、对人真诚平等，这就足够了。如果世界上每个人都能如此，世界就会更美好，不必等待任何一个救世主来拯救。<p>现在，我发现一种更符合自己渺小地位的思维方式，那就是，如果我做一件事情，世界上每一个人也都这么做，那么我们的世界会不会变好一点？如果会，我就去做，但不再用量化的思维计算每件事的“价值”和“意义”。生命太深奥了，很多看不见的价值与意义，会发生在我们看不见的细微之处。例如生病之后，我陆陆续续在微博上发表了一些病后感悟的文章，我只是真诚地想要跟大家分享，再也不会像过去一样，为了增加点击率和扩大影响力而刻意营造推广。我发现，对于真正有需要的人来说，一篇短文、一句诚恳的话，就能深入人心。与其让千万人过目即忘，不如让一两个人铭记在心。而且，通过这种真诚、无私的灵犀相契，我自己得到的回馈才会是正能量。<p>现在，之前汲汲营营追求的一切，在我心里都渐渐淡了；卸掉身上很多看不见的负担，我才有能力辨识网上许多激昂、沸腾的讨论，常常都充满了负能量。<p>昨日种种，譬如昨日死；今日种种，譬如今日生。病中醒来，昏聩的心灵也醒过来了。我现在不太看网络消息，更不觉得自己需要在网上仗义执言。眼不见、心不烦，不见可欲，使人心不乱；不烦不乱，就不会带来身心的压力，不然，压力是一切致病之源。就算是对自己的健康负责，我也势必要远离过去的生活方式了。", 
        "pageurl": "http://mp.weixin.qq.com/s?src=3&timestamp=1472073547&ver=1&signature=RuD7CsqGrc49-Zhk0QHbldrS57M4cRfKgarzXMFkFF83AJHFFJOHOruz6ZdQCL0VWIHFvBFs8EY9w4J0ef5OUg-Glwn8ZZMzr8WOslz7xeQg3dS*lRW3pmSAt058qAtS2xBWvUYj9vb-7JSdeooEVlFn3ugb*BkHwftpuQ1QLrA=", 
        "create_time": "2016-08-24", 
        "description": "生病之前，我被美国《时代周刊》评选为“影响世界百大人物”之一，我意气风发地赴美受奖，自认实至名归、当之无愧", 
        "title": "与星云大师对谈:面对疾病，正能量是最有效的药", 
        "textContent": "生病之前，我被美国《时代周刊》评选为“影响世界百大人物”之一，我意气风发地赴美受奖，自认实至名归、当之无愧。然而，吊诡的是，领奖回来没几个月，我就发现自己生病了。病中赤裸裸地暴露在病痛的风暴中，再大的影响力、再高的知名度都帮不了忙；在诊疗间、在病床上，我什么都不是，就是一个随时可能在呼吸之间顿失所有的病人。那时候，我常常怨天怨地、责怪老天爷对我不公平，我从内心深处发出呼喊：“为什么是我？我做错了什么？这是因果报应吗？”我是天之骄子啊！我有能力改变世界、造福人类，老天爷应该特别眷顾我，怎么可能会把我抛在癌症的烂泥地里，跟一群凡夫俗子一样在这里挣扎求生？朋友看我很痛苦，特地带我去拜见星云大师，并在佛光山小住几日。有一天，早课刚过，天还没全亮，我被安排跟大师一起用早斋。饭后，大师突然问我：“开复，有没有想过，你的人生目标是什么？”我不假思索地回答：“‘最大化影响力’、‘世界因我不同’！”这是我长久以来的人生信仰：一个人能在多大程度上改变世界，就看自己有多大的影响力；影响力越大，做出来的事情就越能够发挥效应……这个信念像肿瘤一样长在我身上，顽强、固执，而且快速扩张。我从来没有怀疑过它的正确性。大师笑而不语，沉吟片刻后，他说：“这样太危险了！”“为什么？我不明白！”我太惊讶了！“我们人是很渺小的，多一个我、少一个我，世界都不会有增减。你要‘世界因我不同’，这就太狂妄了！”大师说得很轻、很慢，但一个字一个字清清楚楚。“什么是‘最大化影响力’呢？一个人如果老想着扩大自己的影响力，你想想，那其实是在追求名利啊！问问自己的心吧！千万不要自己骗自己……”听到这里，简直像五雷轰顶，从来没有人这么直接、这么温和而又严厉地指出我的盲点。我愣在那里，久久没有答话。“人生难得，人生一回太不容易了，不必想要改变世界，能把自己做好就很不容易了。”大师略停了停，继续说：“要产生正能量，不要产生负能量。”他的每一个字都落在我的心田里：“面对疾病，正能量是最有效的药。病痛最喜欢的就是担心、悲哀、沮丧。病痛最怕的就是平和、自信，以及对它视若无睹。我患糖尿病几十年了，但我无视它的存在，每天照样做我该做的事，我现在还不是活得好好的！”那几天常听大师开示，觉得自己过去坚信不疑的很多价值观、信念都是有瑕疵的。我当时还带着很多因为身份、名望、地位而来的自负，大师的话语，我虽然记住了，可是我并没有完全明白，也没有完全接受，甚至还有点儿不服气。有一天，我想到我在微博上时常针砭时弊，也曾对一些负面的社会现象口诛笔伐。于是请教大师要用什么样的态度面对社会的“恶”？没想到，大师还是以一贯平和的语气回应我：“一个人倘若一心除恶，表示他看到的都是恶。如果一心行善，尤其是发自本心地行善，而不是想要借着行善来博取名声，才能导正社会，对社会产生正面的效益。”“可是，如果看到贪婪、邪恶、自私等负面的事件，又该怎么办呢？”我想辩解。大师说：“要珍惜、尊重周遭的一切，不论善恶美丑，都有存在的价值。就像一座生态完整的森林里，有大象、老虎，也一定有蟑螂和老鼠。完美与缺陷本来就是共存的，也是从人心产生的分别。如果没有邪恶，怎能彰显善的光芒？如果没有自私的狭隘，也无法看到慷慨无私的伟大。所以，真正有益于世界的做法不是除恶，而是行善；不是打击负能量，而是弘扬正能量。”养病期间，大师的话语时常在我心中回荡。我想得最多的就是“影响力”这三个字。过去，不论做任何事情，我都会不自觉地先估算这件事能产生多大的影响力。一场演讲不到一千人就不去；每天微博不能新增一万个粉丝，我就觉得内容发得不够。有人发电子邮件问我创业问题，我只回复那些有可能成功的。是否要见一个创业者，完全取决于他的公司有多大潜力。要见哪位记者，也要看他面对的读者群有多少。我从来不觉得这有什么不对，我的行程排得满满的，我的时间有限，当然必须过滤掉很多次要的、没有意义的活动。于是，我精确计算每分每秒该怎么用在能够产生最大影响力的地方；我也几乎有点偏执地把运营社交媒体当作人生目标的重点，把获取粉丝视为志在必得的工作。那时候，我确实沉溺在各种浮动的快感中，我是众所瞩目的人，走到哪儿都有粉丝围绕着我；我在微博上的影响力让我轻易发起万人实名抵制某一档红火的电视节目；我认为自己是路见不平、仗义执言的大侠。作为一个科技人，我丝毫未察觉自己已经越界；我坚信自己是在关心社会，但骨子里我恐怕已经被千万粉丝冲昏了头，每一个社会重大事件，粉丝都会期待我的表态，于是我陷入转发与关注的热潮中，不能自已；甚至还运用我的专业知识，筛选最值得关注的微博条文，好让我的言论更具有影响力。大师重重点醒了我：“追求最大化影响力，最后就会用影响力当借口，去追求名利。不承认的人，只是在骗自己。”为了追求更大的影响力，我像机器一样盲目地快速运转，我心中那只贪婪的野兽霸占了我的灵魂，各种堂而皇之的借口，遮蔽了心中的明灯，让我失去准确的判断力。我告诉自己，有了影响力，我就可以伸张正义、做更多有意义的事，我的身体很诚实，我长期睡不好、痛风、便秘，还患了几次带状疱疹。这些警示都太微弱了，无法撼动我那越来越强大的信念；人说“不到黄河心不死”，狂心难歇，最后身体只好用一场大病来警告我，把我逼到生命的最底层，让我看看自己的无知、脆弱、渺小；也让我从身体小宇宙的复杂多变，体会宇宙人生的深邃和奥妙。身体病了，我才发现，其实我的心病得更严重！当我被迫将不停运转的机器停下来，不必再依赖咖啡提神，我的头脑才终于可以保持清醒，并清楚地看到，追逐名利的人生是肤浅的，为了改变世界的人生是充满压力的。珍贵的生命旅程，应该抱着初学者的心态，对世界保持儿童般的好奇心，好好体验人生；让自己每天都比前一天有进步、有成长，不必改变别人，只要做事问心无愧、对人真诚平等，这就足够了。如果世界上每个人都能如此，世界就会更美好，不必等待任何一个救世主来拯救。现在，我发现一种更符合自己渺小地位的思维方式，那就是，如果我做一件事情，世界上每一个人也都这么做，那么我们的世界会不会变好一点？如果会，我就去做，但不再用量化的思维计算每件事的“价值”和“意义”。生命太深奥了，很多看不见的价值与意义，会发生在我们看不见的细微之处。例如生病之后，我陆陆续续在微博上发表了一些病后感悟的文章，我只是真诚地想要跟大家分享，再也不会像过去一样，为了增加点击率和扩大影响力而刻意营造推广。我发现，对于真正有需要的人来说，一篇短文、一句诚恳的话，就能深入人心。与其让千万人过目即忘，不如让一两个人铭记在心。而且，通过这种真诚、无私的灵犀相契，我自己得到的回馈才会是正能量。现在，之前汲汲营营追求的一切，在我心里都渐渐淡了；卸掉身上很多看不见的负担，我才有能力辨识网上许多激昂、沸腾的讨论，常常都充满了负能量。昨日种种，譬如昨日死；今日种种，譬如今日生。病中醒来，昏聩的心灵也醒过来了。我现在不太看网络消息，更不觉得自己需要在网上仗义执言。眼不见、心不烦，不见可欲，使人心不乱；不烦不乱，就不会带来身心的压力，不然，压力是一切致病之源。就算是对自己的健康负责，我也势必要远离过去的生活方式了。", 
        "thumbnail": "/articles/e2e98f93aed219a60f4d47eee4c2c30e/e2e98f93aed219a60f4d47eee4c2c30e-0.jpeg", 
        "source": "李开复"
    }, 
    {
        "category": "留学申请", 
        "content": "马来西亚之行在经过了吉隆坡，槟城两站后，娜娜带着她可爱的儿子来到了爱人的工作城市，也是此行最终目的地------新山。娜娜以一个游客但颇有当地人feel的视角分别就新山的教育、住、行、吃和玩进行了简单的介绍。相信看了这篇文章的你，会有一种立马收拾家当移居新山的冲动~</p>&nbsp;</p><p><p>新山是此行的最后一站，也是我们探亲之旅的目的地，孩他爹工作的项目就在这里了。我们在新山住了二十天，对新山方方面面的了解，要远远超过对吉隆坡和槟城。总体感觉，新山是一个充满潜力的发展中城市。</p><img src=\"http://www.liunar.net/articles/17d24667982282a6e55cd8c95195d297/17d24667982282a6e55cd8c95195d297-0.jpeg\" /><img src=\"http://www.liunar.net/articles/17d24667982282a6e55cd8c95195d297/17d24667982282a6e55cd8c95195d297-1.jpeg\" /></p>新山，马来语称为“Johor Bahru”，柔佛州首府，马来西亚第二大城市，与新加坡之间隔着一条柔佛海峡，自然风光旖旎。海峡之近，可以从新山这边毫不费力地看到对岸新加坡的建筑，就像在深圳隔河看香港一样。新山与新加坡之间已经建成两座通关大桥，当地人称为“一桥”和“二桥”，来往新加坡非常便利。曾经有人笑着说，有一天穿着跨栏背心趿拉着拖鞋开车出去买东西，走错了路一下子跑到新加坡去了，新加坡海关关员一看穿成这样啊，直接放行让他掉头绕回新山去了。<p><img src=\"http://www.liunar.net/articles/17d24667982282a6e55cd8c95195d297/17d24667982282a6e55cd8c95195d297-2.jpeg\" />&nbsp;</p>正是由于进出新加坡非常便利，而马来西亚物价要远远低于新加坡，所以新山就成了新加坡人买房置地、周末购物休闲的绝佳目的地。新山这里有非常多的泰式按摩会所，有集中的卡拉OK区，还有JPO奥特莱斯、Jusco、Tesco这样的大型购物中心，购物娱乐的水平要远远高于整个城市发展的水平，不难想象新加坡人的消费为新山经济发展做出了多大的贡献。<p>新山的物价水平比北京要低很多，如果退休后想在热带海滨城市渡过老年生活，新山真是理想的去处。而忙着打拼的年轻人，也可以趁着假期来这里逍遥度日。虽然我自己在新山赶上了受伤、生病等等麻烦事，但我仍然乐意承认，这个城市是美丽宜居的。<p><img src=\"http://www.liunar.net/articles/17d24667982282a6e55cd8c95195d297/17d24667982282a6e55cd8c95195d297-3.jpeg\" /><img src=\"http://www.liunar.net/articles/17d24667982282a6e55cd8c95195d297/17d24667982282a6e55cd8c95195d297-4.jpeg\" /><p>首先说住，新山当地的房子价格从五六千一平到两万多一平都有，都是永久产权、实际使用面积，比北京动辄十万一平的价格简直亲民太多了。由于人少，新山这里大片大片的联排别墅，连最普通的民居都是联排。每一家都有个二三层的房子，带个小院子。也有与北京类似的高层的公寓，但往往具备游泳池、烧烤吧、各种球场等配套设施，反而比满大街小巷的联排别墅更贵一些。新山也是一个旅游城市，房子的价格跟区位关系密切，最贵的是靠山（比如horizon hills）或者靠海（比如金海湾附近的楼盘以及大名鼎鼎的森林城市）的豪华小区，基本都是两万人民币一平米的价格，就可以享受小区内高尔夫球场或者坐拥海景了。而市区内老旧或偏远的地段则非常便宜，但是环境与前述豪华小区比落差非常大，与国内八九十年代的风貌比较接近。<p><img src=\"http://www.liunar.net/articles/17d24667982282a6e55cd8c95195d297/17d24667982282a6e55cd8c95195d297-5.jpeg\" />&nbsp;</p>在新山期间，我们闲着无事参观了不少新盘，总体感觉是马来西亚当地的开发商水平要略差一些，不论是户型设计还是样板房装饰，还有小区绿化水平，都要比来自中国的开发商差个几年的水平。目前碧桂园在新山的森林城市正在国内大规模宣传，而碧桂园此前更早的一个项目金海湾（Danga Bay）以及绿地和富力的项目也都在建设中。实地看过之后，忍不住对中国的开发商有了大大的好感。在北京忍受高房价的时候，总是觉得开发商像吃人不吐骨头的吸血鬼，其实忽略了高地价才是最大的魔鬼。在地价便宜的新山，看到来自中国的开发商用心做出度假村一样的社区环境，做出令人留连的精品样板间，而房子的价格竟然可以控制在两万一平，实在不能不说他们很出色。<p><img src=\"http://www.liunar.net/articles/17d24667982282a6e55cd8c95195d297/17d24667982282a6e55cd8c95195d297-6.jpeg\" />&nbsp;</p>然后说行，进口车比国内便宜这一点不必说，最具优势的是油价超便宜。马来西亚是产油国，油价大概每升1.6~1.8马币，折合人民币三块钱左右，就这样马来人还是嫌贵。我们在新山期间，加油可以选择加个五十块，也能跑好几天。新山地大人稀，车道并不宽，基本都是两个方向各一个车道，但路况相当好，所以车都跑得非常快。孩他爹说，他们上班的路上，开车都在一百三四十迈的速度。我是领教过新山车速的。因为判断对方车速失误，转弯时被直行飞速驶来的车从侧面猛撞了一下，两个车门和立柱都瘪进去了，人吓到半死，万幸的是没受大伤。北京的路况虽然复杂，但是大家普遍开得很慢，而我按照在北京的驾驶习惯对待新山司机，真是太不尊重新山速度了。<p><img src=\"http://www.liunar.net/articles/17d24667982282a6e55cd8c95195d297/17d24667982282a6e55cd8c95195d297-7.jpeg\" />&nbsp;</p>还要再提一下教育花费。在新山，陪一个朋友去给孩子找幼儿园，在我们居住的bukit indah区域有一个很漂亮的城堡幼儿园，孩子们同时学习英语、华语、马来语，幼儿园里摆满了乐高积木，院子里还有游泳池，老师漂亮又温柔，感觉整体水平比国内的红黄蓝、金色摇篮之类毫不逊色。但这样的幼儿园每个月只要五百多马币，就算加上伙食费服装费，每个月都不到一千人民币。在国内，恐怕同等水平要五千人民币一个月吧，一千块，大概只够上城中村的私人幼儿园。我们还在当地比较热闹的购物中心找了一个钢琴教室，选了一个八节课的一对一课程，全部只要240马币，还可以不限时免费练琴。算下来，一堂课只要30马币，折合50人民币，我在北京某个大型连锁学校报过最便宜的课程，一堂课是200。经过这些对比，我实在无法不羡慕新山当地的家长。<p><img src=\"http://www.liunar.net/articles/17d24667982282a6e55cd8c95195d297/17d24667982282a6e55cd8c95195d297-8.jpeg\" /><img src=\"http://www.liunar.net/articles/17d24667982282a6e55cd8c95195d297/17d24667982282a6e55cd8c95195d297-9.jpeg\" /></p>吃的方面，新山华人比例很高，很容易找到中式餐厅。比较高端的有各个购物中心的美食街，大概人均100人民币以内可以吃到美味正宗的中国菜；比较实惠的有小区外面的饮食店，一份鸡脚面或者一份云吞面，大概5块马币，不到十块钱可以吃饱饱的。这边的饮食偏向于广东、福建的口味，如果足够耐心，也能找到东北饭店或者湘菜馆。有个爱心大哥，带着我们驱车几十公里专门赶去海边一家海鲜楼，因为它被新加坡人排在第一名。我们尝完了新加坡人盛赞的龙虾、石斑鱼，只能默默感慨一下新加坡人口味好淡，低盐少油，简直太太太健康了！店的后门直接对着海，店主人自己围了一个池塘引进来海水养着鱼。孩子们抓了好多花生去喂鱼，健硕的鱼儿冲撞着出水抢食，逗得孩子们都忘了回去吃饭。大概对他们来说，这个店可以喂鱼，已经值得最高评价了。<p><img src=\"http://www.liunar.net/articles/17d24667982282a6e55cd8c95195d297/17d24667982282a6e55cd8c95195d297-10.jpeg\" />&nbsp;</p>玩的方面，新山有山有海，是温热潮湿的热带雨林气候，周边密布着繁茂的棕榈林，四处观赏自然风光非常惬意。我们去过美丽的苏丹宫殿，纯白的建筑美到不可思议，草坪和绿树都长得富有诗意。当地有一个大型的水果园，可以供人采摘游玩，《爸爸去哪儿》的李锐村长还带小朋友团去过。还有一个鳄鱼园，养了数千条大大小小的鳄鱼，很适合胆大好奇的人去游玩一番。小朋友最喜欢的应该是乐高乐园（Lego Land），完全以乐高玩具为主题的游乐园，也有小火车，还有很多好玩的项目，比较适合一家人共享欢乐时光。<p><img src=\"http://www.liunar.net/articles/17d24667982282a6e55cd8c95195d297/17d24667982282a6e55cd8c95195d297-11.jpeg\" /><img src=\"http://www.liunar.net/articles/17d24667982282a6e55cd8c95195d297/17d24667982282a6e55cd8c95195d297-12.jpeg\" />", 
        "pageurl": "http://mp.weixin.qq.com/s?src=3&timestamp=1472073546&ver=1&signature=Y5HBKqXWVFLceILDsiRO7Dr677Pcp1uiGgW3CSmMEWPhFCGgEwtNcKY-lE*iqOfkWkemPQlQLHw4nn9Fw6Q*G*ieoGU1bdGkPW3V5fQpcZck*43FtNjAjkwJ2SyfZ7A-5wCngyTApj7Q04PUUP90wwxF*ZPAQyfre7SoJa1650g=", 
        "create_time": "2016-08-24", 
        "description": "馨语马来西亚之行在经过了吉隆坡，槟城两站后，娜娜带着她可爱的儿子来到了爱人的工作城市，也是此行最终目的地------新山", 
        "title": "力荐原创｜大马三城记（三）美在新山无人知", 
        "textContent": "馨语马来西亚之行在经过了吉隆坡，槟城两站后，娜娜带着她可爱的儿子来到了爱人的工作城市，也是此行最终目的地------新山。娜娜以一个游客但颇有当地人feel的视角分别就新山的教育、住、行、吃和玩进行了简单的介绍。相信看了这篇文章的你，会有一种立马收拾家当移居新山的冲动~&nbsp;新山是此行的最后一站，也是我们探亲之旅的目的地，孩他爹工作的项目就在这里了。我们在新山住了二十天，对新山方方面面的了解，要远远超过对吉隆坡和槟城。总体感觉，新山是一个充满潜力的发展中城市。新山，马来语称为“Johor Bahru”，柔佛州首府，马来西亚第二大城市，与新加坡之间隔着一条柔佛海峡，自然风光旖旎。海峡之近，可以从新山这边毫不费力地看到对岸新加坡的建筑，就像在深圳隔河看香港一样。新山与新加坡之间已经建成两座通关大桥，当地人称为“一桥”和“二桥”，来往新加坡非常便利。曾经有人笑着说，有一天穿着跨栏背心趿拉着拖鞋开车出去买东西，走错了路一下子跑到新加坡去了，新加坡海关关员一看穿成这样啊，直接放行让他掉头绕回新山去了。&nbsp;正是由于进出新加坡非常便利，而马来西亚物价要远远低于新加坡，所以新山就成了新加坡人买房置地、周末购物休闲的绝佳目的地。新山这里有非常多的泰式按摩会所，有集中的卡拉OK区，还有JPO奥特莱斯、Jusco、Tesco这样的大型购物中心，购物娱乐的水平要远远高于整个城市发展的水平，不难想象新加坡人的消费为新山经济发展做出了多大的贡献。新山的物价水平比北京要低很多，如果退休后想在热带海滨城市渡过老年生活，新山真是理想的去处。而忙着打拼的年轻人，也可以趁着假期来这里逍遥度日。虽然我自己在新山赶上了受伤、生病等等麻烦事，但我仍然乐意承认，这个城市是美丽宜居的。首先说住，新山当地的房子价格从五六千一平到两万多一平都有，都是永久产权、实际使用面积，比北京动辄十万一平的价格简直亲民太多了。由于人少，新山这里大片大片的联排别墅，连最普通的民居都是联排。每一家都有个二三层的房子，带个小院子。也有与北京类似的高层的公寓，但往往具备游泳池、烧烤吧、各种球场等配套设施，反而比满大街小巷的联排别墅更贵一些。新山也是一个旅游城市，房子的价格跟区位关系密切，最贵的是靠山（比如horizon hills）或者靠海（比如金海湾附近的楼盘以及大名鼎鼎的森林城市）的豪华小区，基本都是两万人民币一平米的价格，就可以享受小区内高尔夫球场或者坐拥海景了。而市区内老旧或偏远的地段则非常便宜，但是环境与前述豪华小区比落差非常大，与国内八九十年代的风貌比较接近。&nbsp;在新山期间，我们闲着无事参观了不少新盘，总体感觉是马来西亚当地的开发商水平要略差一些，不论是户型设计还是样板房装饰，还有小区绿化水平，都要比来自中国的开发商差个几年的水平。目前碧桂园在新山的森林城市正在国内大规模宣传，而碧桂园此前更早的一个项目金海湾（Danga Bay）以及绿地和富力的项目也都在建设中。实地看过之后，忍不住对中国的开发商有了大大的好感。在北京忍受高房价的时候，总是觉得开发商像吃人不吐骨头的吸血鬼，其实忽略了高地价才是最大的魔鬼。在地价便宜的新山，看到来自中国的开发商用心做出度假村一样的社区环境，做出令人留连的精品样板间，而房子的价格竟然可以控制在两万一平，实在不能不说他们很出色。&nbsp;然后说行，进口车比国内便宜这一点不必说，最具优势的是油价超便宜。马来西亚是产油国，油价大概每升1.6~1.8马币，折合人民币三块钱左右，就这样马来人还是嫌贵。我们在新山期间，加油可以选择加个五十块，也能跑好几天。新山地大人稀，车道并不宽，基本都是两个方向各一个车道，但路况相当好，所以车都跑得非常快。孩他爹说，他们上班的路上，开车都在一百三四十迈的速度。我是领教过新山车速的。因为判断对方车速失误，转弯时被直行飞速驶来的车从侧面猛撞了一下，两个车门和立柱都瘪进去了，人吓到半死，万幸的是没受大伤。北京的路况虽然复杂，但是大家普遍开得很慢，而我按照在北京的驾驶习惯对待新山司机，真是太不尊重新山速度了。&nbsp;还要再提一下教育花费。在新山，陪一个朋友去给孩子找幼儿园，在我们居住的bukit indah区域有一个很漂亮的城堡幼儿园，孩子们同时学习英语、华语、马来语，幼儿园里摆满了乐高积木，院子里还有游泳池，老师漂亮又温柔，感觉整体水平比国内的红黄蓝、金色摇篮之类毫不逊色。但这样的幼儿园每个月只要五百多马币，就算加上伙食费服装费，每个月都不到一千人民币。在国内，恐怕同等水平要五千人民币一个月吧，一千块，大概只够上城中村的私人幼儿园。我们还在当地比较热闹的购物中心找了一个钢琴教室，选了一个八节课的一对一课程，全部只要240马币，还可以不限时免费练琴。算下来，一堂课只要30马币，折合50人民币，我在北京某个大型连锁学校报过最便宜的课程，一堂课是200。经过这些对比，我实在无法不羡慕新山当地的家长。吃的方面，新山华人比例很高，很容易找到中式餐厅。比较高端的有各个购物中心的美食街，大概人均100人民币以内可以吃到美味正宗的中国菜；比较实惠的有小区外面的饮食店，一份鸡脚面或者一份云吞面，大概5块马币，不到十块钱可以吃饱饱的。这边的饮食偏向于广东、福建的口味，如果足够耐心，也能找到东北饭店或者湘菜馆。有个爱心大哥，带着我们驱车几十公里专门赶去海边一家海鲜楼，因为它被新加坡人排在第一名。我们尝完了新加坡人盛赞的龙虾、石斑鱼，只能默默感慨一下新加坡人口味好淡，低盐少油，简直太太太健康了！店的后门直接对着海，店主人自己围了一个池塘引进来海水养着鱼。孩子们抓了好多花生去喂鱼，健硕的鱼儿冲撞着出水抢食，逗得孩子们都忘了回去吃饭。大概对他们来说，这个店可以喂鱼，已经值得最高评价了。&nbsp;玩的方面，新山有山有海，是温热潮湿的热带雨林气候，周边密布着繁茂的棕榈林，四处观赏自然风光非常惬意。我们去过美丽的苏丹宫殿，纯白的建筑美到不可思议，草坪和绿树都长得富有诗意。当地有一个大型的水果园，可以供人采摘游玩，《爸爸去哪儿》的李锐村长还带小朋友团去过。还有一个鳄鱼园，养了数千条大大小小的鳄鱼，很适合胆大好奇的人去游玩一番。小朋友最喜欢的应该是乐高乐园（Lego Land），完全以乐高玩具为主题的游乐园，也有小火车，还有很多好玩的项目，比较适合一家人共享欢乐时光。", 
        "thumbnail": "/articles/17d24667982282a6e55cd8c95195d297/17d24667982282a6e55cd8c95195d297-0.jpeg", 
        "source": "寓教于游"
    }, 
    {
        "category": "本地生活", 
        "content": "在加拿大，刷信用卡不但很方便，而且可以累积信用，甚至还有些你意想不到的惊喜，就像之前蓝妹子分享过的，iPhone 6S 碎屏了，银行给赔的亲历。但是，各位童鞋刷信用卡也要小心了，因为盗用信用卡的事儿在加拿大可并不新鲜。最近在加拿大卡尔加里东南的一家Husky加油站里，Jeremy Ensign在用卡付款的时候，竟然发现插卡口的塑料片掉了下来。<img src=\"http://www.liunar.net/articles/d4497fa8aa5c3141a45355e66b9390c1/d4497fa8aa5c3141a45355e66b9390c1-2.jpeg\" />就是这个东西&nbsp;他马上打电话报了警，警方证实，这是一个盗卡器（Card skimmers）。&nbsp;Jeremy Ensign说“当我把它翻过来看到芯片和电线的时候，我当场就知道了这是什么，我当场就噎住了，但我能做什么呢？”他把拍下的读卡器照片发到了社交媒体上，警告其他人小心。<img src=\"http://www.liunar.net/articles/d4497fa8aa5c3141a45355e66b9390c1/d4497fa8aa5c3141a45355e66b9390c1-4.png\" />瞬间得到5w分享&nbsp;警察说，盗卡器其实很难被人发现，通常情况下，盗卡器的外形与加油站和ATM的读卡器完全相同。&nbsp;Jeremy Ensign表示，他检查了所有的油枪的付款插卡口，只有他那个有盗卡器，如果那玩意儿没掉下来，那他就完全不知情。&nbsp;警察告诉Jeremy Ensign，盗卡器放在加油站的情况非常少，能做的就是检查读卡器，认真检查读卡器。&nbsp;<img src=\"http://www.liunar.net/articles/d4497fa8aa5c3141a45355e66b9390c1/d4497fa8aa5c3141a45355e66b9390c1-5.jpeg\" />澳洲美国 盗卡器泛滥成灾不过加拿大并不是第一个受害的，澳洲这种事已经成灾了。&nbsp;前几天，土澳的建筑工人艾力（Eli Maguire）去ANZ银行的一个ATM机取钱，刚准备插卡时，细心的他发现插卡口好像有点不太对劲！<img src=\"http://www.liunar.net/articles/d4497fa8aa5c3141a45355e66b9390c1/d4497fa8aa5c3141a45355e66b9390c1-6.png\" />艾力一直都是个做事情很小心谨慎的人。发现卡槽外面的塑料板子有些松动，于是就多了一个心眼！难道这台机器被撬开过？还是说有人动了什么手脚？不管怎么样，一定有问题！于是他仔细观察了一下，插卡口的外面这层松动的塑料板显然是有人故意装上去的！他用力一掰，竟然可以轻松掰下来！天哪，这竟然是个盗刷器！上面安装着读卡设备和微型摄像头！这已经不是第一次在澳洲的ATM机上发现盗刷器了。&nbsp;<img src=\"http://www.liunar.net/articles/d4497fa8aa5c3141a45355e66b9390c1/d4497fa8aa5c3141a45355e66b9390c1-8.gif\" />这位Bendigo银行的用户就曾经因盗刷器损失上千澳币。在澳洲，像他这样被坑惨的案例最近几年明显增加了很多。<img src=\"http://www.liunar.net/articles/d4497fa8aa5c3141a45355e66b9390c1/d4497fa8aa5c3141a45355e66b9390c1-9.png\" />主要是这种案子不好破，澳洲量刑太低，关几天就出来了&nbsp;像艾力这样算是比较幸运的，因为松动的盗刷器不难被发现。但更多的盗刷器制作和安装的更精细，更加难以识别。<img src=\"http://www.liunar.net/articles/d4497fa8aa5c3141a45355e66b9390c1/d4497fa8aa5c3141a45355e66b9390c1-10.png\" /><img src=\"http://www.liunar.net/articles/d4497fa8aa5c3141a45355e66b9390c1/d4497fa8aa5c3141a45355e66b9390c1-11.png\" />这是北美常见的两种盗卡器&nbsp;&nbsp;<img src=\"http://www.liunar.net/articles/d4497fa8aa5c3141a45355e66b9390c1/d4497fa8aa5c3141a45355e66b9390c1-12.gif\" />如何保护信用卡不被盗卡器读取？&nbsp;CBC采访了卡尔加里大学的教授和Technocreep的作者Tom Keenan。&nbsp;他认为这种案子根本不稀奇，人们总会去购物，而这些盗卡的人也不用自己发明什么用具，他们只要偷偷的把盗卡器装到ATM的读卡器上就行了。&nbsp;想要保护自己的信用卡“ 首先要看一下ATM设备，看它上面有没有什么不该存在的东西，也可以扭一下读卡器，如果它松脱的话，恭喜你，你发现了一个盗卡器。特别要注意卡槽和摄像头附近 &nbsp;盗刷器通常会设置在这两个地方，读取你的账户信息和安全码。 &nbsp;&nbsp;&nbsp;银行ATM机的插卡口通常都是有闪烁的灯光&nbsp;如果发现插卡时没有灯光闪烁，或是颜色不对，请一定要小心，很有可能插卡口已经被覆盖。&nbsp;数字键盘是否有刮擦痕迹和被撬的痕迹&nbsp;除非有人动了手脚，否则银行ATM的键盘一般是不会出现这些痕迹的。&nbsp;注意ATM机所有塑料的部位是否有异常&nbsp;塑料部位是最容易被动手脚的，一定要多一个心眼。&nbsp;多留意任何有松动、多余黏胶、螺栓松动、破碎的部位&nbsp;银行ATM机的安装是非常专业和严谨的，因此不太可能出现松动，所以一旦发现有松动部位一定要警惕。&nbsp;此外，如果是在加油站，不要选择离服务人员最远的加油机因为盗卡的人不想被人发现他们在做的事，因此会选择在偏僻角落的几起。此外，如果几起要求你在此输入密码。直接走开。&nbsp;<img src=\"http://www.liunar.net/articles/d4497fa8aa5c3141a45355e66b9390c1/d4497fa8aa5c3141a45355e66b9390c1-13.gif\" />不幸的是，盗卡器的技术也在进步，越来越轻薄，甚至可以直接塞到读卡器内部。&nbsp;最容易受害的就是磁条卡。教授表示，大家都以为芯片和密码能完美解决问题，但是黑客们也在努力破解新的信用卡技术，顶多是多花点钱制作盗卡器。&nbsp;道高一尺，魔高一丈，现在能解决的办法只有用tapping功能，就是芯片卡的快速支付技术，因为这样刷卡有付款上限，无法超额盗刷。&nbsp;<img src=\"http://www.liunar.net/articles/d4497fa8aa5c3141a45355e66b9390c1/d4497fa8aa5c3141a45355e66b9390c1-15.gif\" />虽然加拿大的法律规定，如果被盗刷，银行会负全责，但过程旷日持久，银行也会想办法推卸责任。因此，Tom Keenan教授建议大家不要太懒，每个月都要检查自己的信用卡，注意奇怪的支出，多小的额度都要注意，保护好自己的利益。心好累。。。。（来源：&nbsp;CACnews.ca，图片来自网络）", 
        "pageurl": "http://mp.weixin.qq.com/s?src=3&timestamp=1472073546&ver=1&signature=B77tXm6--1Szj3bbXGg*pe-WEEjkR81pK9CzTCKvUe90OzzJ2Xprg9sw33X8k2mff*FZkdgdHJcaIgz5i1yZLjKH6LIKxhV9v0ZsYmnzLWmhz9kHwGmqYreUQkWM75iRf5z3Eshq1b6cywFXKUcUxjQSZk8OefPAGPpw6XwhJts=", 
        "create_time": "2016-08-24", 
        "description": "在加拿大，刷信用卡不但很方便，而且可以累积信用，甚至还有些你意想不到的惊喜，就像之前蓝妹子分享过的，iPhone 6S 碎屏了，银行给赔的亲历", 
        "title": "ATM取钱损失上千刀！在加拿大不这样做，你的银行卡就危险了", 
        "textContent": "在加拿大，刷信用卡不但很方便，而且可以累积信用，甚至还有些你意想不到的惊喜，就像之前蓝妹子分享过的，iPhone 6S 碎屏了，银行给赔的亲历。但是，各位童鞋刷信用卡也要小心了，因为盗用信用卡的事儿在加拿大可并不新鲜。最近在加拿大卡尔加里东南的一家Husky加油站里，Jeremy Ensign在用卡付款的时候，竟然发现插卡口的塑料片掉了下来。就是这个东西&nbsp;他马上打电话报了警，警方证实，这是一个盗卡器（Card skimmers）。&nbsp;Jeremy Ensign说“当我把它翻过来看到芯片和电线的时候，我当场就知道了这是什么，我当场就噎住了，但我能做什么呢？”他把拍下的读卡器照片发到了社交媒体上，警告其他人小心。瞬间得到5w分享&nbsp;警察说，盗卡器其实很难被人发现，通常情况下，盗卡器的外形与加油站和ATM的读卡器完全相同。&nbsp;Jeremy Ensign表示，他检查了所有的油枪的付款插卡口，只有他那个有盗卡器，如果那玩意儿没掉下来，那他就完全不知情。&nbsp;警察告诉Jeremy Ensign，盗卡器放在加油站的情况非常少，能做的就是检查读卡器，认真检查读卡器。&nbsp;澳洲美国 盗卡器泛滥成灾不过加拿大并不是第一个受害的，澳洲这种事已经成灾了。&nbsp;前几天，土澳的建筑工人艾力（Eli Maguire）去ANZ银行的一个ATM机取钱，刚准备插卡时，细心的他发现插卡口好像有点不太对劲！艾力一直都是个做事情很小心谨慎的人。发现卡槽外面的塑料板子有些松动，于是就多了一个心眼！难道这台机器被撬开过？还是说有人动了什么手脚？不管怎么样，一定有问题！于是他仔细观察了一下，插卡口的外面这层松动的塑料板显然是有人故意装上去的！他用力一掰，竟然可以轻松掰下来！天哪，这竟然是个盗刷器！上面安装着读卡设备和微型摄像头！这已经不是第一次在澳洲的ATM机上发现盗刷器了。&nbsp;这位Bendigo银行的用户就曾经因盗刷器损失上千澳币。在澳洲，像他这样被坑惨的案例最近几年明显增加了很多。主要是这种案子不好破，澳洲量刑太低，关几天就出来了&nbsp;像艾力这样算是比较幸运的，因为松动的盗刷器不难被发现。但更多的盗刷器制作和安装的更精细，更加难以识别。这是北美常见的两种盗卡器&nbsp;&nbsp;如何保护信用卡不被盗卡器读取？&nbsp;CBC采访了卡尔加里大学的教授和Technocreep的作者Tom Keenan。&nbsp;他认为这种案子根本不稀奇，人们总会去购物，而这些盗卡的人也不用自己发明什么用具，他们只要偷偷的把盗卡器装到ATM的读卡器上就行了。&nbsp;想要保护自己的信用卡“ 首先要看一下ATM设备，看它上面有没有什么不该存在的东西，也可以扭一下读卡器，如果它松脱的话，恭喜你，你发现了一个盗卡器。特别要注意卡槽和摄像头附近 &nbsp;盗刷器通常会设置在这两个地方，读取你的账户信息和安全码。 &nbsp;&nbsp;&nbsp;银行ATM机的插卡口通常都是有闪烁的灯光&nbsp;如果发现插卡时没有灯光闪烁，或是颜色不对，请一定要小心，很有可能插卡口已经被覆盖。&nbsp;数字键盘是否有刮擦痕迹和被撬的痕迹&nbsp;除非有人动了手脚，否则银行ATM的键盘一般是不会出现这些痕迹的。&nbsp;注意ATM机所有塑料的部位是否有异常&nbsp;塑料部位是最容易被动手脚的，一定要多一个心眼。&nbsp;多留意任何有松动、多余黏胶、螺栓松动、破碎的部位&nbsp;银行ATM机的安装是非常专业和严谨的，因此不太可能出现松动，所以一旦发现有松动部位一定要警惕。&nbsp;此外，如果是在加油站，不要选择离服务人员最远的加油机因为盗卡的人不想被人发现他们在做的事，因此会选择在偏僻角落的几起。此外，如果几起要求你在此输入密码。直接走开。&nbsp;不幸的是，盗卡器的技术也在进步，越来越轻薄，甚至可以直接塞到读卡器内部。&nbsp;最容易受害的就是磁条卡。教授表示，大家都以为芯片和密码能完美解决问题，但是黑客们也在努力破解新的信用卡技术，顶多是多花点钱制作盗卡器。&nbsp;道高一尺，魔高一丈，现在能解决的办法只有用tapping功能，就是芯片卡的快速支付技术，因为这样刷卡有付款上限，无法超额盗刷。&nbsp;虽然加拿大的法律规定，如果被盗刷，银行会负全责，但过程旷日持久，银行也会想办法推卸责任。因此，Tom Keenan教授建议大家不要太懒，每个月都要检查自己的信用卡，注意奇怪的支出，多小的额度都要注意，保护好自己的利益。心好累。。。。（来源：&nbsp;CACnews.ca，图片来自网络）", 
        "thumbnail": "/articles/d4497fa8aa5c3141a45355e66b9390c1/d4497fa8aa5c3141a45355e66b9390c1-2.jpeg", 
        "source": "佳亨温哥华学生联盟"
    }, 
    {
        "category": "本地生活", 
        "content": "作者介绍：赴美留学生，今年理论数学硕士毕业，在美国已经生活了10年。我仅以这篇文章纪录并总结下这几年我的人生经历和向着一个单纯的梦想去努力拼搏的苦与乐。 我从小喜欢数学。小时候最的得意的瞬间莫过于每次上讲台领取“数学小博士”竞赛的奖状。那时候，我经常幻想着，什么时候小博士能成为一个大名鼎鼎的博士。于是，我在小学时代的问卷中，自信地写了数学家为以后的理想职业。我的老师勉励我，说：“有了梦想就要付出努力去实现它，加油”。现在看来，真是一语成谶了。<img src=\"http://www.liunar.net/articles/b955b7cd36bc302969b4b0d36fe7c2fd/b955b7cd36bc302969b4b0d36fe7c2fd-0.png\" />4岁左右第一次写阿拉伯数字带着这种单纯的思想，从本科到研究生一直修数学专业。学数学专业的人都有天赋，但是天赋是一枚药丸的糖衣而已，早晚会有甜头尽了的时候。在罗切斯特大学的学习期间，经历了无数个不眠之夜，无数次的从Gleason图书馆的打印机中“拿”A4打印纸，瞬间把它变成充满数字，奇怪符号，英文，希腊文甚至中文的一张天书。收拾垃圾的黑大叔看到这些纸直楞葱。记得在大二那年，2012年，我报上了两门研究生的数学课。我天真地以为在有基础的情况下花点时间就搞定了。事实上，揠苗助长只能让你拿到一个A，应付一下考试，对以后的学习生涯是没有裨益的。当时我愣是把艰辛的把这两块骨头啃了下来，同年9月，我得知我的一位近亲患上了胰腺癌 — 这是一种慢性折磨人的不治之症，存活率为0。当时医生说，只有两个月的时间。我很无助。远在万里之外的太平洋彼岸，唯一能做的就是每天电话问候家人，唯二能做的就是暂时放弃这个学期的学业，回家去陪伴亲人去度过最后的日子。从9月到11月，我做着这“唯一”的选择。每天当无助眼泪流干，调整情绪，继续拿起书本。那一年，我不仅见过早上四五点的太阳，每个星期都看到了日落到日出再日落，也看到了熙熙攘攘的人群从Gleason图书馆离去，再看到同一批人带着惺忪的睡眼回到各自的座位上接着忙活。最终我做出了“唯二”的决定，因为亲戚只有一个，学可以再上。这段时光很痛苦，能使我忘记痛苦的也只有数学了，沉浸在这个独特的氛围会把我带入另一个平行世界。这次罹难也使我成长了不少，但也严重的影响了我的成绩，给以后的申请造成了不便，但我不曾后悔我的决定。记得有一天，我妈曾经严肃地跟我说：“不要念数学的博士，不仅没有教职以外的工作，也不出成果。到时候人家都成家立业了，你却只能端着你的定理在街上吆喝。”我能理解这种质疑和偏见。因为我爸就是一位落魄的硕士，栽倒在拿博士的路途上。为了谋生，却不幸误入歧途，锒铛入狱，害了自己也害了全家。三口之家变成了二人世界。可我还是想试试前方的路。2014年，我来到了纽约大学继续读硕士。纽约大学出名的是库郎研究所的应用数学。我并不喜欢应用数学。理论数学和应用数学是两个分支，需要用不同的思维来应对。对于习惯于理论数学的人，我对应用数学提不起兴趣，所以在纽约我也没学应数。数学确实无处不在，但我认为，不是所有的东西都适合数学化的。或者说，某些东西数学化好比把三维的东西二维化：无论怎么钻研，它也不会是立体的图像。某些经济和金融所谓的应用数学是在很多良好的假设，ceteris paribus，和专门为求解而设计的方程式的题目，不太符合实际，而且也存在误差问题。换句话说，我只喜欢画等号，对于有误差的东西索然无味。在2015年的10月，又到了申请博士的时间，我找到了数学系的一名教授询问情况。这位教授对我说的话，我终生难忘：“你真的需要这个纯数学博士吗？根据近些年的数据每100个申请者中，只有1个会成功。每100个博士生，只有1个会成为教授。每100个教授中，只有1个会成为终生教授。成为终生教授才是数学家的出头之日，你不能看着别人买彩票中大奖了，你也去买吧？你自己也许受得了苦日子，你家人能接受吗？你到时候孩子一堆，老婆一堆，你自己没钱怎么办？人总归还是生活第一，业绩第二。如果你的纯数学博士不是在名校毕业，或者你的老师跟大牛们不熟，那么你很难在美国找到教职；因为找教职靠的都是关系，学生水平大部分都差不多的，行业里面没有公平。你能确定你以后一定能找到好的导师，一定能一帆风顺吗？如果你喜欢读博士、搞研究那你去申请应用数学吧，那个出去工作会很吃香。”虽然我对应用数学，以及建模毫无兴趣，而且也没有应用数学的基础，连 Matlab 都用的不熟，我还是申请了几所美国顶尖应用数学的博士。我一直在揣度，即使顶尖学校的offer，还去吗？这五年时间值得吗？见着家人日益老去，我已经是奔而立之年的人。美国数学博士生经常说这样的一句话：“一个聪明的人会去读博士的，但是一个更聪明且明智的人是不会去读博士的”。换句话说，当你有能力去拿博士学位的时候，你倘若将这份精力放在工作领域，会出人头地。那为什么这些人会做着一个聪明但是不明智的决定呢？每个人有不同的原因，但是我敢肯定，他们不后悔自己的决定。&nbsp;<img src=\"http://www.liunar.net/articles/b955b7cd36bc302969b4b0d36fe7c2fd/b955b7cd36bc302969b4b0d36fe7c2fd-1.png\" />因长年握笔中指落下了瘤子般的老茧，胼手胝足申请完后，这是我人生中最迷惘的一段时间。我不知道这个博士梦还能撑多久。终于，也不出所料，我没有被一所学校录取。理想的小船在无边无垠的大海上走投无路。海上本来没有路，过海的人多了也不会形成路；即使前人的船划过的地方风平浪静，我们划过去却可能波涛汹涌。航行了18年的小船说翻就翻，我突然发现，我根本不会游泳！我除了会求Galois群，求傅里叶级数，找基本群，寻找拓扑空间的同胚映射，求特征空间，还会写一些证明以外，什么都不会。这些技能虽然听着高大上，但在工作领域只是一些佶屈聱牙的动宾短语，并没有什么卵用。我已泪流成河。这些年为一个目标贡献了太多，却回报的太少。老舍先生的《茶馆》中，最正直也是最凄惨的常四爷说道：“我爱大清国，我怕它完了，我爱它谁他妈爱我啊？”此时此刻我也想说：“我爱数学，我怕数学梦完了，我爱它，数学他妈爱我吗？”数学他爸也不爱我。我觉得某些梦想是一种负担，因为追逐梦想的路上你丢弃了很多有同等价值的东西。当自己为天真的梦想付出执着的行动时，我却不知道其中的荒谬，其中的艰辛和其中的可行性。&nbsp;《麦田守望者》中有这样一段话：“我将来要当一名麦田里的守望者。有那么一群孩子在一大块麦田里玩。几千几万的小孩子，附近没有一个大人，我是说—除了我。我呢。就在那混帐的悬崖边。我的职务就是在那守望。要是有哪个孩子往悬崖边来，我就把他捉住—我是说孩子们都是在狂奔，也不知道自己是在往哪儿跑。我得从什么地方出来，把他们捉住。我整天就干这样的事，我只想做个麦田里的守望者。”霍顿（主人公）只是想当一个“麦田里的守望者”，守护那些单纯可爱的孩子们的思想，让它不被事物的阴暗面所吞噬。有些事情还是糊涂为好，弄清楚了会让你掉下悬崖，让你的Dream-ship翻掉。对于不幸人来说，当梦想的醴泉干涸，他只能在浑浊的河里挣扎，孤注一掷。的确，读博士(不仅限于数学）也不是死路一条，我认为，继续读博士当且仅当满足以下所有条件：（1）有运气：没错，这是从博士生到终生教授的决定性因素。你推荐信能否有力地打动录取官？你能不能遇到好的导师？你能不能选到好的课题？你拿到好的题目后能不能做出一个好结果？你的结果会不会被其他大牛们看中？未知数太多了，这一切都好比在扔一个有正无穷且不可数面数的骰子，盼望着能拿到1，这概率是多少？（2）有浓厚的兴趣：兴趣是唯一一个有力的后盾。你需要它而不是咖啡，帮你度过无眠之夜，需要它熬过一个个失败的结论，需要它完成冗长的著作：毕业论文。人们喜欢一样东西的理由都是很简单。我喜欢数学只是喜欢解完问题后给你带来的快感。（3）有良好的家庭：由于博士时间长，难度大，而且教职非常难找。所以，我认为，你需要一个父母不用为你担忧，而且父母不急着靠你养家糊口的家庭。每年春节我家人，凑齐了屈指可数，而且还是一只手可数，没有强大的家庭精神，经济支柱，我不敢去读博。（4）有不以己悲的心态：读博士需要宗教般的虔诚和长时间的耐力。这几年你可能会孤立无援，但短暂的茕茕孑立是为了换来以后的名扬四海；而踽踽独行却能走到车水马龙的街衢巷陌。当你的好友已经在事业上有所成就，买了房、买了车、有了家庭的时候，你要承受这种同辈压力并按捺住心中攀比的思想，这很难。（5*）有天赋：有位教授曾经说过：“其实从人一出生，就能看出来他是不是数学家。”的确，在小学到高中阶段的数学，任何人都可以靠个人的努力取得好成绩。而再往后，就要看天赋了，你需要比常人更敏捷的思维，更快更深理解力。注意，这一条我打上了星号，因为我知道数学博士是非常看天赋的。其他专业的博士，我不了解，但我相信前四条是必要的。我很敬佩那些能够坚持读博士的人，满足以上条件的人不多，甚至不满足的人也在顽强拼搏，创造奇迹。我只能站在山脚下祝福你们，希望你们早日攀上高峰。我曾经问过一位好友，篮球哥你现在每天都玩篮球，要是有一天你由于某种原因，永远打不了篮球了，你会失落吗。他说：“不会，因为总有打不了的那一天。”没错，很多事情不能坚持一辈子。有时候，放弃的意义大于苟延残喘地坚持；这正是所谓的退一步，海阔天空。梦想是需要靠现实撑起来的。最终，送给那些仍在追求自己的梦想的人一首诗，请你们牢牢记住最后两句：金樽清酒斗十千，玉盘珍羞直万钱。停杯投箸不能食，拔剑四顾心茫然。欲渡黄河冰塞川，将登太行雪满山。闲来垂钓碧溪上，忽复乘舟梦日边。行路难！行路难！多歧路，今安在？长风破浪会有时，直挂云帆济沧海。—— 李白《行路难 • 其一》行路难，人们在走自己喜欢的路的时候会走丢，但会找到适合自己的路。", 
        "pageurl": "http://mp.weixin.qq.com/s?src=3&timestamp=1472073545&ver=1&signature=zUTQUGR3YHx1ltF3j2BWrTI7Oscth*-2udheLGVrYXYY4-EiJQ8InfmMP1NA8hMh--jB9mMWm4p1GvO553RHA-hiEPJP*QGGo2caH4F9fALcx6rb*F-xw0Ch6R1amTNRzpIvfyUkep4kuFkY2LnJVlK6bBxz39Ncl9D7JDLR44Q=", 
        "create_time": "2016-08-24", 
        "description": "作者介绍：赴美留学生，今年理论数学硕士毕业，在美国已经生活了10年。我仅以这篇文章纪录并总结下这几年我的人生经历和向着一个单纯的梦想去努力拼搏的苦与乐", 
        "title": "有时，放弃的意义大于苟延残喘的坚持", 
        "textContent": "作者介绍：赴美留学生，今年理论数学硕士毕业，在美国已经生活了10年。我仅以这篇文章纪录并总结下这几年我的人生经历和向着一个单纯的梦想去努力拼搏的苦与乐。 我从小喜欢数学。小时候最的得意的瞬间莫过于每次上讲台领取“数学小博士”竞赛的奖状。那时候，我经常幻想着，什么时候小博士能成为一个大名鼎鼎的博士。于是，我在小学时代的问卷中，自信地写了数学家为以后的理想职业。我的老师勉励我，说：“有了梦想就要付出努力去实现它，加油”。现在看来，真是一语成谶了。4岁左右第一次写阿拉伯数字带着这种单纯的思想，从本科到研究生一直修数学专业。学数学专业的人都有天赋，但是天赋是一枚药丸的糖衣而已，早晚会有甜头尽了的时候。在罗切斯特大学的学习期间，经历了无数个不眠之夜，无数次的从Gleason图书馆的打印机中“拿”A4打印纸，瞬间把它变成充满数字，奇怪符号，英文，希腊文甚至中文的一张天书。收拾垃圾的黑大叔看到这些纸直楞葱。记得在大二那年，2012年，我报上了两门研究生的数学课。我天真地以为在有基础的情况下花点时间就搞定了。事实上，揠苗助长只能让你拿到一个A，应付一下考试，对以后的学习生涯是没有裨益的。当时我愣是把艰辛的把这两块骨头啃了下来，同年9月，我得知我的一位近亲患上了胰腺癌 — 这是一种慢性折磨人的不治之症，存活率为0。当时医生说，只有两个月的时间。我很无助。远在万里之外的太平洋彼岸，唯一能做的就是每天电话问候家人，唯二能做的就是暂时放弃这个学期的学业，回家去陪伴亲人去度过最后的日子。从9月到11月，我做着这“唯一”的选择。每天当无助眼泪流干，调整情绪，继续拿起书本。那一年，我不仅见过早上四五点的太阳，每个星期都看到了日落到日出再日落，也看到了熙熙攘攘的人群从Gleason图书馆离去，再看到同一批人带着惺忪的睡眼回到各自的座位上接着忙活。最终我做出了“唯二”的决定，因为亲戚只有一个，学可以再上。这段时光很痛苦，能使我忘记痛苦的也只有数学了，沉浸在这个独特的氛围会把我带入另一个平行世界。这次罹难也使我成长了不少，但也严重的影响了我的成绩，给以后的申请造成了不便，但我不曾后悔我的决定。记得有一天，我妈曾经严肃地跟我说：“不要念数学的博士，不仅没有教职以外的工作，也不出成果。到时候人家都成家立业了，你却只能端着你的定理在街上吆喝。”我能理解这种质疑和偏见。因为我爸就是一位落魄的硕士，栽倒在拿博士的路途上。为了谋生，却不幸误入歧途，锒铛入狱，害了自己也害了全家。三口之家变成了二人世界。可我还是想试试前方的路。2014年，我来到了纽约大学继续读硕士。纽约大学出名的是库郎研究所的应用数学。我并不喜欢应用数学。理论数学和应用数学是两个分支，需要用不同的思维来应对。对于习惯于理论数学的人，我对应用数学提不起兴趣，所以在纽约我也没学应数。数学确实无处不在，但我认为，不是所有的东西都适合数学化的。或者说，某些东西数学化好比把三维的东西二维化：无论怎么钻研，它也不会是立体的图像。某些经济和金融所谓的应用数学是在很多良好的假设，ceteris paribus，和专门为求解而设计的方程式的题目，不太符合实际，而且也存在误差问题。换句话说，我只喜欢画等号，对于有误差的东西索然无味。在2015年的10月，又到了申请博士的时间，我找到了数学系的一名教授询问情况。这位教授对我说的话，我终生难忘：“你真的需要这个纯数学博士吗？根据近些年的数据每100个申请者中，只有1个会成功。每100个博士生，只有1个会成为教授。每100个教授中，只有1个会成为终生教授。成为终生教授才是数学家的出头之日，你不能看着别人买彩票中大奖了，你也去买吧？你自己也许受得了苦日子，你家人能接受吗？你到时候孩子一堆，老婆一堆，你自己没钱怎么办？人总归还是生活第一，业绩第二。如果你的纯数学博士不是在名校毕业，或者你的老师跟大牛们不熟，那么你很难在美国找到教职；因为找教职靠的都是关系，学生水平大部分都差不多的，行业里面没有公平。你能确定你以后一定能找到好的导师，一定能一帆风顺吗？如果你喜欢读博士、搞研究那你去申请应用数学吧，那个出去工作会很吃香。”虽然我对应用数学，以及建模毫无兴趣，而且也没有应用数学的基础，连 Matlab 都用的不熟，我还是申请了几所美国顶尖应用数学的博士。我一直在揣度，即使顶尖学校的offer，还去吗？这五年时间值得吗？见着家人日益老去，我已经是奔而立之年的人。美国数学博士生经常说这样的一句话：“一个聪明的人会去读博士的，但是一个更聪明且明智的人是不会去读博士的”。换句话说，当你有能力去拿博士学位的时候，你倘若将这份精力放在工作领域，会出人头地。那为什么这些人会做着一个聪明但是不明智的决定呢？每个人有不同的原因，但是我敢肯定，他们不后悔自己的决定。&nbsp;因长年握笔中指落下了瘤子般的老茧，胼手胝足申请完后，这是我人生中最迷惘的一段时间。我不知道这个博士梦还能撑多久。终于，也不出所料，我没有被一所学校录取。理想的小船在无边无垠的大海上走投无路。海上本来没有路，过海的人多了也不会形成路；即使前人的船划过的地方风平浪静，我们划过去却可能波涛汹涌。航行了18年的小船说翻就翻，我突然发现，我根本不会游泳！我除了会求Galois群，求傅里叶级数，找基本群，寻找拓扑空间的同胚映射，求特征空间，还会写一些证明以外，什么都不会。这些技能虽然听着高大上，但在工作领域只是一些佶屈聱牙的动宾短语，并没有什么卵用。我已泪流成河。这些年为一个目标贡献了太多，却回报的太少。老舍先生的《茶馆》中，最正直也是最凄惨的常四爷说道：“我爱大清国，我怕它完了，我爱它谁他妈爱我啊？”此时此刻我也想说：“我爱数学，我怕数学梦完了，我爱它，数学他妈爱我吗？”数学他爸也不爱我。我觉得某些梦想是一种负担，因为追逐梦想的路上你丢弃了很多有同等价值的东西。当自己为天真的梦想付出执着的行动时，我却不知道其中的荒谬，其中的艰辛和其中的可行性。&nbsp;《麦田守望者》中有这样一段话：“我将来要当一名麦田里的守望者。有那么一群孩子在一大块麦田里玩。几千几万的小孩子，附近没有一个大人，我是说—除了我。我呢。就在那混帐的悬崖边。我的职务就是在那守望。要是有哪个孩子往悬崖边来，我就把他捉住—我是说孩子们都是在狂奔，也不知道自己是在往哪儿跑。我得从什么地方出来，把他们捉住。我整天就干这样的事，我只想做个麦田里的守望者。”霍顿（主人公）只是想当一个“麦田里的守望者”，守护那些单纯可爱的孩子们的思想，让它不被事物的阴暗面所吞噬。有些事情还是糊涂为好，弄清楚了会让你掉下悬崖，让你的Dream-ship翻掉。对于不幸人来说，当梦想的醴泉干涸，他只能在浑浊的河里挣扎，孤注一掷。的确，读博士(不仅限于数学）也不是死路一条，我认为，继续读博士当且仅当满足以下所有条件：（1）有运气：没错，这是从博士生到终生教授的决定性因素。你推荐信能否有力地打动录取官？你能不能遇到好的导师？你能不能选到好的课题？你拿到好的题目后能不能做出一个好结果？你的结果会不会被其他大牛们看中？未知数太多了，这一切都好比在扔一个有正无穷且不可数面数的骰子，盼望着能拿到1，这概率是多少？（2）有浓厚的兴趣：兴趣是唯一一个有力的后盾。你需要它而不是咖啡，帮你度过无眠之夜，需要它熬过一个个失败的结论，需要它完成冗长的著作：毕业论文。人们喜欢一样东西的理由都是很简单。我喜欢数学只是喜欢解完问题后给你带来的快感。（3）有良好的家庭：由于博士时间长，难度大，而且教职非常难找。所以，我认为，你需要一个父母不用为你担忧，而且父母不急着靠你养家糊口的家庭。每年春节我家人，凑齐了屈指可数，而且还是一只手可数，没有强大的家庭精神，经济支柱，我不敢去读博。（4）有不以己悲的心态：读博士需要宗教般的虔诚和长时间的耐力。这几年你可能会孤立无援，但短暂的茕茕孑立是为了换来以后的名扬四海；而踽踽独行却能走到车水马龙的街衢巷陌。当你的好友已经在事业上有所成就，买了房、买了车、有了家庭的时候，你要承受这种同辈压力并按捺住心中攀比的思想，这很难。（5*）有天赋：有位教授曾经说过：“其实从人一出生，就能看出来他是不是数学家。”的确，在小学到高中阶段的数学，任何人都可以靠个人的努力取得好成绩。而再往后，就要看天赋了，你需要比常人更敏捷的思维，更快更深理解力。注意，这一条我打上了星号，因为我知道数学博士是非常看天赋的。其他专业的博士，我不了解，但我相信前四条是必要的。我很敬佩那些能够坚持读博士的人，满足以上条件的人不多，甚至不满足的人也在顽强拼搏，创造奇迹。我只能站在山脚下祝福你们，希望你们早日攀上高峰。我曾经问过一位好友，篮球哥你现在每天都玩篮球，要是有一天你由于某种原因，永远打不了篮球了，你会失落吗。他说：“不会，因为总有打不了的那一天。”没错，很多事情不能坚持一辈子。有时候，放弃的意义大于苟延残喘地坚持；这正是所谓的退一步，海阔天空。梦想是需要靠现实撑起来的。最终，送给那些仍在追求自己的梦想的人一首诗，请你们牢牢记住最后两句：金樽清酒斗十千，玉盘珍羞直万钱。停杯投箸不能食，拔剑四顾心茫然。欲渡黄河冰塞川，将登太行雪满山。闲来垂钓碧溪上，忽复乘舟梦日边。行路难！行路难！多歧路，今安在？长风破浪会有时，直挂云帆济沧海。—— 李白《行路难 • 其一》行路难，人们在走自己喜欢的路的时候会走丢，但会找到适合自己的路。", 
        "thumbnail": "/articles/b955b7cd36bc302969b4b0d36fe7c2fd/b955b7cd36bc302969b4b0d36fe7c2fd-0.png", 
        "source": "奴隶社会"
    }, 
    {
        "category": "留学申请", 
        "content": "时下,去加拿大留学的学生越来越多,其中申请加拿大本科留学的学生人数增长迅速,竞争也愈加激烈。加拿大本科留学是许多学生选择的主要留加途径，在申请前大家是否对加拿大本科留学的条件和途径了解透彻呢，涨姿势的时刻到了~</p>加拿大本科留学申请途径1预科+本科：对于高二、高三在读生、高中应届毕业生，如希望入读加拿大最优秀的大学但不想参加高考或高考成绩不理想，可以考虑申请到加拿大读中学或者预科。因为加拿大部分名校除了很高的英语成绩外，还要求学生提供优秀的高考成绩，而高中生课业繁重，没有充足时间和充分把握同时拿到英语及高考的高分。因此到加拿大完成高中并获得加拿大高中毕业文凭后再申请大学本科不失为一个很好的方法，这样不仅无需提供中国的高考成绩，大学的英语入学要求也会相应降低。</p>2语言+本科：对于成绩优秀的高中毕业生和大学在读生如无合格的托福雅思成绩，可以通过申请“语言 专业”双录取直接入读部分加拿大名校。这些学校审核确定学生申请条件后，会给学生同时发出两份录取通知：一份是该校或者该校指定的语言中心录取通知书，另一份是该校某专业录取通知书。学生入学之后，先进入语言中心学习英语，一旦通过了该语言中心的本身的测试，可以直接进入大学学习专业课，而无需考托福或雅思。</p>3专科+本科：对于成绩一般的高中、中专、职高及大专生，建议可以考虑先申请加拿大公立学院。由于名校直接申请要求高，而且大班授课，淘汰率高，而学院课程设置灵活实用，小班授课，并与众多名校签订了学分互转协议，学生在完成至少一年学习后，如果成绩达到大学的相关要求，则可以申请进入大学相关专业继续就读，毕业后可获得该大学学士学位。<p>加拿大本科留学的基本条件<p>1、最高学历期间的成绩单，以及学位、学历证书和资格证明。</p>2、身份健康、品行优良。也就是需要提供的无犯罪纪录公正证明。</p>3、足够的费用。留学生必须有可靠的经济来源，以及足够的经济担保。凡由亲友提供资助者，必须提供担保人有能力提供资助的公证书，资助金额需银行证明;由单位或国家负责资助者，需提供相关证明;获加拿大奖学金者需提供奖学金提供单位的证明。</p>4、英语、法语水平(申请语言学系者无需提供)。<p>另附加拿大本科及研究生留学的申请条件<p>加拿大本科申请条件硬件条件：学术成绩（如高中成绩、高考成绩、会考成绩平均85%以上，88%以上有竞争力）</p>语言成绩：雅思6.5，单项不低于6.0或者托福86，单项不低于22</p>经济担保：60万元</p>入学考试：提供SAT成绩，部分学校接受ACT成绩</p>文书资料：个人陈述、推荐信、个人简历和Essay</p>加拿大研究生申请条件硬件条件：大学成绩GPA、TOEFL/IELTS、GMAT/GRE成绩、学位证书等（托福一般至少要90分以上，IELTS一般至少要在6.5分以上。GRE只有部分学校的理工科专业需要，GMAT一般针对申请MBA/专业会计硕士/金融硕士的学生需要）</p>语言成绩：IELTS的成绩在6.5—7.0分，听说读写各部分都不得低于6.0分；雅思6.5，单项不低于6.0或者托福90分以上，单项不低于22；GRE只有部分学校的理工科专业需要，1300分以上；GMAT一般针对申请MBA/专业会计硕士/金融硕士的学生需要，不低于550分。</p>", 
        "pageurl": "http://mp.weixin.qq.com/s?src=3&timestamp=1472073543&ver=1&signature=c0pOng5NIAb9ei8DUnJk*pUXRrOAXs4rziWRDqDovQ7btfOMg6AYqt1pAjEvytGRQxrCiB9b*DpbFVFdzPVflbsTw*IHEiATAhZ4Zg5iyWVt7aqpqyMSWxY6S7M098fclRn61uYfpKYym8OVzzBAMsPXMGkmsxSGJzMmbEVrx50=", 
        "create_time": "2016-08-24", 
        "description": "　　　　时下,去加拿大留学的学生越来越多,其中申请加拿大本科留学的学生人数增长迅速,竞争也愈加激烈", 
        "title": "2017年加拿大留学本科申请策略", 
        "textContent": "　　　　时下,去加拿大留学的学生越来越多,其中申请加拿大本科留学的学生人数增长迅速,竞争也愈加激烈。加拿大本科留学是许多学生选择的主要留加途径，在申请前大家是否对加拿大本科留学的条件和途径了解透彻呢，涨姿势的时刻到了~加拿大本科留学申请途径1预科+本科：对于高二、高三在读生、高中应届毕业生，如希望入读加拿大最优秀的大学但不想参加高考或高考成绩不理想，可以考虑申请到加拿大读中学或者预科。因为加拿大部分名校除了很高的英语成绩外，还要求学生提供优秀的高考成绩，而高中生课业繁重，没有充足时间和充分把握同时拿到英语及高考的高分。因此到加拿大完成高中并获得加拿大高中毕业文凭后再申请大学本科不失为一个很好的方法，这样不仅无需提供中国的高考成绩，大学的英语入学要求也会相应降低。2语言+本科：对于成绩优秀的高中毕业生和大学在读生如无合格的托福雅思成绩，可以通过申请“语言 专业”双录取直接入读部分加拿大名校。这些学校审核确定学生申请条件后，会给学生同时发出两份录取通知：一份是该校或者该校指定的语言中心录取通知书，另一份是该校某专业录取通知书。学生入学之后，先进入语言中心学习英语，一旦通过了该语言中心的本身的测试，可以直接进入大学学习专业课，而无需考托福或雅思。3专科+本科：对于成绩一般的高中、中专、职高及大专生，建议可以考虑先申请加拿大公立学院。由于名校直接申请要求高，而且大班授课，淘汰率高，而学院课程设置灵活实用，小班授课，并与众多名校签订了学分互转协议，学生在完成至少一年学习后，如果成绩达到大学的相关要求，则可以申请进入大学相关专业继续就读，毕业后可获得该大学学士学位。加拿大本科留学的基本条件1、最高学历期间的成绩单，以及学位、学历证书和资格证明。2、身份健康、品行优良。也就是需要提供的无犯罪纪录公正证明。3、足够的费用。留学生必须有可靠的经济来源，以及足够的经济担保。凡由亲友提供资助者，必须提供担保人有能力提供资助的公证书，资助金额需银行证明;由单位或国家负责资助者，需提供相关证明;获加拿大奖学金者需提供奖学金提供单位的证明。4、英语、法语水平(申请语言学系者无需提供)。另附加拿大本科及研究生留学的申请条件加拿大本科申请条件硬件条件：学术成绩（如高中成绩、高考成绩、会考成绩平均85%以上，88%以上有竞争力）语言成绩：雅思6.5，单项不低于6.0或者托福86，单项不低于22经济担保：60万元入学考试：提供SAT成绩，部分学校接受ACT成绩文书资料：个人陈述、推荐信、个人简历和Essay加拿大研究生申请条件硬件条件：大学成绩GPA、TOEFL/IELTS、GMAT/GRE成绩、学位证书等（托福一般至少要90分以上，IELTS一般至少要在6.5分以上。GRE只有部分学校的理工科专业需要，GMAT一般针对申请MBA/专业会计硕士/金融硕士的学生需要）语言成绩：IELTS的成绩在6.5—7.0分，听说读写各部分都不得低于6.0分；雅思6.5，单项不低于6.0或者托福90分以上，单项不低于22；GRE只有部分学校的理工科专业需要，1300分以上；GMAT一般针对申请MBA/专业会计硕士/金融硕士的学生需要，不低于550分。", 
        "thumbnail": "", 
        "source": "北京新东方雅思"
    }, 
    {
        "category": "留学申请", 
        "content": "<img src=\"http://www.liunar.net/articles/0ac30977b61a62c3f408a14bfe8f808b/0ac30977b61a62c3f408a14bfe8f808b-1.jpeg\" />随着国内的中产阶级群体日益庞大，海外留学早已成为稀松平常的事情，且逐渐显现出低龄化的趋势。在这样的背景下，面向青少年开展的海外游学（Yoosure）项目逐渐走红，成为许多家长为孩子制定的假期计划之一。那么，海外游学究竟具有怎样的独特魅力，能够赢得众多家长的青睐呢？今天，小编就为您全方位地介绍一下海外游学！什么是海外游学？海外游学（Yoosure）既非单纯的旅游，也非单纯的留学，而是结合两者的优势后形成的新型教育体验。它以寓教于乐为目标，在增加青少年海外经历的同时使其收获丰富的知识，较之纯粹的旅游购物更富教育意义，较之传统的留学生活更具有趣味性，有留学打算的中学生也可以提前体验和感受国外的留学生活。目前，国内的海外游学项目以国际夏令营或冬令营为主，中小学生在组织者的带领下参加巧妙设计的各类素质拓展课程，并在闲暇时间游览当地的风景名胜。<img src=\"http://www.liunar.net/articles/0ac30977b61a62c3f408a14bfe8f808b/0ac30977b61a62c3f408a14bfe8f808b-3.jpeg\" />为什么参加海外游学？对于很多家长而言，海外游学的最大魅力在于为孩子提供一个认识世界的机会。在应试教育下，中国学生的知识来源以课堂书本为主，刻板的教育方式让很多学生对学习丧失兴趣。海外游学则为学生提供了一个相对轻松的学习环境，学生可以在亲身体验的基础上积累大量鲜活的知识。这种欢乐的气氛有助于激发孩子的学习兴趣，使其由被动的学习者转变为主动的学习者。&nbsp;<img src=\"http://www.liunar.net/articles/0ac30977b61a62c3f408a14bfe8f808b/0ac30977b61a62c3f408a14bfe8f808b-4.jpeg\" />外语学习便是这种正面效应的典型代表，学生在海外游学中置身于原生的语言环境内，可以更好地锻炼自身的外语听说能力。如果学生的外语水平足够优秀，与外国人的良好沟通可以让其收获信心；如果学生的外语水平相对较差，口音和语法问题将在这一过程中逐渐修正。<img src=\"http://www.liunar.net/articles/0ac30977b61a62c3f408a14bfe8f808b/0ac30977b61a62c3f408a14bfe8f808b-5.jpeg\" />海外游学经历将成为学生宝贵的人生财富，对其日后的发展道路产生重要影响。游学目的地以美加英澳洲等发达国家为主，学生可以在此体验其独特的人文环境，比较国内外不同文化和整体环境的差异，逐渐培养起国际视野。古谚云：“读万卷书不如行万里路”，异域文明的感受将增强学生对文化多样性的认知，丰富的海外经历有助于激发学生探索世界的雄心壮志。海外游学都游些什么？游学活动的内容不仅包括游览当地的标志性景观和博物馆，艺术馆等，还包含拜访当地的世界级名校和深入的参与各类兴趣活动。很多家长希望顶级学府的优雅环境和学习氛围能够激励自己的孩子奋发图强，力争成为其中的一员。此外，学生可以在海外游学的过程中发现适合自己的爱好兴趣，如摄影、艺术创作、戏剧表演、体育项目等等，及早确定未来努力奋斗的方向，对未来自己的人生规划打好基础。<img src=\"http://www.liunar.net/articles/0ac30977b61a62c3f408a14bfe8f808b/0ac30977b61a62c3f408a14bfe8f808b-6.jpeg\" />在海外游学的过程中，学生将与外国学生或寄宿家庭进行积极的互动，在收获珍贵友谊的同时近距离地体验不同的生活方式。也许你会邂逅一种欲罢不能的美食，也许你会参加一项趣味十足的体育运动，也许你会了解一种匪夷所思的习俗……这就是海外游学的独特魅力，它让你从固有的生活中跳脱出来，打破固有思维的束缚，拥抱更广阔的生活。此外，在国外生活中将会遇到各种各样的问题，都将由学生自己思考解决方法，这对于习惯于依赖家长的中国学生而言是一种难得的历练。<img src=\"http://www.liunar.net/articles/0ac30977b61a62c3f408a14bfe8f808b/0ac30977b61a62c3f408a14bfe8f808b-7.jpeg\" />加拿大为何成为海外游学圣地？独特的北美文化与摩登的现代都市相衔接，优质的教育资源与靓丽的风景山水相结合，加拿大逐渐成为中国学生进行海外游学的热门地点之一。在这里，他们可以感受麦吉尔大学（McGill University）的百年沧桑，寻访多伦多大学（University of Toronto）的浪漫优雅。或许校园中的一次驻足便结下了不解情缘，暮色中的一次回首便埋下了希望之种。<img src=\"http://www.liunar.net/articles/0ac30977b61a62c3f408a14bfe8f808b/0ac30977b61a62c3f408a14bfe8f808b-8.jpeg\" />在海外游学的过程中，法式风情浓厚的魁北克省让许多中学生印象深刻，他们很快被其浓厚的艺术文化氛围、浪漫的设计之都的气质、古色古香的欧式建筑和美轮美奂的自然风光所深深吸引，从而对留学和移民加拿大产生了浓厚兴趣。<img src=\"http://www.liunar.net/articles/0ac30977b61a62c3f408a14bfe8f808b/0ac30977b61a62c3f408a14bfe8f808b-9.jpeg\" />因此，许多中学生和家长们开始关注魁北克省经验移民项目（PEQ），尤其是对其中低成本移民快的职业技术移民项目产生好奇。或许他们在国内对这个项目早已有所听闻，但通过身临其境地考察项目的学习环境和就业前景之后，对他们的震撼更大，其完备的培养计划和良好的移民及发展前景令学生们心动。如果你也对PEQ感兴趣，不妨趁假期来加拿大实地游学考察一番，相信你绝对会收获非凡的体验！", 
        "pageurl": "http://mp.weixin.qq.com/s?src=3&timestamp=1472073543&ver=1&signature=6OSlkua1nbxtMwh4bh4KCZsG94S2Xc4JNNfNZcx5evoloI5XSeyJdguWr7ht3Yfqg8d2Om1MjtNSdz6ADUOBjOabWnuSLvZyx8bgxyzBAWUdBTBWRtlNxOGfBJbXtS-ivqbVae1YBLrKkczFDgJ0e*zwmfhqtTlHnbNqTyLbbOw=", 
        "create_time": "2016-08-24", 
        "description": "海外游学日渐火爆随着国内的中产阶级群体日益庞大，海外留学早已成为稀松平常的事情，且逐渐显现出低龄化的趋势", 
        "title": "什么，还没听过海外游学？那你已经OUT了！", 
        "textContent": "海外游学日渐火爆随着国内的中产阶级群体日益庞大，海外留学早已成为稀松平常的事情，且逐渐显现出低龄化的趋势。在这样的背景下，面向青少年开展的海外游学（Yoosure）项目逐渐走红，成为许多家长为孩子制定的假期计划之一。那么，海外游学究竟具有怎样的独特魅力，能够赢得众多家长的青睐呢？今天，小编就为您全方位地介绍一下海外游学！什么是海外游学？海外游学（Yoosure）既非单纯的旅游，也非单纯的留学，而是结合两者的优势后形成的新型教育体验。它以寓教于乐为目标，在增加青少年海外经历的同时使其收获丰富的知识，较之纯粹的旅游购物更富教育意义，较之传统的留学生活更具有趣味性，有留学打算的中学生也可以提前体验和感受国外的留学生活。目前，国内的海外游学项目以国际夏令营或冬令营为主，中小学生在组织者的带领下参加巧妙设计的各类素质拓展课程，并在闲暇时间游览当地的风景名胜。为什么参加海外游学？对于很多家长而言，海外游学的最大魅力在于为孩子提供一个认识世界的机会。在应试教育下，中国学生的知识来源以课堂书本为主，刻板的教育方式让很多学生对学习丧失兴趣。海外游学则为学生提供了一个相对轻松的学习环境，学生可以在亲身体验的基础上积累大量鲜活的知识。这种欢乐的气氛有助于激发孩子的学习兴趣，使其由被动的学习者转变为主动的学习者。&nbsp;外语学习便是这种正面效应的典型代表，学生在海外游学中置身于原生的语言环境内，可以更好地锻炼自身的外语听说能力。如果学生的外语水平足够优秀，与外国人的良好沟通可以让其收获信心；如果学生的外语水平相对较差，口音和语法问题将在这一过程中逐渐修正。海外游学经历将成为学生宝贵的人生财富，对其日后的发展道路产生重要影响。游学目的地以美加英澳洲等发达国家为主，学生可以在此体验其独特的人文环境，比较国内外不同文化和整体环境的差异，逐渐培养起国际视野。古谚云：“读万卷书不如行万里路”，异域文明的感受将增强学生对文化多样性的认知，丰富的海外经历有助于激发学生探索世界的雄心壮志。海外游学都游些什么？游学活动的内容不仅包括游览当地的标志性景观和博物馆，艺术馆等，还包含拜访当地的世界级名校和深入的参与各类兴趣活动。很多家长希望顶级学府的优雅环境和学习氛围能够激励自己的孩子奋发图强，力争成为其中的一员。此外，学生可以在海外游学的过程中发现适合自己的爱好兴趣，如摄影、艺术创作、戏剧表演、体育项目等等，及早确定未来努力奋斗的方向，对未来自己的人生规划打好基础。在海外游学的过程中，学生将与外国学生或寄宿家庭进行积极的互动，在收获珍贵友谊的同时近距离地体验不同的生活方式。也许你会邂逅一种欲罢不能的美食，也许你会参加一项趣味十足的体育运动，也许你会了解一种匪夷所思的习俗……这就是海外游学的独特魅力，它让你从固有的生活中跳脱出来，打破固有思维的束缚，拥抱更广阔的生活。此外，在国外生活中将会遇到各种各样的问题，都将由学生自己思考解决方法，这对于习惯于依赖家长的中国学生而言是一种难得的历练。加拿大为何成为海外游学圣地？独特的北美文化与摩登的现代都市相衔接，优质的教育资源与靓丽的风景山水相结合，加拿大逐渐成为中国学生进行海外游学的热门地点之一。在这里，他们可以感受麦吉尔大学（McGill University）的百年沧桑，寻访多伦多大学（University of Toronto）的浪漫优雅。或许校园中的一次驻足便结下了不解情缘，暮色中的一次回首便埋下了希望之种。在海外游学的过程中，法式风情浓厚的魁北克省让许多中学生印象深刻，他们很快被其浓厚的艺术文化氛围、浪漫的设计之都的气质、古色古香的欧式建筑和美轮美奂的自然风光所深深吸引，从而对留学和移民加拿大产生了浓厚兴趣。因此，许多中学生和家长们开始关注魁北克省经验移民项目（PEQ），尤其是对其中低成本移民快的职业技术移民项目产生好奇。或许他们在国内对这个项目早已有所听闻，但通过身临其境地考察项目的学习环境和就业前景之后，对他们的震撼更大，其完备的培养计划和良好的移民及发展前景令学生们心动。如果你也对PEQ感兴趣，不妨趁假期来加拿大实地游学考察一番，相信你绝对会收获非凡的体验！", 
        "thumbnail": "/articles/0ac30977b61a62c3f408a14bfe8f808b/0ac30977b61a62c3f408a14bfe8f808b-1.jpeg", 
        "source": "天下家"
    }, 
    {
        "category": "留学申请", 
        "content": "美国加拿大还是全世界最富有的国家吗？很显然在亚洲国家飞速发展的当下，这些原本的“发达国家”实力已经大不如前。近日，财富研究机构新世界财富（New World Wealth）发布了一份最新报告，让我们一起来看一看当今世界最富有的国家到底是哪些。加拿大乐活网（lahoo.ca）了解到，新世界财富的国家财富排名基于去年个人持有资产的总值。美国依旧稳居榜首，不过第二位可不是美国的小弟加拿大，也不是日不落的英国，而是发展速度甩全世界好几条街的中国！在过去5年中，中国一直是全世界发展最迅速的国家。<img src=\"http://www.liunar.net/articles/cd10aef38513d9b078c90307cec1f491/cd10aef38513d9b078c90307cec1f491-5.jpeg\" />美国个人持自有资产总值为$48.9万亿美元，中国为$17.4万亿美元。日本紧随其后，排名第三，个人持有资产总值为$15.1万亿美元。排名第4位的是英国，$9.2万亿美元。接下俩室德国（$9.1万亿美元）和法国（$6.6万亿美元）。而加拿大虽然也在全世界前十之列，但富有度还不及印度。在这次的排名中，印度是全世界第7富有的国家，个人持有资产总值为$5.6万亿美元。加拿大排名全球第8,（$4.7万亿美元）。第9和第10名分别是澳大利亚（$4.5万亿美元）和意大利（$4.4万亿美元）。加拿大乐活网（lahoo.ca）获悉，计算到个人持有资产总值的资产包括地产、现金、股票、商业股份等资产，但不包括政府资金。所以在计算总值时，人口数量也是很重要的考虑因素。加拿大地广人稀，就算有钱人再多也还是有些吃亏。印度能够超过加拿大，八成也是因为人口原因。<img src=\"http://www.liunar.net/articles/cd10aef38513d9b078c90307cec1f491/cd10aef38513d9b078c90307cec1f491-6.jpeg\" />这样看来，澳大利亚以其2200万人的人口能够排到全球第9位就是非常引人瞩目的了。而亚洲国家上榜前十的占到了3个，也比几年前有了很大进步。意大利在一年前还可以排到第7位，但在过去的12个月中被印度、加拿大、澳大利亚反超，现在只刚刚进入全球前十。如果再看人均财富排名，欧洲国家就远远甩开了亚洲国家。摩纳哥作为避税天堂排名全球第一，人均财富达到$160万美元。排名第二的国家也是避税的好地方，列支敦士登（人均$61万美元）。而人均方面，加拿大和中国都没有上榜。全球前十只有一个亚洲国家，新加坡排名第7，人均财富$15.7万美元。出品：加拿大头条微信ID：Canadanews来源：加拿大乐活网（lahoo.ca）", 
        "pageurl": "http://mp.weixin.qq.com/s?src=3&timestamp=1472073542&ver=1&signature=cO*nA-zWnivdS1TR6qQqcLfxf7VYEy0L9x8fsazay8YYAyBDGI*rvoCPm2p8FXb6SkuhY*lgz-3A6tPtbd3bLiGCqIaoWZFDksWnUoGiuuzqnw4s4SyhIShhdcZaEJj7asT0TsyGmMQnCV-pWNQS1B4NA5XO98sz84uVTiLP2ag=", 
        "create_time": "2016-08-25", 
        "description": "美国加拿大还是全世界最富有的国家吗？很显然在亚洲国家飞速发展的当下，这些原本的“发达国家”实力已经大不如前", 
        "title": "数据|世界各国财富排名出炉，加拿大不及印度？！", 
        "textContent": "美国加拿大还是全世界最富有的国家吗？很显然在亚洲国家飞速发展的当下，这些原本的“发达国家”实力已经大不如前。近日，财富研究机构新世界财富（New World Wealth）发布了一份最新报告，让我们一起来看一看当今世界最富有的国家到底是哪些。加拿大乐活网（lahoo.ca）了解到，新世界财富的国家财富排名基于去年个人持有资产的总值。美国依旧稳居榜首，不过第二位可不是美国的小弟加拿大，也不是日不落的英国，而是发展速度甩全世界好几条街的中国！在过去5年中，中国一直是全世界发展最迅速的国家。美国个人持自有资产总值为$48.9万亿美元，中国为$17.4万亿美元。日本紧随其后，排名第三，个人持有资产总值为$15.1万亿美元。排名第4位的是英国，$9.2万亿美元。接下俩室德国（$9.1万亿美元）和法国（$6.6万亿美元）。而加拿大虽然也在全世界前十之列，但富有度还不及印度。在这次的排名中，印度是全世界第7富有的国家，个人持有资产总值为$5.6万亿美元。加拿大排名全球第8,（$4.7万亿美元）。第9和第10名分别是澳大利亚（$4.5万亿美元）和意大利（$4.4万亿美元）。加拿大乐活网（lahoo.ca）获悉，计算到个人持有资产总值的资产包括地产、现金、股票、商业股份等资产，但不包括政府资金。所以在计算总值时，人口数量也是很重要的考虑因素。加拿大地广人稀，就算有钱人再多也还是有些吃亏。印度能够超过加拿大，八成也是因为人口原因。这样看来，澳大利亚以其2200万人的人口能够排到全球第9位就是非常引人瞩目的了。而亚洲国家上榜前十的占到了3个，也比几年前有了很大进步。意大利在一年前还可以排到第7位，但在过去的12个月中被印度、加拿大、澳大利亚反超，现在只刚刚进入全球前十。如果再看人均财富排名，欧洲国家就远远甩开了亚洲国家。摩纳哥作为避税天堂排名全球第一，人均财富达到$160万美元。排名第二的国家也是避税的好地方，列支敦士登（人均$61万美元）。而人均方面，加拿大和中国都没有上榜。全球前十只有一个亚洲国家，新加坡排名第7，人均财富$15.7万美元。出品：加拿大头条微信ID：Canadanews来源：加拿大乐活网（lahoo.ca）", 
        "thumbnail": "/articles/cd10aef38513d9b078c90307cec1f491/cd10aef38513d9b078c90307cec1f491-5.jpeg", 
        "source": "加拿大头条"
    }, 
    {
        "category": "留学申请", 
        "content": "　　加拿大秀丽的风光、宽松的移民政策、高水准的教育，吸引着越来越多中国学生申请留学。门槛较高，申请签证，是每位学生出国留学的重要环节。由于加拿大审理严格，签证成功率没有其他以教育为产业的国家容易，加拿大签证申请过程中，需要递交复杂的申请材料，在这些复杂的材料中，掌握申请的技巧，可以帮助自己顺利获得签证。<p>首先，加拿大签证官通对以下叁个方面的申请者往往予以拒签：　　1、缺少可靠的经济能力或资金来源支持申请人在加拿大学习及生活，银行存款的可信性。　　2、申请者不能使人相信学成后将会回国或离开加拿大，签证官质疑其留学的真正意向。　　3、所递交的材料不实，包含错误或误导的信息。　　其次，在了解了加拿大签证官给予拒签的前提之后，我们来详细说一下签证官对于签证材料的审核重点所在：　　1、申请者留学的动机　　虽然加拿大是一个移民大国，欢迎各个年龄阶段的学生移民加拿大，但是签证官不会对有移民倾向的学生办理签证。　　因此，申请加拿大留学签证，要有合理的留学规划，阐述自己出国留学的真实塬因及毕业之后的工作计划，提供足够证据表明自己返回祖国的积极性而且绝无滞留加拿大的企图，打消签证官对于申请人是否会成为非法移民的疑虑，这样才会对签证申请有帮助。　　2、留学的塬因　　申请者需要有足够的理由，证明自己为什么要赴加拿大留学，而不是在国内继续学习。对自己将来的学业，做一个整体的规划。　　3、留学资金足够　　为了保证留学生有足够的经济能力，支付留学期间的所有费用，加拿大使馆，对留学生的家庭经济能力有了更严格的审核，申请人必需出具与父母或经济担保人收入相符合的资金证明，另外，须提供银行存款的12个月历史记录，以免出现作假现象，到加拿大非法打工而给加拿大政府带来任何的负担和麻烦。　　以上这些是在申请加拿大签证之前必须注意的地方，掌握好上述几个签证要点，顺利获得加国签证将不再遥远!", 
        "pageurl": "http://mp.weixin.qq.com/s?src=3&timestamp=1472073539&ver=1&signature=JgWsd-QOMhi*qUPkCr-njWvxrdIl4iBmRIj9ASWvpXpTZJ1WovYgBWe06M0DrgiPw5dYO7xzdvdhkxEHaHKUV0W3KaUorK8KjpiDJUvlkEHJja64G3ZW785ZfnZSQJVzjTUsW33GFnbodkq*ov0egjyA87QjNz5-XALXOHMhRVY=", 
        "create_time": "2016-08-24", 
        "description": "　　加拿大秀丽的风光、宽松的移民政策、高水准的教育，吸引着越来越多中国学生申请留学", 
        "title": "如何提高加拿大留学签证的获签率", 
        "textContent": "　　加拿大秀丽的风光、宽松的移民政策、高水准的教育，吸引着越来越多中国学生申请留学。门槛较高，申请签证，是每位学生出国留学的重要环节。由于加拿大审理严格，签证成功率没有其他以教育为产业的国家容易，加拿大签证申请过程中，需要递交复杂的申请材料，在这些复杂的材料中，掌握申请的技巧，可以帮助自己顺利获得签证。首先，加拿大签证官通对以下叁个方面的申请者往往予以拒签：　　1、缺少可靠的经济能力或资金来源支持申请人在加拿大学习及生活，银行存款的可信性。　　2、申请者不能使人相信学成后将会回国或离开加拿大，签证官质疑其留学的真正意向。　　3、所递交的材料不实，包含错误或误导的信息。　　其次，在了解了加拿大签证官给予拒签的前提之后，我们来详细说一下签证官对于签证材料的审核重点所在：　　1、申请者留学的动机　　虽然加拿大是一个移民大国，欢迎各个年龄阶段的学生移民加拿大，但是签证官不会对有移民倾向的学生办理签证。　　因此，申请加拿大留学签证，要有合理的留学规划，阐述自己出国留学的真实塬因及毕业之后的工作计划，提供足够证据表明自己返回祖国的积极性而且绝无滞留加拿大的企图，打消签证官对于申请人是否会成为非法移民的疑虑，这样才会对签证申请有帮助。　　2、留学的塬因　　申请者需要有足够的理由，证明自己为什么要赴加拿大留学，而不是在国内继续学习。对自己将来的学业，做一个整体的规划。　　3、留学资金足够　　为了保证留学生有足够的经济能力，支付留学期间的所有费用，加拿大使馆，对留学生的家庭经济能力有了更严格的审核，申请人必需出具与父母或经济担保人收入相符合的资金证明，另外，须提供银行存款的12个月历史记录，以免出现作假现象，到加拿大非法打工而给加拿大政府带来任何的负担和麻烦。　　以上这些是在申请加拿大签证之前必须注意的地方，掌握好上述几个签证要点，顺利获得加国签证将不再遥远!", 
        "thumbnail": "", 
        "source": "优途加拿大留学网"
    }
]