[
    {
        "category": "职业移民", 
        "content": "今日温房网新上市卖房： 394&nbsp;套 昨日温房网浏览买家：6272&nbsp;人 置业温哥华，无非是想要得到投资收益，那么租金回报和资本增值到底孰轻孰重？本文专治“房产选择综合症”...<p>在温哥华投资买房做房东，大家直接想到的就是收租金，而在国内有买房投资经验的可能对资本增值更熟悉，不过在温哥华如何合理运用这两种投资方式还是有一点讲究的。<p>什么是租金回报？<p><img src=\"http://www.liunar.net/articles/c316a9326631a93e7ae84c2e4631a934/c316a9326631a93e7ae84c2e4631a934-2.jpeg\" />租金回报就是将购买的房屋出租获取租金收益，也就是常说的“以租养房”。<p>想要具体衡量租金回报的投资收益情况就需要了解租金回报率 — Rental Yield，也称 Return on Investment（ROI），它的计算方法是：（房屋月租金－房屋月供）× 12 /（房屋首付+房屋贷款），算出的比值越大，就表明越值得投资。<p><img src=\"http://www.liunar.net/articles/c316a9326631a93e7ae84c2e4631a934/c316a9326631a93e7ae84c2e4631a934-3.jpeg\" />7 - 10%左右通常被视为高回报率，然而对于高资本增长房产（独立屋），租金回报率一般在2 - 4%之间。<p>租金回报率较高的房产通常是公寓类型的投资性房地产，因为租金收入大幅高于成本总和，这意味着房屋在产生现金储备，这些现金储备可用于偿还房屋贷款。<p>租金回报的优点<p><img src=\"http://www.liunar.net/articles/c316a9326631a93e7ae84c2e4631a934/c316a9326631a93e7ae84c2e4631a934-4.jpeg\" />投资风险较低，能产生现金流，从而帮助保护投资者免受利率冲击，同时减少持续现金投入的潜在需求。<p>租金回报的缺点<p>在房产出售时，资本增值收益很可能会比拥有强劲资本增长的房产（独立屋）低，特别是将房屋年复合增值率的影响考虑在内。<p>什么是资本增值？<p><img src=\"http://www.liunar.net/articles/c316a9326631a93e7ae84c2e4631a934/c316a9326631a93e7ae84c2e4631a934-6.jpeg\" />资本增值就是将现有房产的市场价值减掉当初购买房产时的市场价格，所赚取的利润，此利润也叫已实现的资本利得，英文是 Capital Gain 或者 Capital Growth。资本增值的收益大部分都是通过购买独立屋实现。<p><img src=\"http://www.liunar.net/articles/c316a9326631a93e7ae84c2e4631a934/c316a9326631a93e7ae84c2e4631a934-7.jpeg\" />在考虑购买资本增值的房屋时，获得可观的资本增长是每个投资者的目的，从长期来看，要把把强劲的资本年增长率定义为通货膨胀率加上4% - 5%，因此考虑的资本增值率应保持在6.5 - 7.5%之间。<p>举个例子：<p>$100万的房子，5年内价格上涨$10万， 它的年升值率是：<p>(100000/5) / 1000000 * 100%=2%，这栋房屋就不是一个好的投资。<p>另外一栋$285万的房子，五年内价格上涨$100万，它的年升值率是：(1000000/5) / 2850000 * 100%=7%，这栋房屋就是一个好的投资。<p>资本增值的优点<p>优点显而易见，具有产生长期资本收益的潜能。<p><img src=\"http://www.liunar.net/articles/c316a9326631a93e7ae84c2e4631a934/c316a9326631a93e7ae84c2e4631a934-8.jpeg\" />资本增值的缺点<p>在持有该类投资性房地产期间需面临利率风险，如果按揭利率上调，你很可能要向房贷月供贴钱。<p>资本增值 vs 租金回报<p><img src=\"http://www.liunar.net/articles/c316a9326631a93e7ae84c2e4631a934/c316a9326631a93e7ae84c2e4631a934-9.png\" />因为大温各个地区的房屋资本增值率各不相同，所以如果要靠资本增值作为主要盈利方式的话，显然并不是所有区域都合适。很多人会认为租金回报比较稳妥安全，而增值更多是一种赌博。确实是有一定道理。因为相对于看到每月真金白银的租金收入而言，增值比较少有数据可以依赖。<p>数据比较<p>我们假设有两套价值均为$40万加元的房屋，房屋A的预期资本增值率为7%，租金回报率为4%，房屋B数据对调，资本增长率为4%，租金回报率为7%，假设租金收益与资本增长趋势保持一致，小编做了个图表，算出了15年后的预计财务状况：<p><img src=\"http://www.liunar.net/articles/c316a9326631a93e7ae84c2e4631a934/c316a9326631a93e7ae84c2e4631a934-10.png\" />从图表中可以看出，15年后，投资资本增值的房屋A的市场价值大大高于投资租金回报房屋B的价值约$38万，而在投资期间房屋B产生的现金流则大大高于房屋A。<p>最终选择<p>如果是首次置业或者希望每个月能通过房屋产生现金流，则“租金回报”更适合你；<p>如果资金充裕，当然是“资本增值”为更好的选择；<p>如果投资多套房屋，选择其中几套高租金回报率的房屋，使用多余的现金来支付另外几套高资本增值的房屋开支。<p><img src=\"http://www.liunar.net/articles/c316a9326631a93e7ae84c2e4631a934/c316a9326631a93e7ae84c2e4631a934-11.jpeg\" />因为赢利和风险的各不相同，无论是选择资本增值或者租金回报，都能为投资者带来可观的回报和收益，最好还是根据个人的需求和经济情况来抉择，就目前的温哥华房地产市场而言，因为政府增收了15%的海外投资交易税，市场走向尚未明了，“租金回报”不失为更好的选择。", 
        "pageurl": "http://mp.weixin.qq.com/s?src=3&timestamp=1470435903&ver=1&signature=*JvxqlfyDP3p5SOL4LzQA5mjNwiL87hAWAvo2L3u5-Ao2-S2sx1f2ZRy1IgWO8wSW8XmVk4CIAanv2-YJq9dgJfi3Uqn1q8KIhu1FIt9XdINAYkgkU5L1lJrXiBSn67MtvXqrhOhi194NbT5K-Kc5zoNCdnQXwdBy**jw6B68rw=", 
        "create_time": "2016-08-05", 
        "description": "置业温哥华，无非是想要得到投资收益，那么租金回报和资本增值到底孰轻孰重？本文专治“房产选择综合症”...在温哥华投资买房做房东，大家直接想到的就是收租金，而在国内有买房投资经验的可能对资本增值更熟悉，不过在温哥华如何合理运用这两种投资方式还是有一点讲究的", 
        "title": "房屋的“租金回报”和“资本增值”，到底哪个重要？", 
        "textContent": "今日温房网新上市卖房： 394&nbsp;套 昨日温房网浏览买家：6272&nbsp;人 置业温哥华，无非是想要得到投资收益，那么租金回报和资本增值到底孰轻孰重？本文专治“房产选择综合症”...在温哥华投资买房做房东，大家直接想到的就是收租金，而在国内有买房投资经验的可能对资本增值更熟悉，不过在温哥华如何合理运用这两种投资方式还是有一点讲究的。什么是租金回报？租金回报就是将购买的房屋出租获取租金收益，也就是常说的“以租养房”。想要具体衡量租金回报的投资收益情况就需要了解租金回报率 — Rental Yield，也称 Return on Investment（ROI），它的计算方法是：（房屋月租金－房屋月供）× 12 /（房屋首付+房屋贷款），算出的比值越大，就表明越值得投资。7 - 10%左右通常被视为高回报率，然而对于高资本增长房产（独立屋），租金回报率一般在2 - 4%之间。租金回报率较高的房产通常是公寓类型的投资性房地产，因为租金收入大幅高于成本总和，这意味着房屋在产生现金储备，这些现金储备可用于偿还房屋贷款。租金回报的优点投资风险较低，能产生现金流，从而帮助保护投资者免受利率冲击，同时减少持续现金投入的潜在需求。租金回报的缺点在房产出售时，资本增值收益很可能会比拥有强劲资本增长的房产（独立屋）低，特别是将房屋年复合增值率的影响考虑在内。什么是资本增值？资本增值就是将现有房产的市场价值减掉当初购买房产时的市场价格，所赚取的利润，此利润也叫已实现的资本利得，英文是 Capital Gain 或者 Capital Growth。资本增值的收益大部分都是通过购买独立屋实现。在考虑购买资本增值的房屋时，获得可观的资本增长是每个投资者的目的，从长期来看，要把把强劲的资本年增长率定义为通货膨胀率加上4% - 5%，因此考虑的资本增值率应保持在6.5 - 7.5%之间。举个例子：$100万的房子，5年内价格上涨$10万， 它的年升值率是：(100000/5) / 1000000 * 100%=2%，这栋房屋就不是一个好的投资。另外一栋$285万的房子，五年内价格上涨$100万，它的年升值率是：(1000000/5) / 2850000 * 100%=7%，这栋房屋就是一个好的投资。资本增值的优点优点显而易见，具有产生长期资本收益的潜能。资本增值的缺点在持有该类投资性房地产期间需面临利率风险，如果按揭利率上调，你很可能要向房贷月供贴钱。资本增值 vs 租金回报因为大温各个地区的房屋资本增值率各不相同，所以如果要靠资本增值作为主要盈利方式的话，显然并不是所有区域都合适。很多人会认为租金回报比较稳妥安全，而增值更多是一种赌博。确实是有一定道理。因为相对于看到每月真金白银的租金收入而言，增值比较少有数据可以依赖。数据比较我们假设有两套价值均为$40万加元的房屋，房屋A的预期资本增值率为7%，租金回报率为4%，房屋B数据对调，资本增长率为4%，租金回报率为7%，假设租金收益与资本增长趋势保持一致，小编做了个图表，算出了15年后的预计财务状况：从图表中可以看出，15年后，投资资本增值的房屋A的市场价值大大高于投资租金回报房屋B的价值约$38万，而在投资期间房屋B产生的现金流则大大高于房屋A。最终选择如果是首次置业或者希望每个月能通过房屋产生现金流，则“租金回报”更适合你；如果资金充裕，当然是“资本增值”为更好的选择；如果投资多套房屋，选择其中几套高租金回报率的房屋，使用多余的现金来支付另外几套高资本增值的房屋开支。因为赢利和风险的各不相同，无论是选择资本增值或者租金回报，都能为投资者带来可观的回报和收益，最好还是根据个人的需求和经济情况来抉择，就目前的温哥华房地产市场而言，因为政府增收了15%的海外投资交易税，市场走向尚未明了，“租金回报”不失为更好的选择。&nbsp;&nbsp;&nbsp;&nbsp;&nbsp;&nbsp;&nbsp;&nbsp;&nbsp;&nbsp;&nbsp;&nbsp;&nbsp;&nbsp;&nbsp;&nbsp;&nbsp;&nbsp;&nbsp;&nbsp;&nbsp;&nbsp;&nbsp;&nbsp;欢迎点击上方“温房网”关注我们的微信号，我们将不间断为您带来温哥华本地房产资讯以及其他各个方面的生活服务类讯息。如果您对我们的内容有改进建议也欢迎在留言中分享！温房网公众号:wenfangwang长按图片扫描二维码快速关注我们买房卖房都找温房24小时服务热线：中国：&nbsp;400-969-3269", 
        "thumbnail": "/articles/c316a9326631a93e7ae84c2e4631a934/c316a9326631a93e7ae84c2e4631a934-2.jpeg", 
        "source": "温房网"
    }, 
    {
        "category": "留学申请", 
        "content": "中国富人移民的需求<p>从近期中国来看，移民的富人是越来越多，特别是从十八大反腐以来，富豪移动，在国内撤资的人也越来越多。为何会出现这样的局面，原因对中国大部分的富人来讲，很多在国内的财富来源不干净，在反腐的过程中，多多少少会牵连到一定的关系，所以李嘉诚撤资了，还有许多富人都移民了。<img src=\"http://www.liunar.net/articles/2b8fa6b6bd1f1d81edad91aa277956fe/2b8fa6b6bd1f1d81edad91aa277956fe-3.jpeg\" />其实，从这里就可以看出，中国现阶段社会存在的弊端，还有富人的财富来源和贪官之间存有千丝万缕的关系！所以，我曾说过，富豪移民可以，财富来源必须要讲清楚，否则把用不正常的手段获取财富带到国外去，得不到相应的惩罚，便会让越来越多的中国人效仿！对社会来讲，出现这样的情况，实在是很糟糕的事情！▎移民国家的需求而对于中国移民者来讲，最喜欢移民的国家如加拿大，新加坡，英国，美国，澳州等西方国家；但随着中国移民的人数越来越多，很多国家把移民的中国富人看成是一种蝗虫，还有的是马路“杀手”。<img src=\"http://www.liunar.net/articles/2b8fa6b6bd1f1d81edad91aa277956fe/2b8fa6b6bd1f1d81edad91aa277956fe-4.jpeg\" />如近期外媒有则报道：“在中国人的海外投资移民版图中，英国、美国、澳大利亚、新西兰、加拿大等国家仍然备受追捧。因为欧债危机降低移民门槛，同时房地产价格大跌的欧洲各国，也在成为新宠。于是乎，昔日的移民大国开始“翻脸”了！明确表示不再欢迎中国人移民！加拿大、新加坡、澳大利亚、新西兰等四个国家先后出台法令，对单纯的中国土豪们“挥金如土”的移民方式表示了不满。”还有加拿大的《金融邮报》发出这样的疑问。为什么加拿大不要中国富人了？但实际上，中国人热衷移民的国家，或许都会在最近一段时间内重新衡量其过去的移民政策。加拿大一方面创造吸引高技能人才的环境，更看重高技能人才加拿大移民政策的重心正由中国富人转向全球高技能人才和创业者。▎中国移民为何不受欢迎另一方面也表现出了不再欢迎单纯的中国富人移民，而鼓励技术移民。未来，这或许是趋势像加拿大这样的国家最近几年人口数量激增，而中国移民数量已占到了整个移民总数的4成。一些国家的移民政策规定移民要创办企业，因此就有华人收购了已倒闭的零售店，而让自己的亲戚来假装员工。如此弄虚造假，对当地的经济增长毫无益处。所以在加拿大政府看来，他们不需要人的数量上的增长，而需要质量上的提升。目前加大拿政府最看重的是高技能人才的“技术性移民”，而不是“投资性移民”。<img src=\"http://www.liunar.net/articles/2b8fa6b6bd1f1d81edad91aa277956fe/2b8fa6b6bd1f1d81edad91aa277956fe-6.jpeg\" />新加坡媒体也说：第一不欢迎开发商，第二不欢迎煤老板。去年，31岁的中国富豪马驰驾驶一辆价值900万元人民币的红色法拉利跑车，在新加坡市区超速闯红灯与一辆出租车相撞，造成3人死亡。违规、闯红灯、撞死人等等都使得整个中国富人的形象受到很大的影响。这起事件引发了新加坡人对中国移民不满情绪的普遍共鸣。在新加坡甚至出现“应将中国人赶出新加坡”的声浪。澳洲发言“中国移民砸下了42亿澳元买房都来拉涨我们澳洲房价，中国富人像‘蝗虫’一样狂砸巨资拉涨澳大利亚房价，扭曲了房地产数据”。最近几年，在澳大利亚房地产市场里，最活跃的购房者就是华人。过去一年，中国移民砸下了42亿澳元买房。<img src=\"http://www.liunar.net/articles/2b8fa6b6bd1f1d81edad91aa277956fe/2b8fa6b6bd1f1d81edad91aa277956fe-7.jpeg\" />看到这些外媒报道之后，不知中国移民的富豪会做何感想呢？而为什么这些移民大国从开始欢迎中国人移民到现今抵制中国富人移民呢？原因很简单，中国富人把在中国这一套“投机取巧”的本事也在这些国家施展，破坏他们的社会价值观，殊不知，这些国家的政府和民众都不欢迎中国富人这套把戏，自然而然会遭到反感。因此说，中国富豪移民之后，很多人都水土不服，他们很难在这些国家继续创造财富，因为在国内，他们用权力和金钱铺就的成功，在这些都不起作用了。所以很中国很多富豪是移民到国外，再以华价侨的身份回国创业也有很多。要知道，很多中国富人在中国之所以获取大量财富，多数是靠巧取豪夺而拥有的，而在国内，只要有钱就会受人尊重，因为没有人去管你的金钱是怎么来，明明是巧取豪夺，杀人掠财，还要被贴上成功的企业家。但是出了国门，这一套把戏就不管用，如果你还要玩投机取巧的事，会被人看不起，因为你们的行为是人格低下，没有素质的一个群体，金钱只代表你拥有财富，并不代表你的素质就高。<img src=\"http://www.liunar.net/articles/2b8fa6b6bd1f1d81edad91aa277956fe/2b8fa6b6bd1f1d81edad91aa277956fe-8.jpeg\" />▎结语在中国可能有句话：“有钱能使鬼推磨”，并且这句话大多数人都是认同的。而很多暴发户和靠不正常掠夺豪取获取财富的富人更是如此，他们总认为财富可以摆平一切。而且很多民众也这么认同，可以说这种手段成为社会的潜规则，人们明知不可为，但很多人还是为之的。所以一直以来，在中国你不懂得投机取巧就很难成功，你不懂得溜须拍马，就很难被提拔，这些行为是很丑陋，但在我们的国家却被视为“能力”，有时想一想也是很可笑的。昨日，有网友对我讲：“这些移民大国不再需要中国富人分明是对中国富人存有偏见”我听了只是笑笑，要知道，现今中国移民的富人遭移民大国嫌弃，不能单方面说这些移民大国对中国人存在偏见，而我们这些移民的富人到底这些国家做了一些什么呢？是否在夜深人静的想一想！要知道，一个原本守规则，讲原则的国家，突然来了这么一群人，他们不讲规则，不讲原则，总以自己的利益至上，不惜干着伤天害理的丑陋行为。对一个国家的执政者来讲，怎么会欢迎这样的人群呢？因为多年以来，这些移民大国都发觉，中国富人的移民，并没有对所在国的发展带来有多大，相反在很多社会道德上带来很大的破坏！试问这样一群人，岂有不被驱赶之理！<p>", 
        "pageurl": "http://mp.weixin.qq.com/s?src=3&timestamp=1470435902&ver=1&signature=15CsZNeyRHlq6D*sE2S62yN3ikwPXAyUy49zgZcaYeyivNCNzhibaNJreU8TX-gnIXq1I7gKgw00Loz-J1dMJIOsyxWWqrizHrv1Ug6wGcheTL1jEvzVUZQS5l3*0*sDJj8n5JUVLzBCxKAvMvsCJNhyon8tQyWISRcgkLZcWvo=", 
        "create_time": "2016-08-05", 
        "description": "从近期中国来看，移民的富人是越来越多，特别是从十八大反腐以来，富豪移动，在国内撤资的人也越来越多", 
        "title": "移民大国为何称“不再需要中国富人”？", 
        "textContent": "中国富人移民的需求从近期中国来看，移民的富人是越来越多，特别是从十八大反腐以来，富豪移动，在国内撤资的人也越来越多。为何会出现这样的局面，原因对中国大部分的富人来讲，很多在国内的财富来源不干净，在反腐的过程中，多多少少会牵连到一定的关系，所以李嘉诚撤资了，还有许多富人都移民了。其实，从这里就可以看出，中国现阶段社会存在的弊端，还有富人的财富来源和贪官之间存有千丝万缕的关系！所以，我曾说过，富豪移民可以，财富来源必须要讲清楚，否则把用不正常的手段获取财富带到国外去，得不到相应的惩罚，便会让越来越多的中国人效仿！对社会来讲，出现这样的情况，实在是很糟糕的事情！▎移民国家的需求而对于中国移民者来讲，最喜欢移民的国家如加拿大，新加坡，英国，美国，澳州等西方国家；但随着中国移民的人数越来越多，很多国家把移民的中国富人看成是一种蝗虫，还有的是马路“杀手”。如近期外媒有则报道：“在中国人的海外投资移民版图中，英国、美国、澳大利亚、新西兰、加拿大等国家仍然备受追捧。因为欧债危机降低移民门槛，同时房地产价格大跌的欧洲各国，也在成为新宠。于是乎，昔日的移民大国开始“翻脸”了！明确表示不再欢迎中国人移民！加拿大、新加坡、澳大利亚、新西兰等四个国家先后出台法令，对单纯的中国土豪们“挥金如土”的移民方式表示了不满。”还有加拿大的《金融邮报》发出这样的疑问。为什么加拿大不要中国富人了？但实际上，中国人热衷移民的国家，或许都会在最近一段时间内重新衡量其过去的移民政策。加拿大一方面创造吸引高技能人才的环境，更看重高技能人才加拿大移民政策的重心正由中国富人转向全球高技能人才和创业者。▎中国移民为何不受欢迎另一方面也表现出了不再欢迎单纯的中国富人移民，而鼓励技术移民。未来，这或许是趋势像加拿大这样的国家最近几年人口数量激增，而中国移民数量已占到了整个移民总数的4成。一些国家的移民政策规定移民要创办企业，因此就有华人收购了已倒闭的零售店，而让自己的亲戚来假装员工。如此弄虚造假，对当地的经济增长毫无益处。所以在加拿大政府看来，他们不需要人的数量上的增长，而需要质量上的提升。目前加大拿政府最看重的是高技能人才的“技术性移民”，而不是“投资性移民”。新加坡媒体也说：第一不欢迎开发商，第二不欢迎煤老板。去年，31岁的中国富豪马驰驾驶一辆价值900万元人民币的红色法拉利跑车，在新加坡市区超速闯红灯与一辆出租车相撞，造成3人死亡。违规、闯红灯、撞死人等等都使得整个中国富人的形象受到很大的影响。这起事件引发了新加坡人对中国移民不满情绪的普遍共鸣。在新加坡甚至出现“应将中国人赶出新加坡”的声浪。澳洲发言“中国移民砸下了42亿澳元买房都来拉涨我们澳洲房价，中国富人像‘蝗虫’一样狂砸巨资拉涨澳大利亚房价，扭曲了房地产数据”。最近几年，在澳大利亚房地产市场里，最活跃的购房者就是华人。过去一年，中国移民砸下了42亿澳元买房。看到这些外媒报道之后，不知中国移民的富豪会做何感想呢？而为什么这些移民大国从开始欢迎中国人移民到现今抵制中国富人移民呢？原因很简单，中国富人把在中国这一套“投机取巧”的本事也在这些国家施展，破坏他们的社会价值观，殊不知，这些国家的政府和民众都不欢迎中国富人这套把戏，自然而然会遭到反感。因此说，中国富豪移民之后，很多人都水土不服，他们很难在这些国家继续创造财富，因为在国内，他们用权力和金钱铺就的成功，在这些都不起作用了。所以很中国很多富豪是移民到国外，再以华价侨的身份回国创业也有很多。要知道，很多中国富人在中国之所以获取大量财富，多数是靠巧取豪夺而拥有的，而在国内，只要有钱就会受人尊重，因为没有人去管你的金钱是怎么来，明明是巧取豪夺，杀人掠财，还要被贴上成功的企业家。但是出了国门，这一套把戏就不管用，如果你还要玩投机取巧的事，会被人看不起，因为你们的行为是人格低下，没有素质的一个群体，金钱只代表你拥有财富，并不代表你的素质就高。▎结语在中国可能有句话：“有钱能使鬼推磨”，并且这句话大多数人都是认同的。而很多暴发户和靠不正常掠夺豪取获取财富的富人更是如此，他们总认为财富可以摆平一切。而且很多民众也这么认同，可以说这种手段成为社会的潜规则，人们明知不可为，但很多人还是为之的。所以一直以来，在中国你不懂得投机取巧就很难成功，你不懂得溜须拍马，就很难被提拔，这些行为是很丑陋，但在我们的国家却被视为“能力”，有时想一想也是很可笑的。昨日，有网友对我讲：“这些移民大国不再需要中国富人分明是对中国富人存有偏见”我听了只是笑笑，要知道，现今中国移民的富人遭移民大国嫌弃，不能单方面说这些移民大国对中国人存在偏见，而我们这些移民的富人到底这些国家做了一些什么呢？是否在夜深人静的想一想！要知道，一个原本守规则，讲原则的国家，突然来了这么一群人，他们不讲规则，不讲原则，总以自己的利益至上，不惜干着伤天害理的丑陋行为。对一个国家的执政者来讲，怎么会欢迎这样的人群呢？因为多年以来，这些移民大国都发觉，中国富人的移民，并没有对所在国的发展带来有多大，相反在很多社会道德上带来很大的破坏！试问这样一群人，岂有不被驱赶之理！", 
        "thumbnail": "/articles/2b8fa6b6bd1f1d81edad91aa277956fe/2b8fa6b6bd1f1d81edad91aa277956fe-3.jpeg", 
        "source": "加拿大移民家园"
    }, 
    {
        "category": "青少年教育", 
        "content": "<p><img src=\"http://www.liunar.net/articles/105f014fe6a871c46d3176e17e68bee1/105f014fe6a871c46d3176e17e68bee1-1.jpeg\" />成立于2013年的VIPKID是一家面向5-12岁儿童，提供北美外教1对1在线学科英语课程的教育平台。会上，米雯娟称，截至目前，VIPKID共有超过50万的注册用户，付费用户超过3万，续费率95%。外教团队超过3000人，来自40个国家，外教录取率为6%。据介绍，到2017年，VIPKID的年收入将达到20亿元，在读学生数达20万人。此外，VIPKID还宣布邀请刘涛出任VIPKID首席体验官。<img src=\"http://www.liunar.net/articles/105f014fe6a871c46d3176e17e68bee1/105f014fe6a871c46d3176e17e68bee1-2.jpeg\" />&nbsp;真人外教1对1行业格局从去年以来，真人外教1对1口语培训行业的公司不仅获得融资，也备受关注。除了有已经上市的51Talk，获得亿元融资的VIPKID、vipabc，还有较为低调的DaDaABC、ABC360、乐外教等等。今年4月份，51Talk推出“51Talk青少全能新概念”（NCE）并发布全新青少战略时，就透露其在K12市场营收同比增长超四倍，当时青少注册学员数已近百万，贡献的营收占比接近一半。去年11月，vipabc母公司iTutorGroup宣布完成C轮2亿美元融资，估值10亿美元。今年7月，vipabc青少年英语也上线了30分钟的外教微课堂，以外教在线一对一的形式上课。哒哒英语（DaDaABC）是一家专注于K12领域的在线少儿英语教育的网站，平台上采用欧美国家外教授课。据了解，哒哒英语的注册学员有10万人。ABC360平台上的外教大多数来自菲律宾。今年3月，ABC360宣布完成近亿元人民币的B轮融资。“乐外教”是好未来2015年5月推出的外教在线一对一口语学习品牌，乐外教也主要采用菲律宾外教，张邦鑫最近曾透露乐外教目前约有4万名学生。Vipkid号称专注于5-12岁少儿在线英语，但其实际学员还是以5-8岁居多，在K12这个大蛋糕和青少年在线英语行业的整体增长之下，vipkid未来是否又会延伸产品线涉足青年英语学习？未来整个行业的竞争格局又会如何变化？我们不妨再来回顾一下这几家公司的融资历史：VIPKID——<p>2013年12月，VIPKID获得创新工场300万元天使投资；<p>2014年10月，获得经纬中国领投，创新工场和红杉资本联合投资的500万美元A轮融资；<p>2015年10月，获得由北极光创投领投，经纬中国、红杉资本和创新工场跟投的近2000万美元B轮融资；<p>2016年4月，获得真格基金增资；<p>2016年8月，VIPKID获得云锋基金领投、红杉资本跟投的1亿美元C轮融资。vipabc——<p>2015年11月，vipabc母公司iTutorGroup获C轮2亿美元融资，投资方包括新加坡政府投资公司、中俄基金、高盛及银翎资本等；<p>2014年2月，获得B轮1亿美元融资，投资方包括阿里巴巴、淡马锡、启明创投等；<p>2012年5月，iTutorGroup获启明创投1500万美元的A轮融资。51Talk——<p>2016年6月10日，IPO上市，计划融资7240万美元；<p>2015年8月，获得DCM、顺为基金、华兴资本等2000万美元D轮融资；<p>2014年10月，51Talk获得红杉、顺为、DCM等投资的2820万美元C轮融资；<p>2013年7月，获顺为基金、欢聚时代（YY）、DCM一起投资的B轮774万美元投资；<p>2012年12月，获DCM 200万美元A轮投资；<p>2011年12月，获得Kei Hattori和徐小平的真格基金的天使投资20万美元。ABC360——<p>2016年3月，ABC360宣布完成近亿元人民币B轮融资，国金投资领投，清科创投、腾讯众创空间跟投；<p>2015年4月，ABC360宣布获得数千万级别A轮融资，投资方为华睿投资和湖畔山南资本；<p>2014年4月，ABC360获得中金资本的天使轮融资。DaDaABC——<p>2015年8月，获得数千万人民币A轮融资，由龙腾资本领投，飞马基金、青松基金跟投；<p>2014年9月，曾获青松基金数百万元的天使融资。<img src=\"http://www.liunar.net/articles/105f014fe6a871c46d3176e17e68bee1/105f014fe6a871c46d3176e17e68bee1-3.png\" />&nbsp;【鲸媒体观察】值得注意的是，VIPKID此轮融资的领投方云锋基金，是以阿里巴巴董事局主席马云和聚众传媒创始人虞锋的名字命名而成。而vipabc母公司iTutorGroup&nbsp;也得到了阿里的投资，也就说，vipabc与VIPKID存在共同的投资人——马云。ABC360的A轮投资方之一是湖畔山南资本，资料显示，湖畔山南资本的掌门人是谢世煌，而他也是阿里巴巴的联合创始人。如此看来，ABC360、vipabc和VIPKID这三家在线1对1口语培训公司与阿里巴巴之间有着或多或少的联系。此外，今年4月，VIPKID曾获得真格基金增资，而真格基金也是51Talk的天使轮投资方。看来，真格和阿里系资本都在真人直播在线教育这一赛道上给不同的选手下注。今年6月10日晚，51Talk登陆纽交所，计划融资约7240万美元。此次VIPKID的1亿美元融资额大于51Talk上市融资额，也是仅次于VIPABC母公司最近一轮的融资数。在51Talk今年5月份递交的招股书文件中显示，51Talk拟通过IPO募集资金约1亿美元。虽然最后募资金额有所下调，从资本的逻辑来看，VIPKID此次1亿美金的融资或许意味着，虽然51Talk先上市，但真人外教1对1直播的模式依然受到了资本的青睐。此次拿到1亿美元的融资后，VIPKID是否已经感觉到上市的压力？接下来VIPKID的动作或许会为了上市冲收入、做企业规范化运作等等。与线下传统1对1培训相比，在线课程节省了在传统1对1培训中占比约3成的房租成本。如果是北美外教授课，上课时间是中国的晚上（周末除外），在管理外教方面相对灵活。Vipkid官方此前曾表示，其平台上的完课率接近&nbsp;100%，有一半以上用户来自二、三、四线城市，客单价在半年1万元人民币，毛利率50%。用户都是高净值人群，发展很有想象空间，已经有了一定规模，以后再去复制到K12、成人、商务英语等领域也是有可能的。想象一下，若以后外教中加入菲律宾外教，采用“降维攻击”的方式，从商业逻辑和打法上而言比较顺理成章，这对资本来说都很有吸引力。从行业层面来看，根据此前申银万国发布的《互联网教育行业深度报告》显示，未来五年内，中国整个教育培训市场规模约7000亿元，而互联网化的教育市场将达到4000亿元。VIPKID官方称，少儿英语培训市场以每年20%的速度递增，2015年已达到9640万人，预计2016年在线教育用户将突破1.2亿。腾讯此前发布的一份报告则表示，虽然中国K12人群总数约为2.83亿，但目前只有18%接触过在线教育，这也意味着在线教育市场潜力巨大。来源：鲸媒体", 
        "pageurl": "http://mp.weixin.qq.com/s?src=3&timestamp=1470435897&ver=1&signature=iJ8XvMR8mOGRXKrI1LE2iq-5LG-tDe5JnTPxxMarFjqoeWWC0sDWyYIcE-nMk1e784M4O7DnAp7ci8d3jeIIBP73qySVoR9Mza3B2HFr2yC8ReBUM6p*qJWXjpMY6RhXVQlwJ2WXRT6D4U8aSj-37004kWX2FAHh5CIIXyX*rBE=", 
        "create_time": "2016-08-05", 
        "description": "成立于2013年的VIPKID是一家面向5-12岁儿童，提供北美外教1对1在线学科英语课程的教育平台", 
        "title": "真人外教1对1行业格局", 
        "textContent": "成立于2013年的VIPKID是一家面向5-12岁儿童，提供北美外教1对1在线学科英语课程的教育平台。会上，米雯娟称，截至目前，VIPKID共有超过50万的注册用户，付费用户超过3万，续费率95%。外教团队超过3000人，来自40个国家，外教录取率为6%。据介绍，到2017年，VIPKID的年收入将达到20亿元，在读学生数达20万人。此外，VIPKID还宣布邀请刘涛出任VIPKID首席体验官。&nbsp;真人外教1对1行业格局从去年以来，真人外教1对1口语培训行业的公司不仅获得融资，也备受关注。除了有已经上市的51Talk，获得亿元融资的VIPKID、vipabc，还有较为低调的DaDaABC、ABC360、乐外教等等。今年4月份，51Talk推出“51Talk青少全能新概念”（NCE）并发布全新青少战略时，就透露其在K12市场营收同比增长超四倍，当时青少注册学员数已近百万，贡献的营收占比接近一半。去年11月，vipabc母公司iTutorGroup宣布完成C轮2亿美元融资，估值10亿美元。今年7月，vipabc青少年英语也上线了30分钟的外教微课堂，以外教在线一对一的形式上课。哒哒英语（DaDaABC）是一家专注于K12领域的在线少儿英语教育的网站，平台上采用欧美国家外教授课。据了解，哒哒英语的注册学员有10万人。ABC360平台上的外教大多数来自菲律宾。今年3月，ABC360宣布完成近亿元人民币的B轮融资。“乐外教”是好未来2015年5月推出的外教在线一对一口语学习品牌，乐外教也主要采用菲律宾外教，张邦鑫最近曾透露乐外教目前约有4万名学生。Vipkid号称专注于5-12岁少儿在线英语，但其实际学员还是以5-8岁居多，在K12这个大蛋糕和青少年在线英语行业的整体增长之下，vipkid未来是否又会延伸产品线涉足青年英语学习？未来整个行业的竞争格局又会如何变化？我们不妨再来回顾一下这几家公司的融资历史：VIPKID——2013年12月，VIPKID获得创新工场300万元天使投资；2014年10月，获得经纬中国领投，创新工场和红杉资本联合投资的500万美元A轮融资；2015年10月，获得由北极光创投领投，经纬中国、红杉资本和创新工场跟投的近2000万美元B轮融资；2016年4月，获得真格基金增资；2016年8月，VIPKID获得云锋基金领投、红杉资本跟投的1亿美元C轮融资。vipabc——2015年11月，vipabc母公司iTutorGroup获C轮2亿美元融资，投资方包括新加坡政府投资公司、中俄基金、高盛及银翎资本等；2014年2月，获得B轮1亿美元融资，投资方包括阿里巴巴、淡马锡、启明创投等；2012年5月，iTutorGroup获启明创投1500万美元的A轮融资。51Talk——2016年6月10日，IPO上市，计划融资7240万美元；2015年8月，获得DCM、顺为基金、华兴资本等2000万美元D轮融资；2014年10月，51Talk获得红杉、顺为、DCM等投资的2820万美元C轮融资；2013年7月，获顺为基金、欢聚时代（YY）、DCM一起投资的B轮774万美元投资；2012年12月，获DCM 200万美元A轮投资；2011年12月，获得Kei Hattori和徐小平的真格基金的天使投资20万美元。ABC360——2016年3月，ABC360宣布完成近亿元人民币B轮融资，国金投资领投，清科创投、腾讯众创空间跟投；2015年4月，ABC360宣布获得数千万级别A轮融资，投资方为华睿投资和湖畔山南资本；2014年4月，ABC360获得中金资本的天使轮融资。DaDaABC——2015年8月，获得数千万人民币A轮融资，由龙腾资本领投，飞马基金、青松基金跟投；2014年9月，曾获青松基金数百万元的天使融资。&nbsp;【鲸媒体观察】值得注意的是，VIPKID此轮融资的领投方云锋基金，是以阿里巴巴董事局主席马云和聚众传媒创始人虞锋的名字命名而成。而vipabc母公司iTutorGroup&nbsp;也得到了阿里的投资，也就说，vipabc与VIPKID存在共同的投资人——马云。ABC360的A轮投资方之一是湖畔山南资本，资料显示，湖畔山南资本的掌门人是谢世煌，而他也是阿里巴巴的联合创始人。如此看来，ABC360、vipabc和VIPKID这三家在线1对1口语培训公司与阿里巴巴之间有着或多或少的联系。此外，今年4月，VIPKID曾获得真格基金增资，而真格基金也是51Talk的天使轮投资方。看来，真格和阿里系资本都在真人直播在线教育这一赛道上给不同的选手下注。今年6月10日晚，51Talk登陆纽交所，计划融资约7240万美元。此次VIPKID的1亿美元融资额大于51Talk上市融资额，也是仅次于VIPABC母公司最近一轮的融资数。在51Talk今年5月份递交的招股书文件中显示，51Talk拟通过IPO募集资金约1亿美元。虽然最后募资金额有所下调，从资本的逻辑来看，VIPKID此次1亿美金的融资或许意味着，虽然51Talk先上市，但真人外教1对1直播的模式依然受到了资本的青睐。此次拿到1亿美元的融资后，VIPKID是否已经感觉到上市的压力？接下来VIPKID的动作或许会为了上市冲收入、做企业规范化运作等等。与线下传统1对1培训相比，在线课程节省了在传统1对1培训中占比约3成的房租成本。如果是北美外教授课，上课时间是中国的晚上（周末除外），在管理外教方面相对灵活。Vipkid官方此前曾表示，其平台上的完课率接近&nbsp;100%，有一半以上用户来自二、三、四线城市，客单价在半年1万元人民币，毛利率50%。用户都是高净值人群，发展很有想象空间，已经有了一定规模，以后再去复制到K12、成人、商务英语等领域也是有可能的。想象一下，若以后外教中加入菲律宾外教，采用“降维攻击”的方式，从商业逻辑和打法上而言比较顺理成章，这对资本来说都很有吸引力。从行业层面来看，根据此前申银万国发布的《互联网教育行业深度报告》显示，未来五年内，中国整个教育培训市场规模约7000亿元，而互联网化的教育市场将达到4000亿元。VIPKID官方称，少儿英语培训市场以每年20%的速度递增，2015年已达到9640万人，预计2016年在线教育用户将突破1.2亿。腾讯此前发布的一份报告则表示，虽然中国K12人群总数约为2.83亿，但目前只有18%接触过在线教育，这也意味着在线教育市场潜力巨大。来源：鲸媒体", 
        "thumbnail": "/articles/105f014fe6a871c46d3176e17e68bee1/105f014fe6a871c46d3176e17e68bee1-1.jpeg", 
        "source": "灯塔EDU"
    }, 
    {
        "category": "青少年教育", 
        "content": "<img src=\"http://www.liunar.net/articles/9946ddab7059c01bbc607df9fc15dbad/9946ddab7059c01bbc607df9fc15dbad-0.jpeg\" /><p>多知网8月5日消息，这大半年，家教O2O公司都过得心惊胆战。去年10月份开始，几家公司先后停止了补贴大战，资本寒冬来临，钱得省着点花。但是即便这样，家教O2O公司开始强烈感觉到资本风向的转变。&nbsp;去年年初，听到家教O2O概念便蜂拥而至的基金们，到了下半年后半段态度发生大逆转，对家教O2O项目避之不及。打着“烧出个未来”旗号的各家家教O2O们，似乎没捣鼓出什么名堂。金主们很失望，后果比较严重。最直接的后果就是后面跟随的小型O2O机构死了一大批。&nbsp;故事的延续是，几家领跑这个细分赛道的公司分化，开始了坚守和转型。&nbsp;从家教O2O平台到直播+线下孵化器，疯狂老师是其中转型比较猛烈的一家。但从疯狂老师的发展路径来看，有坚守亦有转型。不变的是围绕“好老师”这个核心，变的是呈现方式，从家教O2O平台到直播网校+线下孵化器。&nbsp;直播网校由“叮当课堂”这个新品牌承载，而原来就有线上交易、线下服务交付基因的品牌“疯狂老师”则被灌入了超级名师孵化器。&nbsp;如何以经纪人模式做大班课？如何筛选合适的老师？如何把单个名师的能量放到最大？这些难题留给了疯狂老师联合创始人张剑遵。&nbsp;多知网对话张剑遵，从与他的沟通中，我们似乎可以窥见一个家教O2O公司对整个行业的变迁的理解。&nbsp;<img src=\"http://www.liunar.net/articles/9946ddab7059c01bbc607df9fc15dbad/9946ddab7059c01bbc607df9fc15dbad-1.jpeg\" />梳理课程+上线回放，疯狂老师想在课程产品和技术两个层面提升并攒个“爆品”目前，疯狂老师正在尝试从产品、招生两个大的方面改变O2O平台无法形成变现闭环的难题。&nbsp;与“家长需要什么课程就开什么课程不同”，疯狂老师现在在尝试对消费者说”不“。精减教师团队、砍掉老师薄弱的课程产品，这背后或许预示着传统培训行业出身的疯狂老师团队完成了又一次思维升级，开始具有产品思维。&nbsp;张剑遵说：“和一个月前相比，疯狂老师超级名师孵化器进行了一轮升级。”&nbsp;一个月前，疯狂老师孵化器签下25个名师，准备在线下大干一场。但一个月后的张剑遵却坚定地表示，我们现在找老师有一个非常重要的标准——这个老师是否有课程产品。&nbsp;这一个月，疯狂老师团队主要在帮签进来的老师梳理课程产品。梳理产品，即帮助老师发现老师的最长板，舍弃最短板，进而把长板加长加厚，让课程产品更加经得起用户的检验。&nbsp;疯狂老师孵化器的海淀黄庄分部有两位老师，一位教化学、一位教物理，两人有很多相同点：“长得帅”、“性格高冷”、“上课质量比较好”、“一年能赚过百万”，但是由于各种因素的限制，一个班的学生数也就十来个。&nbsp;张剑遵带他们梳理自己的课程产品，将他们上得好的课程进行强化，关掉上得不好的课程。如果他们自己的学生要续费被关掉的课程，由上得好的老师来上。&nbsp;质疑的声音随即从两端涌来：一方面，老师觉得没安全感，有的老师原来教初高中数学，经过课程梳理之后，课程产品线被砍掉一半。&nbsp;另一方面，家长也找过来，说“我们孩子要报课，你为什么不开。&nbsp;疯狂老师的思路是，找到好的课程产品制造者，并将课程质量和服务质量进行提高，不断扩大老师的能力边界，能力边界提升后，老师所能带的班级就更大，随之收入就更高。&nbsp;从人的层面，疯狂老师还将工作角色进行了细分，以经纪人模式，一个小团队服务一位名师，一个团队中通常有咨询顾问、学管师和助教等角色。这个老师所需要的前期咨询、品牌包装、甚至改作业、做答疑、做招生讲座也是由团队成员完成。&nbsp;在APP端，疯狂老师也做了技术升级，教室里全部装上摄像机，课程开始定点开始录像，课程结束定点关闭。随后，录像即被上传至APP端。“孩子有事没上课？直接打开APP就能补。”这就直接将一部分服务环节交给了技术，节省了运营费用。&nbsp;从课程产品、名师、APP升级等因素看来，疯狂老师希望在各个维度升级对目前学生和家长的服务体验。&nbsp;<img src=\"http://www.liunar.net/articles/9946ddab7059c01bbc607df9fc15dbad/9946ddab7059c01bbc607df9fc15dbad-2.jpeg\" /><p>转化率、续报率和多科率，疯狂老师认为大班是K12辅导的解药&nbsp;&nbsp;&nbsp;&nbsp;提升服务体验是为了老师的”三率“，张剑遵说，只有好的产品，才能促进学生和家长之间的自传播，极大地降低运营成本。&nbsp;现在，疯狂老师孵化器对产品的考评指标有三个：转化率、续报率和多科率。转化率即第一次课上完后，学生报名的比例；续报率即上完一期之后，学生的续报情况；多科率即一个孩子来开始上了一门科目，后来又报名了其他科目的比例。根据这个指标，一个月时间，疯狂老师孵化器签约老师减少了20%。&nbsp;但是另一方面，每个老师所带的班型却在逐渐增大，现在有老师每个班学生平均60-80人，最大的班级有100人，单个老师团队所带的学生数突破500人，下一步的目标是在这个基础上翻倍。&nbsp;疯狂老师在做这一步转型的时候，更多借鉴了香港和台湾的模式。&nbsp;张剑遵说：”我们认为现在辅导行业的趋势一定是低年级小班和一对一占据比较大的份额，然后是两者势均力敌，最后高年级一定是大班模式跑到最后。从香港和台湾的发展路径上看，也是如此。“&nbsp;从老师的角度来说，大班课使得老师的大额收入成为可能，比如香港的补习天王，一年的收入是几千万港币；从学生方面看，好学生会更喜欢好的老师，而由于收益等诸多因素，最顶尖的老师绝大多数集中在大班课的讲台上。&nbsp;现在，高考全国卷的统一趋势为大班课的推广添上了一把火，教学内容的趋同也就意味着一个地方的名师，在多地讲课成为可能，并且因为互联网技术的普及，让老师的边界变得无限。&nbsp;孵化器的第一期招生过后，张剑遵说，数据超乎预料，单月营收已经超过600万元。（多知网 初骊禹）", 
        "pageurl": "http://mp.weixin.qq.com/s?src=3&timestamp=1470435894&ver=1&signature=WtIPDxTHnoEgHzpFk-5qKQcsHzxT9bTdYCXuDwxCFEio2nr-ZqpjNkkv0NNMte2lIxms9OLKa49oO9xy-wnF4IlvF8HgikNwI2EyQJIkEvhdE-jttGZ*i54q2WyUHD1AsieGFyJSEMQgXhsUCiUzHr6ixBA8s71PvC1Epq13LSs=", 
        "create_time": "2016-08-05", 
        "description": "多知网8月5日消息，这大半年，家教O2O公司都过得心惊胆战", 
        "title": "家教O2O遇冷，疯狂老师认为“超级名师”是K12辅导的解药", 
        "textContent": "多知网8月5日消息，这大半年，家教O2O公司都过得心惊胆战。去年10月份开始，几家公司先后停止了补贴大战，资本寒冬来临，钱得省着点花。但是即便这样，家教O2O公司开始强烈感觉到资本风向的转变。&nbsp;去年年初，听到家教O2O概念便蜂拥而至的基金们，到了下半年后半段态度发生大逆转，对家教O2O项目避之不及。打着“烧出个未来”旗号的各家家教O2O们，似乎没捣鼓出什么名堂。金主们很失望，后果比较严重。最直接的后果就是后面跟随的小型O2O机构死了一大批。&nbsp;故事的延续是，几家领跑这个细分赛道的公司分化，开始了坚守和转型。&nbsp;从家教O2O平台到直播+线下孵化器，疯狂老师是其中转型比较猛烈的一家。但从疯狂老师的发展路径来看，有坚守亦有转型。不变的是围绕“好老师”这个核心，变的是呈现方式，从家教O2O平台到直播网校+线下孵化器。&nbsp;直播网校由“叮当课堂”这个新品牌承载，而原来就有线上交易、线下服务交付基因的品牌“疯狂老师”则被灌入了超级名师孵化器。&nbsp;如何以经纪人模式做大班课？如何筛选合适的老师？如何把单个名师的能量放到最大？这些难题留给了疯狂老师联合创始人张剑遵。&nbsp;多知网对话张剑遵，从与他的沟通中，我们似乎可以窥见一个家教O2O公司对整个行业的变迁的理解。&nbsp;梳理课程+上线回放，疯狂老师想在课程产品和技术两个层面提升并攒个“爆品”目前，疯狂老师正在尝试从产品、招生两个大的方面改变O2O平台无法形成变现闭环的难题。&nbsp;与“家长需要什么课程就开什么课程不同”，疯狂老师现在在尝试对消费者说”不“。精减教师团队、砍掉老师薄弱的课程产品，这背后或许预示着传统培训行业出身的疯狂老师团队完成了又一次思维升级，开始具有产品思维。&nbsp;张剑遵说：“和一个月前相比，疯狂老师超级名师孵化器进行了一轮升级。”&nbsp;一个月前，疯狂老师孵化器签下25个名师，准备在线下大干一场。但一个月后的张剑遵却坚定地表示，我们现在找老师有一个非常重要的标准——这个老师是否有课程产品。&nbsp;这一个月，疯狂老师团队主要在帮签进来的老师梳理课程产品。梳理产品，即帮助老师发现老师的最长板，舍弃最短板，进而把长板加长加厚，让课程产品更加经得起用户的检验。&nbsp;疯狂老师孵化器的海淀黄庄分部有两位老师，一位教化学、一位教物理，两人有很多相同点：“长得帅”、“性格高冷”、“上课质量比较好”、“一年能赚过百万”，但是由于各种因素的限制，一个班的学生数也就十来个。&nbsp;张剑遵带他们梳理自己的课程产品，将他们上得好的课程进行强化，关掉上得不好的课程。如果他们自己的学生要续费被关掉的课程，由上得好的老师来上。&nbsp;质疑的声音随即从两端涌来：一方面，老师觉得没安全感，有的老师原来教初高中数学，经过课程梳理之后，课程产品线被砍掉一半。&nbsp;另一方面，家长也找过来，说“我们孩子要报课，你为什么不开。&nbsp;疯狂老师的思路是，找到好的课程产品制造者，并将课程质量和服务质量进行提高，不断扩大老师的能力边界，能力边界提升后，老师所能带的班级就更大，随之收入就更高。&nbsp;从人的层面，疯狂老师还将工作角色进行了细分，以经纪人模式，一个小团队服务一位名师，一个团队中通常有咨询顾问、学管师和助教等角色。这个老师所需要的前期咨询、品牌包装、甚至改作业、做答疑、做招生讲座也是由团队成员完成。&nbsp;在APP端，疯狂老师也做了技术升级，教室里全部装上摄像机，课程开始定点开始录像，课程结束定点关闭。随后，录像即被上传至APP端。“孩子有事没上课？直接打开APP就能补。”这就直接将一部分服务环节交给了技术，节省了运营费用。&nbsp;从课程产品、名师、APP升级等因素看来，疯狂老师希望在各个维度升级对目前学生和家长的服务体验。&nbsp;转化率、续报率和多科率，疯狂老师认为大班是K12辅导的解药&nbsp;&nbsp;&nbsp;&nbsp;提升服务体验是为了老师的”三率“，张剑遵说，只有好的产品，才能促进学生和家长之间的自传播，极大地降低运营成本。&nbsp;现在，疯狂老师孵化器对产品的考评指标有三个：转化率、续报率和多科率。转化率即第一次课上完后，学生报名的比例；续报率即上完一期之后，学生的续报情况；多科率即一个孩子来开始上了一门科目，后来又报名了其他科目的比例。根据这个指标，一个月时间，疯狂老师孵化器签约老师减少了20%。&nbsp;但是另一方面，每个老师所带的班型却在逐渐增大，现在有老师每个班学生平均60-80人，最大的班级有100人，单个老师团队所带的学生数突破500人，下一步的目标是在这个基础上翻倍。&nbsp;疯狂老师在做这一步转型的时候，更多借鉴了香港和台湾的模式。&nbsp;张剑遵说：”我们认为现在辅导行业的趋势一定是低年级小班和一对一占据比较大的份额，然后是两者势均力敌，最后高年级一定是大班模式跑到最后。从香港和台湾的发展路径上看，也是如此。“&nbsp;从老师的角度来说，大班课使得老师的大额收入成为可能，比如香港的补习天王，一年的收入是几千万港币；从学生方面看，好学生会更喜欢好的老师，而由于收益等诸多因素，最顶尖的老师绝大多数集中在大班课的讲台上。&nbsp;现在，高考全国卷的统一趋势为大班课的推广添上了一把火，教学内容的趋同也就意味着一个地方的名师，在多地讲课成为可能，并且因为互联网技术的普及，让老师的边界变得无限。&nbsp;孵化器的第一期招生过后，张剑遵说，数据超乎预料，单月营收已经超过600万元。（多知网 初骊禹）", 
        "thumbnail": "/articles/9946ddab7059c01bbc607df9fc15dbad/9946ddab7059c01bbc607df9fc15dbad-0.jpeg", 
        "source": "多知网"
    }
]